{
    "name": "Port_2_0",
    "components": [
        "CoilSections_1"
    ],
    "inputs": [
        {
            "couplingParameter": "I",
            "labels": [
                "I_CoilSections_1"
            ],
            "types": [
                "TH",
                "EM"
            ]
        }
    ],
    "outputs": [
        {
            "couplingParameter": "R",
            "labels": [
                "R_CoilSections_1"
            ],
            "types": [
                "TH"
            ]
        },
        {
            "couplingParameter": "U",
            "labels": [
                "U_inductive_dynamic_CoilSections_1"
            ],
            "types": [
                "EM"
            ]
        }
    ]
}
