{
    "solverPath": "C:\\Cadence\\SPB_17.4\\tools\\bin\\psp_cmd.exe",
    "modelName": "Circuit.cir",
    "configurationFileName": "Conf.cir",
    "externalStimulusFileName": "ExternalStimulus.stl",
    "initialConditions": [],
    "skipBiasPointCalculation": false
}