

* PSPICE Netlist Simulation File
* Generated on 2020/12/18 14:50:42 at CERN
* Authors: STEAM
.LIB "C:\GitLabRepository\steam-pspice-library\magnet_frequency\Items\MQY_2in1_turns.lib"
**** Global parameters ****
.PARAM
+ L_BUSBAR_1_MQY_2in1={1e-09} 
+ R_PARALLEL_1_MQY_2in1={1000000000.0} 
+ C_PARALLEL_1_MQY_2in1={1e-15} 
+ R_SERIES={100.0} 
+ F_SCALE_C_GROUND={1.0} 
+ F_SCALE_C_T2T={1.0} 
+ F_SCALE_L={1.0} 
+ F_SCALE_R={1.0} 

* Magnet types:
* ['MQY_2in1']
* .STEP PARAM R_Par 10k, 100k, 10k
* Circuit:
R_Series (0series_in 0series_out) {R_SERIES}
* Cell: 1
L_BUSBAR_1_MQY_2in1_N_1 (0series_out 1mid) {L_BUSBAR_1_MQY_2in1}
x_1_MQY_2in1_N_1 (1mid 1out 0) MQY_2in1_turns
+ PARAMS: F_SCALE_C_GROUND={F_SCALE_C_GROUND} F_SCALE_C_T2T={F_SCALE_C_T2T} 
+ F_SCALE_L={F_SCALE_L} F_SCALE_R={F_SCALE_R} 
R_PAR_1_MQY_2in1_N_1 (1mid 1out) {R_PARALLEL_1_MQY_2in1}
C_PAR_1_MQY_2in1_N_1 (1mid 1out) {C_PARALLEL_1_MQY_2in1}
* Cell: 2
L_BUSBAR_1_MQY_2in1_N_2 (1out 2mid) {L_BUSBAR_1_MQY_2in1}
x_1_MQY_2in1_N_2 (2mid 2out 0) MQY_2in1_turns
+ PARAMS: F_SCALE_C_GROUND={F_SCALE_C_GROUND} F_SCALE_C_T2T={F_SCALE_C_T2T} 
+ F_SCALE_L={F_SCALE_L} F_SCALE_R={F_SCALE_R} 
R_PAR_1_MQY_2in1_N_2 (2mid 2out) {R_PARALLEL_1_MQY_2in1}
C_PAR_1_MQY_2in1_N_2 (2mid 2out) {C_PARALLEL_1_MQY_2in1}
* Cell: 3
L_BUSBAR_1_MQY_2in1_N_3 (2out 3mid) {L_BUSBAR_1_MQY_2in1}
x_1_MQY_2in1_N_3 (3mid 3out 0) MQY_2in1_turns
+ PARAMS: F_SCALE_C_GROUND={F_SCALE_C_GROUND} F_SCALE_C_T2T={F_SCALE_C_T2T} 
+ F_SCALE_L={F_SCALE_L} F_SCALE_R={F_SCALE_R} 
R_PAR_1_MQY_2in1_N_3 (3mid 3out) {R_PARALLEL_1_MQY_2in1}
C_PAR_1_MQY_2in1_N_3 (3mid 3out) {C_PARALLEL_1_MQY_2in1}
* Cell: 4
L_BUSBAR_1_MQY_2in1_N_4 (3out 4mid) {L_BUSBAR_1_MQY_2in1}
x_1_MQY_2in1_N_4 (4mid 4out 0) MQY_2in1_turns
+ PARAMS: F_SCALE_C_GROUND={F_SCALE_C_GROUND} F_SCALE_C_T2T={F_SCALE_C_T2T} 
+ F_SCALE_L={F_SCALE_L} F_SCALE_R={F_SCALE_R} 
R_PAR_1_MQY_2in1_N_4 (4mid 4out) {R_PARALLEL_1_MQY_2in1}
C_PAR_1_MQY_2in1_N_4 (4mid 4out) {C_PARALLEL_1_MQY_2in1}
*Last busbar
L_BUSBAR_END (4out 0) {L_BUSBAR_1_MQY_2in1}
* Voltage source
V_AC (0 0series_in) AC 1
* Voltage measurement
E_total_voltage (0 0total_voltage) VALUE = {V(0series_out)-V(4out)}
.OPTION
+ RELTOL=0.01
+ VNTOL=0.000001
+ ABSTOL=0.0000000001
+ CHGTOL=0.00000000000001
+ GMIN=0.0000000001
+ ITL1=400
+ ITL2=20
+ ITL4=400
+ TNOM=27
+ NUMDGT=8

.AUTOCONVERGE
+ RELTOL=0.05
+ VNTOL=0.001
+ ABSTOL=0.00001
+ ITL1=1000
+ ITL2=1000
+ ITL4=1000
+ PIVTOL=0.0000000001

.AC DEC 50 1Hz 200kHz

* Configuration file
.INC configurationFileFrequency.cir
.END

