

* PSPICE Netlist Simulation File
* Generated on 2020/12/18 14:51:05 at CERN
* Authors: STEAM
.LIB "C:\GitLabRepository\steam-pspice-library\magnet_frequency\Items\MCD_turns.lib"
**** Global parameters ****
.PARAM
+ L_BUSBAR_1_MCD={1e-09} 
+ R_PARALLEL_1_MCD={1000000000.0} 
+ C_PARALLEL_1_MCD={1e-15} 
+ R_SERIES={100.0} 
+ F_SCALE_C_GROUND={1.0} 
+ F_SCALE_C_T2T={1.0} 
+ F_SCALE_L={1.0} 
+ F_SCALE_R={1.0} 

* Magnet types:
* ['MCD']
* .STEP PARAM R_Par 10k, 100k, 10k
* Circuit:
R_Series (0series_in 0series_out) {R_SERIES}
* Cell: 1
L_BUSBAR_1_MCD_N_1 (0series_out 1mid) {L_BUSBAR_1_MCD}
x_1_MCD_N_1 (1mid 1out 0) MCD_turns
+ PARAMS: F_SCALE_C_GROUND={F_SCALE_C_GROUND} F_SCALE_C_T2T={F_SCALE_C_T2T} 
+ F_SCALE_L={F_SCALE_L} F_SCALE_R={F_SCALE_R} 
R_PAR_1_MCD_N_1 (1mid 1out) {R_PARALLEL_1_MCD}
C_PAR_1_MCD_N_1 (1mid 1out) {C_PARALLEL_1_MCD}
* Cell: 2
L_BUSBAR_1_MCD_N_2 (1out 2mid) {L_BUSBAR_1_MCD}
x_1_MCD_N_2 (2mid 2out 0) MCD_turns
+ PARAMS: F_SCALE_C_GROUND={F_SCALE_C_GROUND} F_SCALE_C_T2T={F_SCALE_C_T2T} 
+ F_SCALE_L={F_SCALE_L} F_SCALE_R={F_SCALE_R} 
R_PAR_1_MCD_N_2 (2mid 2out) {R_PARALLEL_1_MCD}
C_PAR_1_MCD_N_2 (2mid 2out) {C_PARALLEL_1_MCD}
* Cell: 3
L_BUSBAR_1_MCD_N_3 (2out 3mid) {L_BUSBAR_1_MCD}
x_1_MCD_N_3 (3mid 3out 0) MCD_turns
+ PARAMS: F_SCALE_C_GROUND={F_SCALE_C_GROUND} F_SCALE_C_T2T={F_SCALE_C_T2T} 
+ F_SCALE_L={F_SCALE_L} F_SCALE_R={F_SCALE_R} 
R_PAR_1_MCD_N_3 (3mid 3out) {R_PARALLEL_1_MCD}
C_PAR_1_MCD_N_3 (3mid 3out) {C_PARALLEL_1_MCD}
* Cell: 4
L_BUSBAR_1_MCD_N_4 (3out 4mid) {L_BUSBAR_1_MCD}
x_1_MCD_N_4 (4mid 4out 0) MCD_turns
+ PARAMS: F_SCALE_C_GROUND={F_SCALE_C_GROUND} F_SCALE_C_T2T={F_SCALE_C_T2T} 
+ F_SCALE_L={F_SCALE_L} F_SCALE_R={F_SCALE_R} 
R_PAR_1_MCD_N_4 (4mid 4out) {R_PARALLEL_1_MCD}
C_PAR_1_MCD_N_4 (4mid 4out) {C_PARALLEL_1_MCD}
* Cell: 5
L_BUSBAR_1_MCD_N_5 (4out 5mid) {L_BUSBAR_1_MCD}
x_1_MCD_N_5 (5mid 5out 0) MCD_turns
+ PARAMS: F_SCALE_C_GROUND={F_SCALE_C_GROUND} F_SCALE_C_T2T={F_SCALE_C_T2T} 
+ F_SCALE_L={F_SCALE_L} F_SCALE_R={F_SCALE_R} 
R_PAR_1_MCD_N_5 (5mid 5out) {R_PARALLEL_1_MCD}
C_PAR_1_MCD_N_5 (5mid 5out) {C_PARALLEL_1_MCD}
* Cell: 6
L_BUSBAR_1_MCD_N_6 (5out 6mid) {L_BUSBAR_1_MCD}
x_1_MCD_N_6 (6mid 6out 0) MCD_turns
+ PARAMS: F_SCALE_C_GROUND={F_SCALE_C_GROUND} F_SCALE_C_T2T={F_SCALE_C_T2T} 
+ F_SCALE_L={F_SCALE_L} F_SCALE_R={F_SCALE_R} 
R_PAR_1_MCD_N_6 (6mid 6out) {R_PARALLEL_1_MCD}
C_PAR_1_MCD_N_6 (6mid 6out) {C_PARALLEL_1_MCD}
* Cell: 7
L_BUSBAR_1_MCD_N_7 (6out 7mid) {L_BUSBAR_1_MCD}
x_1_MCD_N_7 (7mid 7out 0) MCD_turns
+ PARAMS: F_SCALE_C_GROUND={F_SCALE_C_GROUND} F_SCALE_C_T2T={F_SCALE_C_T2T} 
+ F_SCALE_L={F_SCALE_L} F_SCALE_R={F_SCALE_R} 
R_PAR_1_MCD_N_7 (7mid 7out) {R_PARALLEL_1_MCD}
C_PAR_1_MCD_N_7 (7mid 7out) {C_PARALLEL_1_MCD}
* Cell: 8
L_BUSBAR_1_MCD_N_8 (7out 8mid) {L_BUSBAR_1_MCD}
x_1_MCD_N_8 (8mid 8out 0) MCD_turns
+ PARAMS: F_SCALE_C_GROUND={F_SCALE_C_GROUND} F_SCALE_C_T2T={F_SCALE_C_T2T} 
+ F_SCALE_L={F_SCALE_L} F_SCALE_R={F_SCALE_R} 
R_PAR_1_MCD_N_8 (8mid 8out) {R_PARALLEL_1_MCD}
C_PAR_1_MCD_N_8 (8mid 8out) {C_PARALLEL_1_MCD}
* Cell: 9
L_BUSBAR_1_MCD_N_9 (8out 9mid) {L_BUSBAR_1_MCD}
x_1_MCD_N_9 (9mid 9out 0) MCD_turns
+ PARAMS: F_SCALE_C_GROUND={F_SCALE_C_GROUND} F_SCALE_C_T2T={F_SCALE_C_T2T} 
+ F_SCALE_L={F_SCALE_L} F_SCALE_R={F_SCALE_R} 
R_PAR_1_MCD_N_9 (9mid 9out) {R_PARALLEL_1_MCD}
C_PAR_1_MCD_N_9 (9mid 9out) {C_PARALLEL_1_MCD}
* Cell: 10
L_BUSBAR_1_MCD_N_10 (9out 10mid) {L_BUSBAR_1_MCD}
x_1_MCD_N_10 (10mid 10out 0) MCD_turns
+ PARAMS: F_SCALE_C_GROUND={F_SCALE_C_GROUND} F_SCALE_C_T2T={F_SCALE_C_T2T} 
+ F_SCALE_L={F_SCALE_L} F_SCALE_R={F_SCALE_R} 
R_PAR_1_MCD_N_10 (10mid 10out) {R_PARALLEL_1_MCD}
C_PAR_1_MCD_N_10 (10mid 10out) {C_PARALLEL_1_MCD}
* Cell: 11
L_BUSBAR_1_MCD_N_11 (10out 11mid) {L_BUSBAR_1_MCD}
x_1_MCD_N_11 (11mid 11out 0) MCD_turns
+ PARAMS: F_SCALE_C_GROUND={F_SCALE_C_GROUND} F_SCALE_C_T2T={F_SCALE_C_T2T} 
+ F_SCALE_L={F_SCALE_L} F_SCALE_R={F_SCALE_R} 
R_PAR_1_MCD_N_11 (11mid 11out) {R_PARALLEL_1_MCD}
C_PAR_1_MCD_N_11 (11mid 11out) {C_PARALLEL_1_MCD}
* Cell: 12
L_BUSBAR_1_MCD_N_12 (11out 12mid) {L_BUSBAR_1_MCD}
x_1_MCD_N_12 (12mid 12out 0) MCD_turns
+ PARAMS: F_SCALE_C_GROUND={F_SCALE_C_GROUND} F_SCALE_C_T2T={F_SCALE_C_T2T} 
+ F_SCALE_L={F_SCALE_L} F_SCALE_R={F_SCALE_R} 
R_PAR_1_MCD_N_12 (12mid 12out) {R_PARALLEL_1_MCD}
C_PAR_1_MCD_N_12 (12mid 12out) {C_PARALLEL_1_MCD}
* Cell: 13
L_BUSBAR_1_MCD_N_13 (12out 13mid) {L_BUSBAR_1_MCD}
x_1_MCD_N_13 (13mid 13out 0) MCD_turns
+ PARAMS: F_SCALE_C_GROUND={F_SCALE_C_GROUND} F_SCALE_C_T2T={F_SCALE_C_T2T} 
+ F_SCALE_L={F_SCALE_L} F_SCALE_R={F_SCALE_R} 
R_PAR_1_MCD_N_13 (13mid 13out) {R_PARALLEL_1_MCD}
C_PAR_1_MCD_N_13 (13mid 13out) {C_PARALLEL_1_MCD}
* Cell: 14
L_BUSBAR_1_MCD_N_14 (13out 14mid) {L_BUSBAR_1_MCD}
x_1_MCD_N_14 (14mid 14out 0) MCD_turns
+ PARAMS: F_SCALE_C_GROUND={F_SCALE_C_GROUND} F_SCALE_C_T2T={F_SCALE_C_T2T} 
+ F_SCALE_L={F_SCALE_L} F_SCALE_R={F_SCALE_R} 
R_PAR_1_MCD_N_14 (14mid 14out) {R_PARALLEL_1_MCD}
C_PAR_1_MCD_N_14 (14mid 14out) {C_PARALLEL_1_MCD}
* Cell: 15
L_BUSBAR_1_MCD_N_15 (14out 15mid) {L_BUSBAR_1_MCD}
x_1_MCD_N_15 (15mid 15out 0) MCD_turns
+ PARAMS: F_SCALE_C_GROUND={F_SCALE_C_GROUND} F_SCALE_C_T2T={F_SCALE_C_T2T} 
+ F_SCALE_L={F_SCALE_L} F_SCALE_R={F_SCALE_R} 
R_PAR_1_MCD_N_15 (15mid 15out) {R_PARALLEL_1_MCD}
C_PAR_1_MCD_N_15 (15mid 15out) {C_PARALLEL_1_MCD}
* Cell: 16
L_BUSBAR_1_MCD_N_16 (15out 16mid) {L_BUSBAR_1_MCD}
x_1_MCD_N_16 (16mid 16out 0) MCD_turns
+ PARAMS: F_SCALE_C_GROUND={F_SCALE_C_GROUND} F_SCALE_C_T2T={F_SCALE_C_T2T} 
+ F_SCALE_L={F_SCALE_L} F_SCALE_R={F_SCALE_R} 
R_PAR_1_MCD_N_16 (16mid 16out) {R_PARALLEL_1_MCD}
C_PAR_1_MCD_N_16 (16mid 16out) {C_PARALLEL_1_MCD}
* Cell: 17
L_BUSBAR_1_MCD_N_17 (16out 17mid) {L_BUSBAR_1_MCD}
x_1_MCD_N_17 (17mid 17out 0) MCD_turns
+ PARAMS: F_SCALE_C_GROUND={F_SCALE_C_GROUND} F_SCALE_C_T2T={F_SCALE_C_T2T} 
+ F_SCALE_L={F_SCALE_L} F_SCALE_R={F_SCALE_R} 
R_PAR_1_MCD_N_17 (17mid 17out) {R_PARALLEL_1_MCD}
C_PAR_1_MCD_N_17 (17mid 17out) {C_PARALLEL_1_MCD}
* Cell: 18
L_BUSBAR_1_MCD_N_18 (17out 18mid) {L_BUSBAR_1_MCD}
x_1_MCD_N_18 (18mid 18out 0) MCD_turns
+ PARAMS: F_SCALE_C_GROUND={F_SCALE_C_GROUND} F_SCALE_C_T2T={F_SCALE_C_T2T} 
+ F_SCALE_L={F_SCALE_L} F_SCALE_R={F_SCALE_R} 
R_PAR_1_MCD_N_18 (18mid 18out) {R_PARALLEL_1_MCD}
C_PAR_1_MCD_N_18 (18mid 18out) {C_PARALLEL_1_MCD}
* Cell: 19
L_BUSBAR_1_MCD_N_19 (18out 19mid) {L_BUSBAR_1_MCD}
x_1_MCD_N_19 (19mid 19out 0) MCD_turns
+ PARAMS: F_SCALE_C_GROUND={F_SCALE_C_GROUND} F_SCALE_C_T2T={F_SCALE_C_T2T} 
+ F_SCALE_L={F_SCALE_L} F_SCALE_R={F_SCALE_R} 
R_PAR_1_MCD_N_19 (19mid 19out) {R_PARALLEL_1_MCD}
C_PAR_1_MCD_N_19 (19mid 19out) {C_PARALLEL_1_MCD}
* Cell: 20
L_BUSBAR_1_MCD_N_20 (19out 20mid) {L_BUSBAR_1_MCD}
x_1_MCD_N_20 (20mid 20out 0) MCD_turns
+ PARAMS: F_SCALE_C_GROUND={F_SCALE_C_GROUND} F_SCALE_C_T2T={F_SCALE_C_T2T} 
+ F_SCALE_L={F_SCALE_L} F_SCALE_R={F_SCALE_R} 
R_PAR_1_MCD_N_20 (20mid 20out) {R_PARALLEL_1_MCD}
C_PAR_1_MCD_N_20 (20mid 20out) {C_PARALLEL_1_MCD}
* Cell: 21
L_BUSBAR_1_MCD_N_21 (20out 21mid) {L_BUSBAR_1_MCD}
x_1_MCD_N_21 (21mid 21out 0) MCD_turns
+ PARAMS: F_SCALE_C_GROUND={F_SCALE_C_GROUND} F_SCALE_C_T2T={F_SCALE_C_T2T} 
+ F_SCALE_L={F_SCALE_L} F_SCALE_R={F_SCALE_R} 
R_PAR_1_MCD_N_21 (21mid 21out) {R_PARALLEL_1_MCD}
C_PAR_1_MCD_N_21 (21mid 21out) {C_PARALLEL_1_MCD}
* Cell: 22
L_BUSBAR_1_MCD_N_22 (21out 22mid) {L_BUSBAR_1_MCD}
x_1_MCD_N_22 (22mid 22out 0) MCD_turns
+ PARAMS: F_SCALE_C_GROUND={F_SCALE_C_GROUND} F_SCALE_C_T2T={F_SCALE_C_T2T} 
+ F_SCALE_L={F_SCALE_L} F_SCALE_R={F_SCALE_R} 
R_PAR_1_MCD_N_22 (22mid 22out) {R_PARALLEL_1_MCD}
C_PAR_1_MCD_N_22 (22mid 22out) {C_PARALLEL_1_MCD}
* Cell: 23
L_BUSBAR_1_MCD_N_23 (22out 23mid) {L_BUSBAR_1_MCD}
x_1_MCD_N_23 (23mid 23out 0) MCD_turns
+ PARAMS: F_SCALE_C_GROUND={F_SCALE_C_GROUND} F_SCALE_C_T2T={F_SCALE_C_T2T} 
+ F_SCALE_L={F_SCALE_L} F_SCALE_R={F_SCALE_R} 
R_PAR_1_MCD_N_23 (23mid 23out) {R_PARALLEL_1_MCD}
C_PAR_1_MCD_N_23 (23mid 23out) {C_PARALLEL_1_MCD}
* Cell: 24
L_BUSBAR_1_MCD_N_24 (23out 24mid) {L_BUSBAR_1_MCD}
x_1_MCD_N_24 (24mid 24out 0) MCD_turns
+ PARAMS: F_SCALE_C_GROUND={F_SCALE_C_GROUND} F_SCALE_C_T2T={F_SCALE_C_T2T} 
+ F_SCALE_L={F_SCALE_L} F_SCALE_R={F_SCALE_R} 
R_PAR_1_MCD_N_24 (24mid 24out) {R_PARALLEL_1_MCD}
C_PAR_1_MCD_N_24 (24mid 24out) {C_PARALLEL_1_MCD}
* Cell: 25
L_BUSBAR_1_MCD_N_25 (24out 25mid) {L_BUSBAR_1_MCD}
x_1_MCD_N_25 (25mid 25out 0) MCD_turns
+ PARAMS: F_SCALE_C_GROUND={F_SCALE_C_GROUND} F_SCALE_C_T2T={F_SCALE_C_T2T} 
+ F_SCALE_L={F_SCALE_L} F_SCALE_R={F_SCALE_R} 
R_PAR_1_MCD_N_25 (25mid 25out) {R_PARALLEL_1_MCD}
C_PAR_1_MCD_N_25 (25mid 25out) {C_PARALLEL_1_MCD}
* Cell: 26
L_BUSBAR_1_MCD_N_26 (25out 26mid) {L_BUSBAR_1_MCD}
x_1_MCD_N_26 (26mid 26out 0) MCD_turns
+ PARAMS: F_SCALE_C_GROUND={F_SCALE_C_GROUND} F_SCALE_C_T2T={F_SCALE_C_T2T} 
+ F_SCALE_L={F_SCALE_L} F_SCALE_R={F_SCALE_R} 
R_PAR_1_MCD_N_26 (26mid 26out) {R_PARALLEL_1_MCD}
C_PAR_1_MCD_N_26 (26mid 26out) {C_PARALLEL_1_MCD}
* Cell: 27
L_BUSBAR_1_MCD_N_27 (26out 27mid) {L_BUSBAR_1_MCD}
x_1_MCD_N_27 (27mid 27out 0) MCD_turns
+ PARAMS: F_SCALE_C_GROUND={F_SCALE_C_GROUND} F_SCALE_C_T2T={F_SCALE_C_T2T} 
+ F_SCALE_L={F_SCALE_L} F_SCALE_R={F_SCALE_R} 
R_PAR_1_MCD_N_27 (27mid 27out) {R_PARALLEL_1_MCD}
C_PAR_1_MCD_N_27 (27mid 27out) {C_PARALLEL_1_MCD}
* Cell: 28
L_BUSBAR_1_MCD_N_28 (27out 28mid) {L_BUSBAR_1_MCD}
x_1_MCD_N_28 (28mid 28out 0) MCD_turns
+ PARAMS: F_SCALE_C_GROUND={F_SCALE_C_GROUND} F_SCALE_C_T2T={F_SCALE_C_T2T} 
+ F_SCALE_L={F_SCALE_L} F_SCALE_R={F_SCALE_R} 
R_PAR_1_MCD_N_28 (28mid 28out) {R_PARALLEL_1_MCD}
C_PAR_1_MCD_N_28 (28mid 28out) {C_PARALLEL_1_MCD}
* Cell: 29
L_BUSBAR_1_MCD_N_29 (28out 29mid) {L_BUSBAR_1_MCD}
x_1_MCD_N_29 (29mid 29out 0) MCD_turns
+ PARAMS: F_SCALE_C_GROUND={F_SCALE_C_GROUND} F_SCALE_C_T2T={F_SCALE_C_T2T} 
+ F_SCALE_L={F_SCALE_L} F_SCALE_R={F_SCALE_R} 
R_PAR_1_MCD_N_29 (29mid 29out) {R_PARALLEL_1_MCD}
C_PAR_1_MCD_N_29 (29mid 29out) {C_PARALLEL_1_MCD}
* Cell: 30
L_BUSBAR_1_MCD_N_30 (29out 30mid) {L_BUSBAR_1_MCD}
x_1_MCD_N_30 (30mid 30out 0) MCD_turns
+ PARAMS: F_SCALE_C_GROUND={F_SCALE_C_GROUND} F_SCALE_C_T2T={F_SCALE_C_T2T} 
+ F_SCALE_L={F_SCALE_L} F_SCALE_R={F_SCALE_R} 
R_PAR_1_MCD_N_30 (30mid 30out) {R_PARALLEL_1_MCD}
C_PAR_1_MCD_N_30 (30mid 30out) {C_PARALLEL_1_MCD}
* Cell: 31
L_BUSBAR_1_MCD_N_31 (30out 31mid) {L_BUSBAR_1_MCD}
x_1_MCD_N_31 (31mid 31out 0) MCD_turns
+ PARAMS: F_SCALE_C_GROUND={F_SCALE_C_GROUND} F_SCALE_C_T2T={F_SCALE_C_T2T} 
+ F_SCALE_L={F_SCALE_L} F_SCALE_R={F_SCALE_R} 
R_PAR_1_MCD_N_31 (31mid 31out) {R_PARALLEL_1_MCD}
C_PAR_1_MCD_N_31 (31mid 31out) {C_PARALLEL_1_MCD}
* Cell: 32
L_BUSBAR_1_MCD_N_32 (31out 32mid) {L_BUSBAR_1_MCD}
x_1_MCD_N_32 (32mid 32out 0) MCD_turns
+ PARAMS: F_SCALE_C_GROUND={F_SCALE_C_GROUND} F_SCALE_C_T2T={F_SCALE_C_T2T} 
+ F_SCALE_L={F_SCALE_L} F_SCALE_R={F_SCALE_R} 
R_PAR_1_MCD_N_32 (32mid 32out) {R_PARALLEL_1_MCD}
C_PAR_1_MCD_N_32 (32mid 32out) {C_PARALLEL_1_MCD}
* Cell: 33
L_BUSBAR_1_MCD_N_33 (32out 33mid) {L_BUSBAR_1_MCD}
x_1_MCD_N_33 (33mid 33out 0) MCD_turns
+ PARAMS: F_SCALE_C_GROUND={F_SCALE_C_GROUND} F_SCALE_C_T2T={F_SCALE_C_T2T} 
+ F_SCALE_L={F_SCALE_L} F_SCALE_R={F_SCALE_R} 
R_PAR_1_MCD_N_33 (33mid 33out) {R_PARALLEL_1_MCD}
C_PAR_1_MCD_N_33 (33mid 33out) {C_PARALLEL_1_MCD}
* Cell: 34
L_BUSBAR_1_MCD_N_34 (33out 34mid) {L_BUSBAR_1_MCD}
x_1_MCD_N_34 (34mid 34out 0) MCD_turns
+ PARAMS: F_SCALE_C_GROUND={F_SCALE_C_GROUND} F_SCALE_C_T2T={F_SCALE_C_T2T} 
+ F_SCALE_L={F_SCALE_L} F_SCALE_R={F_SCALE_R} 
R_PAR_1_MCD_N_34 (34mid 34out) {R_PARALLEL_1_MCD}
C_PAR_1_MCD_N_34 (34mid 34out) {C_PARALLEL_1_MCD}
* Cell: 35
L_BUSBAR_1_MCD_N_35 (34out 35mid) {L_BUSBAR_1_MCD}
x_1_MCD_N_35 (35mid 35out 0) MCD_turns
+ PARAMS: F_SCALE_C_GROUND={F_SCALE_C_GROUND} F_SCALE_C_T2T={F_SCALE_C_T2T} 
+ F_SCALE_L={F_SCALE_L} F_SCALE_R={F_SCALE_R} 
R_PAR_1_MCD_N_35 (35mid 35out) {R_PARALLEL_1_MCD}
C_PAR_1_MCD_N_35 (35mid 35out) {C_PARALLEL_1_MCD}
* Cell: 36
L_BUSBAR_1_MCD_N_36 (35out 36mid) {L_BUSBAR_1_MCD}
x_1_MCD_N_36 (36mid 36out 0) MCD_turns
+ PARAMS: F_SCALE_C_GROUND={F_SCALE_C_GROUND} F_SCALE_C_T2T={F_SCALE_C_T2T} 
+ F_SCALE_L={F_SCALE_L} F_SCALE_R={F_SCALE_R} 
R_PAR_1_MCD_N_36 (36mid 36out) {R_PARALLEL_1_MCD}
C_PAR_1_MCD_N_36 (36mid 36out) {C_PARALLEL_1_MCD}
* Cell: 37
L_BUSBAR_1_MCD_N_37 (36out 37mid) {L_BUSBAR_1_MCD}
x_1_MCD_N_37 (37mid 37out 0) MCD_turns
+ PARAMS: F_SCALE_C_GROUND={F_SCALE_C_GROUND} F_SCALE_C_T2T={F_SCALE_C_T2T} 
+ F_SCALE_L={F_SCALE_L} F_SCALE_R={F_SCALE_R} 
R_PAR_1_MCD_N_37 (37mid 37out) {R_PARALLEL_1_MCD}
C_PAR_1_MCD_N_37 (37mid 37out) {C_PARALLEL_1_MCD}
* Cell: 38
L_BUSBAR_1_MCD_N_38 (37out 38mid) {L_BUSBAR_1_MCD}
x_1_MCD_N_38 (38mid 38out 0) MCD_turns
+ PARAMS: F_SCALE_C_GROUND={F_SCALE_C_GROUND} F_SCALE_C_T2T={F_SCALE_C_T2T} 
+ F_SCALE_L={F_SCALE_L} F_SCALE_R={F_SCALE_R} 
R_PAR_1_MCD_N_38 (38mid 38out) {R_PARALLEL_1_MCD}
C_PAR_1_MCD_N_38 (38mid 38out) {C_PARALLEL_1_MCD}
* Cell: 39
L_BUSBAR_1_MCD_N_39 (38out 39mid) {L_BUSBAR_1_MCD}
x_1_MCD_N_39 (39mid 39out 0) MCD_turns
+ PARAMS: F_SCALE_C_GROUND={F_SCALE_C_GROUND} F_SCALE_C_T2T={F_SCALE_C_T2T} 
+ F_SCALE_L={F_SCALE_L} F_SCALE_R={F_SCALE_R} 
R_PAR_1_MCD_N_39 (39mid 39out) {R_PARALLEL_1_MCD}
C_PAR_1_MCD_N_39 (39mid 39out) {C_PARALLEL_1_MCD}
* Cell: 40
L_BUSBAR_1_MCD_N_40 (39out 40mid) {L_BUSBAR_1_MCD}
x_1_MCD_N_40 (40mid 40out 0) MCD_turns
+ PARAMS: F_SCALE_C_GROUND={F_SCALE_C_GROUND} F_SCALE_C_T2T={F_SCALE_C_T2T} 
+ F_SCALE_L={F_SCALE_L} F_SCALE_R={F_SCALE_R} 
R_PAR_1_MCD_N_40 (40mid 40out) {R_PARALLEL_1_MCD}
C_PAR_1_MCD_N_40 (40mid 40out) {C_PARALLEL_1_MCD}
* Cell: 41
L_BUSBAR_1_MCD_N_41 (40out 41mid) {L_BUSBAR_1_MCD}
x_1_MCD_N_41 (41mid 41out 0) MCD_turns
+ PARAMS: F_SCALE_C_GROUND={F_SCALE_C_GROUND} F_SCALE_C_T2T={F_SCALE_C_T2T} 
+ F_SCALE_L={F_SCALE_L} F_SCALE_R={F_SCALE_R} 
R_PAR_1_MCD_N_41 (41mid 41out) {R_PARALLEL_1_MCD}
C_PAR_1_MCD_N_41 (41mid 41out) {C_PARALLEL_1_MCD}
* Cell: 42
L_BUSBAR_1_MCD_N_42 (41out 42mid) {L_BUSBAR_1_MCD}
x_1_MCD_N_42 (42mid 42out 0) MCD_turns
+ PARAMS: F_SCALE_C_GROUND={F_SCALE_C_GROUND} F_SCALE_C_T2T={F_SCALE_C_T2T} 
+ F_SCALE_L={F_SCALE_L} F_SCALE_R={F_SCALE_R} 
R_PAR_1_MCD_N_42 (42mid 42out) {R_PARALLEL_1_MCD}
C_PAR_1_MCD_N_42 (42mid 42out) {C_PARALLEL_1_MCD}
* Cell: 43
L_BUSBAR_1_MCD_N_43 (42out 43mid) {L_BUSBAR_1_MCD}
x_1_MCD_N_43 (43mid 43out 0) MCD_turns
+ PARAMS: F_SCALE_C_GROUND={F_SCALE_C_GROUND} F_SCALE_C_T2T={F_SCALE_C_T2T} 
+ F_SCALE_L={F_SCALE_L} F_SCALE_R={F_SCALE_R} 
R_PAR_1_MCD_N_43 (43mid 43out) {R_PARALLEL_1_MCD}
C_PAR_1_MCD_N_43 (43mid 43out) {C_PARALLEL_1_MCD}
* Cell: 44
L_BUSBAR_1_MCD_N_44 (43out 44mid) {L_BUSBAR_1_MCD}
x_1_MCD_N_44 (44mid 44out 0) MCD_turns
+ PARAMS: F_SCALE_C_GROUND={F_SCALE_C_GROUND} F_SCALE_C_T2T={F_SCALE_C_T2T} 
+ F_SCALE_L={F_SCALE_L} F_SCALE_R={F_SCALE_R} 
R_PAR_1_MCD_N_44 (44mid 44out) {R_PARALLEL_1_MCD}
C_PAR_1_MCD_N_44 (44mid 44out) {C_PARALLEL_1_MCD}
* Cell: 45
L_BUSBAR_1_MCD_N_45 (44out 45mid) {L_BUSBAR_1_MCD}
x_1_MCD_N_45 (45mid 45out 0) MCD_turns
+ PARAMS: F_SCALE_C_GROUND={F_SCALE_C_GROUND} F_SCALE_C_T2T={F_SCALE_C_T2T} 
+ F_SCALE_L={F_SCALE_L} F_SCALE_R={F_SCALE_R} 
R_PAR_1_MCD_N_45 (45mid 45out) {R_PARALLEL_1_MCD}
C_PAR_1_MCD_N_45 (45mid 45out) {C_PARALLEL_1_MCD}
* Cell: 46
L_BUSBAR_1_MCD_N_46 (45out 46mid) {L_BUSBAR_1_MCD}
x_1_MCD_N_46 (46mid 46out 0) MCD_turns
+ PARAMS: F_SCALE_C_GROUND={F_SCALE_C_GROUND} F_SCALE_C_T2T={F_SCALE_C_T2T} 
+ F_SCALE_L={F_SCALE_L} F_SCALE_R={F_SCALE_R} 
R_PAR_1_MCD_N_46 (46mid 46out) {R_PARALLEL_1_MCD}
C_PAR_1_MCD_N_46 (46mid 46out) {C_PARALLEL_1_MCD}
* Cell: 47
L_BUSBAR_1_MCD_N_47 (46out 47mid) {L_BUSBAR_1_MCD}
x_1_MCD_N_47 (47mid 47out 0) MCD_turns
+ PARAMS: F_SCALE_C_GROUND={F_SCALE_C_GROUND} F_SCALE_C_T2T={F_SCALE_C_T2T} 
+ F_SCALE_L={F_SCALE_L} F_SCALE_R={F_SCALE_R} 
R_PAR_1_MCD_N_47 (47mid 47out) {R_PARALLEL_1_MCD}
C_PAR_1_MCD_N_47 (47mid 47out) {C_PARALLEL_1_MCD}
* Cell: 48
L_BUSBAR_1_MCD_N_48 (47out 48mid) {L_BUSBAR_1_MCD}
x_1_MCD_N_48 (48mid 48out 0) MCD_turns
+ PARAMS: F_SCALE_C_GROUND={F_SCALE_C_GROUND} F_SCALE_C_T2T={F_SCALE_C_T2T} 
+ F_SCALE_L={F_SCALE_L} F_SCALE_R={F_SCALE_R} 
R_PAR_1_MCD_N_48 (48mid 48out) {R_PARALLEL_1_MCD}
C_PAR_1_MCD_N_48 (48mid 48out) {C_PARALLEL_1_MCD}
* Cell: 49
L_BUSBAR_1_MCD_N_49 (48out 49mid) {L_BUSBAR_1_MCD}
x_1_MCD_N_49 (49mid 49out 0) MCD_turns
+ PARAMS: F_SCALE_C_GROUND={F_SCALE_C_GROUND} F_SCALE_C_T2T={F_SCALE_C_T2T} 
+ F_SCALE_L={F_SCALE_L} F_SCALE_R={F_SCALE_R} 
R_PAR_1_MCD_N_49 (49mid 49out) {R_PARALLEL_1_MCD}
C_PAR_1_MCD_N_49 (49mid 49out) {C_PARALLEL_1_MCD}
* Cell: 50
L_BUSBAR_1_MCD_N_50 (49out 50mid) {L_BUSBAR_1_MCD}
x_1_MCD_N_50 (50mid 50out 0) MCD_turns
+ PARAMS: F_SCALE_C_GROUND={F_SCALE_C_GROUND} F_SCALE_C_T2T={F_SCALE_C_T2T} 
+ F_SCALE_L={F_SCALE_L} F_SCALE_R={F_SCALE_R} 
R_PAR_1_MCD_N_50 (50mid 50out) {R_PARALLEL_1_MCD}
C_PAR_1_MCD_N_50 (50mid 50out) {C_PARALLEL_1_MCD}
* Cell: 51
L_BUSBAR_1_MCD_N_51 (50out 51mid) {L_BUSBAR_1_MCD}
x_1_MCD_N_51 (51mid 51out 0) MCD_turns
+ PARAMS: F_SCALE_C_GROUND={F_SCALE_C_GROUND} F_SCALE_C_T2T={F_SCALE_C_T2T} 
+ F_SCALE_L={F_SCALE_L} F_SCALE_R={F_SCALE_R} 
R_PAR_1_MCD_N_51 (51mid 51out) {R_PARALLEL_1_MCD}
C_PAR_1_MCD_N_51 (51mid 51out) {C_PARALLEL_1_MCD}
* Cell: 52
L_BUSBAR_1_MCD_N_52 (51out 52mid) {L_BUSBAR_1_MCD}
x_1_MCD_N_52 (52mid 52out 0) MCD_turns
+ PARAMS: F_SCALE_C_GROUND={F_SCALE_C_GROUND} F_SCALE_C_T2T={F_SCALE_C_T2T} 
+ F_SCALE_L={F_SCALE_L} F_SCALE_R={F_SCALE_R} 
R_PAR_1_MCD_N_52 (52mid 52out) {R_PARALLEL_1_MCD}
C_PAR_1_MCD_N_52 (52mid 52out) {C_PARALLEL_1_MCD}
* Cell: 53
L_BUSBAR_1_MCD_N_53 (52out 53mid) {L_BUSBAR_1_MCD}
x_1_MCD_N_53 (53mid 53out 0) MCD_turns
+ PARAMS: F_SCALE_C_GROUND={F_SCALE_C_GROUND} F_SCALE_C_T2T={F_SCALE_C_T2T} 
+ F_SCALE_L={F_SCALE_L} F_SCALE_R={F_SCALE_R} 
R_PAR_1_MCD_N_53 (53mid 53out) {R_PARALLEL_1_MCD}
C_PAR_1_MCD_N_53 (53mid 53out) {C_PARALLEL_1_MCD}
* Cell: 54
L_BUSBAR_1_MCD_N_54 (53out 54mid) {L_BUSBAR_1_MCD}
x_1_MCD_N_54 (54mid 54out 0) MCD_turns
+ PARAMS: F_SCALE_C_GROUND={F_SCALE_C_GROUND} F_SCALE_C_T2T={F_SCALE_C_T2T} 
+ F_SCALE_L={F_SCALE_L} F_SCALE_R={F_SCALE_R} 
R_PAR_1_MCD_N_54 (54mid 54out) {R_PARALLEL_1_MCD}
C_PAR_1_MCD_N_54 (54mid 54out) {C_PARALLEL_1_MCD}
* Cell: 55
L_BUSBAR_1_MCD_N_55 (54out 55mid) {L_BUSBAR_1_MCD}
x_1_MCD_N_55 (55mid 55out 0) MCD_turns
+ PARAMS: F_SCALE_C_GROUND={F_SCALE_C_GROUND} F_SCALE_C_T2T={F_SCALE_C_T2T} 
+ F_SCALE_L={F_SCALE_L} F_SCALE_R={F_SCALE_R} 
R_PAR_1_MCD_N_55 (55mid 55out) {R_PARALLEL_1_MCD}
C_PAR_1_MCD_N_55 (55mid 55out) {C_PARALLEL_1_MCD}
* Cell: 56
L_BUSBAR_1_MCD_N_56 (55out 56mid) {L_BUSBAR_1_MCD}
x_1_MCD_N_56 (56mid 56out 0) MCD_turns
+ PARAMS: F_SCALE_C_GROUND={F_SCALE_C_GROUND} F_SCALE_C_T2T={F_SCALE_C_T2T} 
+ F_SCALE_L={F_SCALE_L} F_SCALE_R={F_SCALE_R} 
R_PAR_1_MCD_N_56 (56mid 56out) {R_PARALLEL_1_MCD}
C_PAR_1_MCD_N_56 (56mid 56out) {C_PARALLEL_1_MCD}
* Cell: 57
L_BUSBAR_1_MCD_N_57 (56out 57mid) {L_BUSBAR_1_MCD}
x_1_MCD_N_57 (57mid 57out 0) MCD_turns
+ PARAMS: F_SCALE_C_GROUND={F_SCALE_C_GROUND} F_SCALE_C_T2T={F_SCALE_C_T2T} 
+ F_SCALE_L={F_SCALE_L} F_SCALE_R={F_SCALE_R} 
R_PAR_1_MCD_N_57 (57mid 57out) {R_PARALLEL_1_MCD}
C_PAR_1_MCD_N_57 (57mid 57out) {C_PARALLEL_1_MCD}
* Cell: 58
L_BUSBAR_1_MCD_N_58 (57out 58mid) {L_BUSBAR_1_MCD}
x_1_MCD_N_58 (58mid 58out 0) MCD_turns
+ PARAMS: F_SCALE_C_GROUND={F_SCALE_C_GROUND} F_SCALE_C_T2T={F_SCALE_C_T2T} 
+ F_SCALE_L={F_SCALE_L} F_SCALE_R={F_SCALE_R} 
R_PAR_1_MCD_N_58 (58mid 58out) {R_PARALLEL_1_MCD}
C_PAR_1_MCD_N_58 (58mid 58out) {C_PARALLEL_1_MCD}
* Cell: 59
L_BUSBAR_1_MCD_N_59 (58out 59mid) {L_BUSBAR_1_MCD}
x_1_MCD_N_59 (59mid 59out 0) MCD_turns
+ PARAMS: F_SCALE_C_GROUND={F_SCALE_C_GROUND} F_SCALE_C_T2T={F_SCALE_C_T2T} 
+ F_SCALE_L={F_SCALE_L} F_SCALE_R={F_SCALE_R} 
R_PAR_1_MCD_N_59 (59mid 59out) {R_PARALLEL_1_MCD}
C_PAR_1_MCD_N_59 (59mid 59out) {C_PARALLEL_1_MCD}
* Cell: 60
L_BUSBAR_1_MCD_N_60 (59out 60mid) {L_BUSBAR_1_MCD}
x_1_MCD_N_60 (60mid 60out 0) MCD_turns
+ PARAMS: F_SCALE_C_GROUND={F_SCALE_C_GROUND} F_SCALE_C_T2T={F_SCALE_C_T2T} 
+ F_SCALE_L={F_SCALE_L} F_SCALE_R={F_SCALE_R} 
R_PAR_1_MCD_N_60 (60mid 60out) {R_PARALLEL_1_MCD}
C_PAR_1_MCD_N_60 (60mid 60out) {C_PARALLEL_1_MCD}
* Cell: 61
L_BUSBAR_1_MCD_N_61 (60out 61mid) {L_BUSBAR_1_MCD}
x_1_MCD_N_61 (61mid 61out 0) MCD_turns
+ PARAMS: F_SCALE_C_GROUND={F_SCALE_C_GROUND} F_SCALE_C_T2T={F_SCALE_C_T2T} 
+ F_SCALE_L={F_SCALE_L} F_SCALE_R={F_SCALE_R} 
R_PAR_1_MCD_N_61 (61mid 61out) {R_PARALLEL_1_MCD}
C_PAR_1_MCD_N_61 (61mid 61out) {C_PARALLEL_1_MCD}
* Cell: 62
L_BUSBAR_1_MCD_N_62 (61out 62mid) {L_BUSBAR_1_MCD}
x_1_MCD_N_62 (62mid 62out 0) MCD_turns
+ PARAMS: F_SCALE_C_GROUND={F_SCALE_C_GROUND} F_SCALE_C_T2T={F_SCALE_C_T2T} 
+ F_SCALE_L={F_SCALE_L} F_SCALE_R={F_SCALE_R} 
R_PAR_1_MCD_N_62 (62mid 62out) {R_PARALLEL_1_MCD}
C_PAR_1_MCD_N_62 (62mid 62out) {C_PARALLEL_1_MCD}
* Cell: 63
L_BUSBAR_1_MCD_N_63 (62out 63mid) {L_BUSBAR_1_MCD}
x_1_MCD_N_63 (63mid 63out 0) MCD_turns
+ PARAMS: F_SCALE_C_GROUND={F_SCALE_C_GROUND} F_SCALE_C_T2T={F_SCALE_C_T2T} 
+ F_SCALE_L={F_SCALE_L} F_SCALE_R={F_SCALE_R} 
R_PAR_1_MCD_N_63 (63mid 63out) {R_PARALLEL_1_MCD}
C_PAR_1_MCD_N_63 (63mid 63out) {C_PARALLEL_1_MCD}
* Cell: 64
L_BUSBAR_1_MCD_N_64 (63out 64mid) {L_BUSBAR_1_MCD}
x_1_MCD_N_64 (64mid 64out 0) MCD_turns
+ PARAMS: F_SCALE_C_GROUND={F_SCALE_C_GROUND} F_SCALE_C_T2T={F_SCALE_C_T2T} 
+ F_SCALE_L={F_SCALE_L} F_SCALE_R={F_SCALE_R} 
R_PAR_1_MCD_N_64 (64mid 64out) {R_PARALLEL_1_MCD}
C_PAR_1_MCD_N_64 (64mid 64out) {C_PARALLEL_1_MCD}
* Cell: 65
L_BUSBAR_1_MCD_N_65 (64out 65mid) {L_BUSBAR_1_MCD}
x_1_MCD_N_65 (65mid 65out 0) MCD_turns
+ PARAMS: F_SCALE_C_GROUND={F_SCALE_C_GROUND} F_SCALE_C_T2T={F_SCALE_C_T2T} 
+ F_SCALE_L={F_SCALE_L} F_SCALE_R={F_SCALE_R} 
R_PAR_1_MCD_N_65 (65mid 65out) {R_PARALLEL_1_MCD}
C_PAR_1_MCD_N_65 (65mid 65out) {C_PARALLEL_1_MCD}
* Cell: 66
L_BUSBAR_1_MCD_N_66 (65out 66mid) {L_BUSBAR_1_MCD}
x_1_MCD_N_66 (66mid 66out 0) MCD_turns
+ PARAMS: F_SCALE_C_GROUND={F_SCALE_C_GROUND} F_SCALE_C_T2T={F_SCALE_C_T2T} 
+ F_SCALE_L={F_SCALE_L} F_SCALE_R={F_SCALE_R} 
R_PAR_1_MCD_N_66 (66mid 66out) {R_PARALLEL_1_MCD}
C_PAR_1_MCD_N_66 (66mid 66out) {C_PARALLEL_1_MCD}
* Cell: 67
L_BUSBAR_1_MCD_N_67 (66out 67mid) {L_BUSBAR_1_MCD}
x_1_MCD_N_67 (67mid 67out 0) MCD_turns
+ PARAMS: F_SCALE_C_GROUND={F_SCALE_C_GROUND} F_SCALE_C_T2T={F_SCALE_C_T2T} 
+ F_SCALE_L={F_SCALE_L} F_SCALE_R={F_SCALE_R} 
R_PAR_1_MCD_N_67 (67mid 67out) {R_PARALLEL_1_MCD}
C_PAR_1_MCD_N_67 (67mid 67out) {C_PARALLEL_1_MCD}
* Cell: 68
L_BUSBAR_1_MCD_N_68 (67out 68mid) {L_BUSBAR_1_MCD}
x_1_MCD_N_68 (68mid 68out 0) MCD_turns
+ PARAMS: F_SCALE_C_GROUND={F_SCALE_C_GROUND} F_SCALE_C_T2T={F_SCALE_C_T2T} 
+ F_SCALE_L={F_SCALE_L} F_SCALE_R={F_SCALE_R} 
R_PAR_1_MCD_N_68 (68mid 68out) {R_PARALLEL_1_MCD}
C_PAR_1_MCD_N_68 (68mid 68out) {C_PARALLEL_1_MCD}
* Cell: 69
L_BUSBAR_1_MCD_N_69 (68out 69mid) {L_BUSBAR_1_MCD}
x_1_MCD_N_69 (69mid 69out 0) MCD_turns
+ PARAMS: F_SCALE_C_GROUND={F_SCALE_C_GROUND} F_SCALE_C_T2T={F_SCALE_C_T2T} 
+ F_SCALE_L={F_SCALE_L} F_SCALE_R={F_SCALE_R} 
R_PAR_1_MCD_N_69 (69mid 69out) {R_PARALLEL_1_MCD}
C_PAR_1_MCD_N_69 (69mid 69out) {C_PARALLEL_1_MCD}
* Cell: 70
L_BUSBAR_1_MCD_N_70 (69out 70mid) {L_BUSBAR_1_MCD}
x_1_MCD_N_70 (70mid 70out 0) MCD_turns
+ PARAMS: F_SCALE_C_GROUND={F_SCALE_C_GROUND} F_SCALE_C_T2T={F_SCALE_C_T2T} 
+ F_SCALE_L={F_SCALE_L} F_SCALE_R={F_SCALE_R} 
R_PAR_1_MCD_N_70 (70mid 70out) {R_PARALLEL_1_MCD}
C_PAR_1_MCD_N_70 (70mid 70out) {C_PARALLEL_1_MCD}
* Cell: 71
L_BUSBAR_1_MCD_N_71 (70out 71mid) {L_BUSBAR_1_MCD}
x_1_MCD_N_71 (71mid 71out 0) MCD_turns
+ PARAMS: F_SCALE_C_GROUND={F_SCALE_C_GROUND} F_SCALE_C_T2T={F_SCALE_C_T2T} 
+ F_SCALE_L={F_SCALE_L} F_SCALE_R={F_SCALE_R} 
R_PAR_1_MCD_N_71 (71mid 71out) {R_PARALLEL_1_MCD}
C_PAR_1_MCD_N_71 (71mid 71out) {C_PARALLEL_1_MCD}
* Cell: 72
L_BUSBAR_1_MCD_N_72 (71out 72mid) {L_BUSBAR_1_MCD}
x_1_MCD_N_72 (72mid 72out 0) MCD_turns
+ PARAMS: F_SCALE_C_GROUND={F_SCALE_C_GROUND} F_SCALE_C_T2T={F_SCALE_C_T2T} 
+ F_SCALE_L={F_SCALE_L} F_SCALE_R={F_SCALE_R} 
R_PAR_1_MCD_N_72 (72mid 72out) {R_PARALLEL_1_MCD}
C_PAR_1_MCD_N_72 (72mid 72out) {C_PARALLEL_1_MCD}
* Cell: 73
L_BUSBAR_1_MCD_N_73 (72out 73mid) {L_BUSBAR_1_MCD}
x_1_MCD_N_73 (73mid 73out 0) MCD_turns
+ PARAMS: F_SCALE_C_GROUND={F_SCALE_C_GROUND} F_SCALE_C_T2T={F_SCALE_C_T2T} 
+ F_SCALE_L={F_SCALE_L} F_SCALE_R={F_SCALE_R} 
R_PAR_1_MCD_N_73 (73mid 73out) {R_PARALLEL_1_MCD}
C_PAR_1_MCD_N_73 (73mid 73out) {C_PARALLEL_1_MCD}
* Cell: 74
L_BUSBAR_1_MCD_N_74 (73out 74mid) {L_BUSBAR_1_MCD}
x_1_MCD_N_74 (74mid 74out 0) MCD_turns
+ PARAMS: F_SCALE_C_GROUND={F_SCALE_C_GROUND} F_SCALE_C_T2T={F_SCALE_C_T2T} 
+ F_SCALE_L={F_SCALE_L} F_SCALE_R={F_SCALE_R} 
R_PAR_1_MCD_N_74 (74mid 74out) {R_PARALLEL_1_MCD}
C_PAR_1_MCD_N_74 (74mid 74out) {C_PARALLEL_1_MCD}
* Cell: 75
L_BUSBAR_1_MCD_N_75 (74out 75mid) {L_BUSBAR_1_MCD}
x_1_MCD_N_75 (75mid 75out 0) MCD_turns
+ PARAMS: F_SCALE_C_GROUND={F_SCALE_C_GROUND} F_SCALE_C_T2T={F_SCALE_C_T2T} 
+ F_SCALE_L={F_SCALE_L} F_SCALE_R={F_SCALE_R} 
R_PAR_1_MCD_N_75 (75mid 75out) {R_PARALLEL_1_MCD}
C_PAR_1_MCD_N_75 (75mid 75out) {C_PARALLEL_1_MCD}
* Cell: 76
L_BUSBAR_1_MCD_N_76 (75out 76mid) {L_BUSBAR_1_MCD}
x_1_MCD_N_76 (76mid 76out 0) MCD_turns
+ PARAMS: F_SCALE_C_GROUND={F_SCALE_C_GROUND} F_SCALE_C_T2T={F_SCALE_C_T2T} 
+ F_SCALE_L={F_SCALE_L} F_SCALE_R={F_SCALE_R} 
R_PAR_1_MCD_N_76 (76mid 76out) {R_PARALLEL_1_MCD}
C_PAR_1_MCD_N_76 (76mid 76out) {C_PARALLEL_1_MCD}
* Cell: 77
L_BUSBAR_1_MCD_N_77 (76out 77mid) {L_BUSBAR_1_MCD}
x_1_MCD_N_77 (77mid 77out 0) MCD_turns
+ PARAMS: F_SCALE_C_GROUND={F_SCALE_C_GROUND} F_SCALE_C_T2T={F_SCALE_C_T2T} 
+ F_SCALE_L={F_SCALE_L} F_SCALE_R={F_SCALE_R} 
R_PAR_1_MCD_N_77 (77mid 77out) {R_PARALLEL_1_MCD}
C_PAR_1_MCD_N_77 (77mid 77out) {C_PARALLEL_1_MCD}
*Last busbar
L_BUSBAR_END (77out 0) {L_BUSBAR_1_MCD}
* Voltage source
V_AC (0 0series_in) AC 1
* Voltage measurement
E_total_voltage (0 0total_voltage) VALUE = {V(0series_out)-V(77out)}
.OPTION
+ RELTOL=0.01
+ VNTOL=0.000001
+ ABSTOL=0.0000000001
+ CHGTOL=0.00000000000001
+ GMIN=0.0000000001
+ ITL1=400
+ ITL2=20
+ ITL4=400
+ TNOM=27
+ NUMDGT=8

.AUTOCONVERGE
+ RELTOL=0.05
+ VNTOL=0.001
+ ABSTOL=0.00001
+ ITL1=1000
+ ITL2=1000
+ ITL4=1000
+ PIVTOL=0.0000000001

.AC DEC 50 1Hz 200kHz

* Configuration file
.INC configurationFileFrequency.cir
.END

