

* PSPICE Netlist Simulation File
* Generated on 2020/12/18 14:50:22 at CERN
* Authors: STEAM
.LIB "C:\GitLabRepository\steam-pspice-library\magnet_frequency\Items\MB_turns.lib"
**** Global parameters ****
.PARAM
+ L_BUSBAR_1_MB={0.0001} 
+ R_PARALLEL_1_MB={100.0} 
+ C_PARALLEL_1_MB={4e-06} 
+ R_SERIES={100.0} 
+ F_SCALE_C_GROUND={1.0} 
+ F_SCALE_C_T2T={1.0} 
+ F_SCALE_L={1.0} 
+ F_SCALE_R={1.0} 

* Magnet types:
* ['MB']
* .STEP PARAM R_Par 10k, 100k, 10k
* Circuit:
R_Series (0series_in 0series_out) {R_SERIES}
* Cell: 1
L_BUSBAR_1_MB_N_1 (0series_out 1mid) {L_BUSBAR_1_MB}
x_1_MB_N_1 (1mid 1out 0) MB_turns
+ PARAMS: F_SCALE_C_GROUND={F_SCALE_C_GROUND} F_SCALE_C_T2T={F_SCALE_C_T2T} 
+ F_SCALE_L={F_SCALE_L} F_SCALE_R={F_SCALE_R} 
R_PAR_1_MB_N_1 (1mid 1out) {R_PARALLEL_1_MB}
C_PAR_1_MB_N_1 (1mid 1out) {C_PARALLEL_1_MB}
* Cell: 2
L_BUSBAR_1_MB_N_2 (1out 2mid) {L_BUSBAR_1_MB}
x_1_MB_N_2 (2mid 2out 0) MB_turns
+ PARAMS: F_SCALE_C_GROUND={F_SCALE_C_GROUND} F_SCALE_C_T2T={F_SCALE_C_T2T} 
+ F_SCALE_L={F_SCALE_L} F_SCALE_R={F_SCALE_R} 
R_PAR_1_MB_N_2 (2mid 2out) {R_PARALLEL_1_MB}
C_PAR_1_MB_N_2 (2mid 2out) {C_PARALLEL_1_MB}
* Cell: 3
L_BUSBAR_1_MB_N_3 (2out 3mid) {L_BUSBAR_1_MB}
x_1_MB_N_3 (3mid 3out 0) MB_turns
+ PARAMS: F_SCALE_C_GROUND={F_SCALE_C_GROUND} F_SCALE_C_T2T={F_SCALE_C_T2T} 
+ F_SCALE_L={F_SCALE_L} F_SCALE_R={F_SCALE_R} 
R_PAR_1_MB_N_3 (3mid 3out) {R_PARALLEL_1_MB}
C_PAR_1_MB_N_3 (3mid 3out) {C_PARALLEL_1_MB}
* Cell: 4
L_BUSBAR_1_MB_N_4 (3out 4mid) {L_BUSBAR_1_MB}
x_1_MB_N_4 (4mid 4out 0) MB_turns
+ PARAMS: F_SCALE_C_GROUND={F_SCALE_C_GROUND} F_SCALE_C_T2T={F_SCALE_C_T2T} 
+ F_SCALE_L={F_SCALE_L} F_SCALE_R={F_SCALE_R} 
R_PAR_1_MB_N_4 (4mid 4out) {R_PARALLEL_1_MB}
C_PAR_1_MB_N_4 (4mid 4out) {C_PARALLEL_1_MB}
* Cell: 5
L_BUSBAR_1_MB_N_5 (4out 5mid) {L_BUSBAR_1_MB}
x_1_MB_N_5 (5mid 5out 0) MB_turns
+ PARAMS: F_SCALE_C_GROUND={F_SCALE_C_GROUND} F_SCALE_C_T2T={F_SCALE_C_T2T} 
+ F_SCALE_L={F_SCALE_L} F_SCALE_R={F_SCALE_R} 
R_PAR_1_MB_N_5 (5mid 5out) {R_PARALLEL_1_MB}
C_PAR_1_MB_N_5 (5mid 5out) {C_PARALLEL_1_MB}
* Cell: 6
L_BUSBAR_1_MB_N_6 (5out 6mid) {L_BUSBAR_1_MB}
x_1_MB_N_6 (6mid 6out 0) MB_turns
+ PARAMS: F_SCALE_C_GROUND={F_SCALE_C_GROUND} F_SCALE_C_T2T={F_SCALE_C_T2T} 
+ F_SCALE_L={F_SCALE_L} F_SCALE_R={F_SCALE_R} 
R_PAR_1_MB_N_6 (6mid 6out) {R_PARALLEL_1_MB}
C_PAR_1_MB_N_6 (6mid 6out) {C_PARALLEL_1_MB}
* Cell: 7
L_BUSBAR_1_MB_N_7 (6out 7mid) {L_BUSBAR_1_MB}
x_1_MB_N_7 (7mid 7out 0) MB_turns
+ PARAMS: F_SCALE_C_GROUND={F_SCALE_C_GROUND} F_SCALE_C_T2T={F_SCALE_C_T2T} 
+ F_SCALE_L={F_SCALE_L} F_SCALE_R={F_SCALE_R} 
R_PAR_1_MB_N_7 (7mid 7out) {R_PARALLEL_1_MB}
C_PAR_1_MB_N_7 (7mid 7out) {C_PARALLEL_1_MB}
* Cell: 8
L_BUSBAR_1_MB_N_8 (7out 8mid) {L_BUSBAR_1_MB}
x_1_MB_N_8 (8mid 8out 0) MB_turns
+ PARAMS: F_SCALE_C_GROUND={F_SCALE_C_GROUND} F_SCALE_C_T2T={F_SCALE_C_T2T} 
+ F_SCALE_L={F_SCALE_L} F_SCALE_R={F_SCALE_R} 
R_PAR_1_MB_N_8 (8mid 8out) {R_PARALLEL_1_MB}
C_PAR_1_MB_N_8 (8mid 8out) {C_PARALLEL_1_MB}
* Cell: 9
L_BUSBAR_1_MB_N_9 (8out 9mid) {L_BUSBAR_1_MB}
x_1_MB_N_9 (9mid 9out 0) MB_turns
+ PARAMS: F_SCALE_C_GROUND={F_SCALE_C_GROUND} F_SCALE_C_T2T={F_SCALE_C_T2T} 
+ F_SCALE_L={F_SCALE_L} F_SCALE_R={F_SCALE_R} 
R_PAR_1_MB_N_9 (9mid 9out) {R_PARALLEL_1_MB}
C_PAR_1_MB_N_9 (9mid 9out) {C_PARALLEL_1_MB}
* Cell: 10
L_BUSBAR_1_MB_N_10 (9out 10mid) {L_BUSBAR_1_MB}
x_1_MB_N_10 (10mid 10out 0) MB_turns
+ PARAMS: F_SCALE_C_GROUND={F_SCALE_C_GROUND} F_SCALE_C_T2T={F_SCALE_C_T2T} 
+ F_SCALE_L={F_SCALE_L} F_SCALE_R={F_SCALE_R} 
R_PAR_1_MB_N_10 (10mid 10out) {R_PARALLEL_1_MB}
C_PAR_1_MB_N_10 (10mid 10out) {C_PARALLEL_1_MB}
* Cell: 11
L_BUSBAR_1_MB_N_11 (10out 11mid) {L_BUSBAR_1_MB}
x_1_MB_N_11 (11mid 11out 0) MB_turns
+ PARAMS: F_SCALE_C_GROUND={F_SCALE_C_GROUND} F_SCALE_C_T2T={F_SCALE_C_T2T} 
+ F_SCALE_L={F_SCALE_L} F_SCALE_R={F_SCALE_R} 
R_PAR_1_MB_N_11 (11mid 11out) {R_PARALLEL_1_MB}
C_PAR_1_MB_N_11 (11mid 11out) {C_PARALLEL_1_MB}
* Cell: 12
L_BUSBAR_1_MB_N_12 (11out 12mid) {L_BUSBAR_1_MB}
x_1_MB_N_12 (12mid 12out 0) MB_turns
+ PARAMS: F_SCALE_C_GROUND={F_SCALE_C_GROUND} F_SCALE_C_T2T={F_SCALE_C_T2T} 
+ F_SCALE_L={F_SCALE_L} F_SCALE_R={F_SCALE_R} 
R_PAR_1_MB_N_12 (12mid 12out) {R_PARALLEL_1_MB}
C_PAR_1_MB_N_12 (12mid 12out) {C_PARALLEL_1_MB}
* Cell: 13
L_BUSBAR_1_MB_N_13 (12out 13mid) {L_BUSBAR_1_MB}
x_1_MB_N_13 (13mid 13out 0) MB_turns
+ PARAMS: F_SCALE_C_GROUND={F_SCALE_C_GROUND} F_SCALE_C_T2T={F_SCALE_C_T2T} 
+ F_SCALE_L={F_SCALE_L} F_SCALE_R={F_SCALE_R} 
R_PAR_1_MB_N_13 (13mid 13out) {R_PARALLEL_1_MB}
C_PAR_1_MB_N_13 (13mid 13out) {C_PARALLEL_1_MB}
* Cell: 14
L_BUSBAR_1_MB_N_14 (13out 14mid) {L_BUSBAR_1_MB}
x_1_MB_N_14 (14mid 14out 0) MB_turns
+ PARAMS: F_SCALE_C_GROUND={F_SCALE_C_GROUND} F_SCALE_C_T2T={F_SCALE_C_T2T} 
+ F_SCALE_L={F_SCALE_L} F_SCALE_R={F_SCALE_R} 
R_PAR_1_MB_N_14 (14mid 14out) {R_PARALLEL_1_MB}
C_PAR_1_MB_N_14 (14mid 14out) {C_PARALLEL_1_MB}
* Cell: 15
L_BUSBAR_1_MB_N_15 (14out 15mid) {L_BUSBAR_1_MB}
x_1_MB_N_15 (15mid 15out 0) MB_turns
+ PARAMS: F_SCALE_C_GROUND={F_SCALE_C_GROUND} F_SCALE_C_T2T={F_SCALE_C_T2T} 
+ F_SCALE_L={F_SCALE_L} F_SCALE_R={F_SCALE_R} 
R_PAR_1_MB_N_15 (15mid 15out) {R_PARALLEL_1_MB}
C_PAR_1_MB_N_15 (15mid 15out) {C_PARALLEL_1_MB}
* Cell: 16
L_BUSBAR_1_MB_N_16 (15out 16mid) {L_BUSBAR_1_MB}
x_1_MB_N_16 (16mid 16out 0) MB_turns
+ PARAMS: F_SCALE_C_GROUND={F_SCALE_C_GROUND} F_SCALE_C_T2T={F_SCALE_C_T2T} 
+ F_SCALE_L={F_SCALE_L} F_SCALE_R={F_SCALE_R} 
R_PAR_1_MB_N_16 (16mid 16out) {R_PARALLEL_1_MB}
C_PAR_1_MB_N_16 (16mid 16out) {C_PARALLEL_1_MB}
* Cell: 17
L_BUSBAR_1_MB_N_17 (16out 17mid) {L_BUSBAR_1_MB}
x_1_MB_N_17 (17mid 17out 0) MB_turns
+ PARAMS: F_SCALE_C_GROUND={F_SCALE_C_GROUND} F_SCALE_C_T2T={F_SCALE_C_T2T} 
+ F_SCALE_L={F_SCALE_L} F_SCALE_R={F_SCALE_R} 
R_PAR_1_MB_N_17 (17mid 17out) {R_PARALLEL_1_MB}
C_PAR_1_MB_N_17 (17mid 17out) {C_PARALLEL_1_MB}
* Cell: 18
L_BUSBAR_1_MB_N_18 (17out 18mid) {L_BUSBAR_1_MB}
x_1_MB_N_18 (18mid 18out 0) MB_turns
+ PARAMS: F_SCALE_C_GROUND={F_SCALE_C_GROUND} F_SCALE_C_T2T={F_SCALE_C_T2T} 
+ F_SCALE_L={F_SCALE_L} F_SCALE_R={F_SCALE_R} 
R_PAR_1_MB_N_18 (18mid 18out) {R_PARALLEL_1_MB}
C_PAR_1_MB_N_18 (18mid 18out) {C_PARALLEL_1_MB}
* Cell: 19
L_BUSBAR_1_MB_N_19 (18out 19mid) {L_BUSBAR_1_MB}
x_1_MB_N_19 (19mid 19out 0) MB_turns
+ PARAMS: F_SCALE_C_GROUND={F_SCALE_C_GROUND} F_SCALE_C_T2T={F_SCALE_C_T2T} 
+ F_SCALE_L={F_SCALE_L} F_SCALE_R={F_SCALE_R} 
R_PAR_1_MB_N_19 (19mid 19out) {R_PARALLEL_1_MB}
C_PAR_1_MB_N_19 (19mid 19out) {C_PARALLEL_1_MB}
* Cell: 20
L_BUSBAR_1_MB_N_20 (19out 20mid) {L_BUSBAR_1_MB}
x_1_MB_N_20 (20mid 20out 0) MB_turns
+ PARAMS: F_SCALE_C_GROUND={F_SCALE_C_GROUND} F_SCALE_C_T2T={F_SCALE_C_T2T} 
+ F_SCALE_L={F_SCALE_L} F_SCALE_R={F_SCALE_R} 
R_PAR_1_MB_N_20 (20mid 20out) {R_PARALLEL_1_MB}
C_PAR_1_MB_N_20 (20mid 20out) {C_PARALLEL_1_MB}
* Cell: 21
L_BUSBAR_1_MB_N_21 (20out 21mid) {L_BUSBAR_1_MB}
x_1_MB_N_21 (21mid 21out 0) MB_turns
+ PARAMS: F_SCALE_C_GROUND={F_SCALE_C_GROUND} F_SCALE_C_T2T={F_SCALE_C_T2T} 
+ F_SCALE_L={F_SCALE_L} F_SCALE_R={F_SCALE_R} 
R_PAR_1_MB_N_21 (21mid 21out) {R_PARALLEL_1_MB}
C_PAR_1_MB_N_21 (21mid 21out) {C_PARALLEL_1_MB}
* Cell: 22
L_BUSBAR_1_MB_N_22 (21out 22mid) {L_BUSBAR_1_MB}
x_1_MB_N_22 (22mid 22out 0) MB_turns
+ PARAMS: F_SCALE_C_GROUND={F_SCALE_C_GROUND} F_SCALE_C_T2T={F_SCALE_C_T2T} 
+ F_SCALE_L={F_SCALE_L} F_SCALE_R={F_SCALE_R} 
R_PAR_1_MB_N_22 (22mid 22out) {R_PARALLEL_1_MB}
C_PAR_1_MB_N_22 (22mid 22out) {C_PARALLEL_1_MB}
* Cell: 23
L_BUSBAR_1_MB_N_23 (22out 23mid) {L_BUSBAR_1_MB}
x_1_MB_N_23 (23mid 23out 0) MB_turns
+ PARAMS: F_SCALE_C_GROUND={F_SCALE_C_GROUND} F_SCALE_C_T2T={F_SCALE_C_T2T} 
+ F_SCALE_L={F_SCALE_L} F_SCALE_R={F_SCALE_R} 
R_PAR_1_MB_N_23 (23mid 23out) {R_PARALLEL_1_MB}
C_PAR_1_MB_N_23 (23mid 23out) {C_PARALLEL_1_MB}
* Cell: 24
L_BUSBAR_1_MB_N_24 (23out 24mid) {L_BUSBAR_1_MB}
x_1_MB_N_24 (24mid 24out 0) MB_turns
+ PARAMS: F_SCALE_C_GROUND={F_SCALE_C_GROUND} F_SCALE_C_T2T={F_SCALE_C_T2T} 
+ F_SCALE_L={F_SCALE_L} F_SCALE_R={F_SCALE_R} 
R_PAR_1_MB_N_24 (24mid 24out) {R_PARALLEL_1_MB}
C_PAR_1_MB_N_24 (24mid 24out) {C_PARALLEL_1_MB}
* Cell: 25
L_BUSBAR_1_MB_N_25 (24out 25mid) {L_BUSBAR_1_MB}
x_1_MB_N_25 (25mid 25out 0) MB_turns
+ PARAMS: F_SCALE_C_GROUND={F_SCALE_C_GROUND} F_SCALE_C_T2T={F_SCALE_C_T2T} 
+ F_SCALE_L={F_SCALE_L} F_SCALE_R={F_SCALE_R} 
R_PAR_1_MB_N_25 (25mid 25out) {R_PARALLEL_1_MB}
C_PAR_1_MB_N_25 (25mid 25out) {C_PARALLEL_1_MB}
* Cell: 26
L_BUSBAR_1_MB_N_26 (25out 26mid) {L_BUSBAR_1_MB}
x_1_MB_N_26 (26mid 26out 0) MB_turns
+ PARAMS: F_SCALE_C_GROUND={F_SCALE_C_GROUND} F_SCALE_C_T2T={F_SCALE_C_T2T} 
+ F_SCALE_L={F_SCALE_L} F_SCALE_R={F_SCALE_R} 
R_PAR_1_MB_N_26 (26mid 26out) {R_PARALLEL_1_MB}
C_PAR_1_MB_N_26 (26mid 26out) {C_PARALLEL_1_MB}
* Cell: 27
L_BUSBAR_1_MB_N_27 (26out 27mid) {L_BUSBAR_1_MB}
x_1_MB_N_27 (27mid 27out 0) MB_turns
+ PARAMS: F_SCALE_C_GROUND={F_SCALE_C_GROUND} F_SCALE_C_T2T={F_SCALE_C_T2T} 
+ F_SCALE_L={F_SCALE_L} F_SCALE_R={F_SCALE_R} 
R_PAR_1_MB_N_27 (27mid 27out) {R_PARALLEL_1_MB}
C_PAR_1_MB_N_27 (27mid 27out) {C_PARALLEL_1_MB}
* Cell: 28
L_BUSBAR_1_MB_N_28 (27out 28mid) {L_BUSBAR_1_MB}
x_1_MB_N_28 (28mid 28out 0) MB_turns
+ PARAMS: F_SCALE_C_GROUND={F_SCALE_C_GROUND} F_SCALE_C_T2T={F_SCALE_C_T2T} 
+ F_SCALE_L={F_SCALE_L} F_SCALE_R={F_SCALE_R} 
R_PAR_1_MB_N_28 (28mid 28out) {R_PARALLEL_1_MB}
C_PAR_1_MB_N_28 (28mid 28out) {C_PARALLEL_1_MB}
* Cell: 29
L_BUSBAR_1_MB_N_29 (28out 29mid) {L_BUSBAR_1_MB}
x_1_MB_N_29 (29mid 29out 0) MB_turns
+ PARAMS: F_SCALE_C_GROUND={F_SCALE_C_GROUND} F_SCALE_C_T2T={F_SCALE_C_T2T} 
+ F_SCALE_L={F_SCALE_L} F_SCALE_R={F_SCALE_R} 
R_PAR_1_MB_N_29 (29mid 29out) {R_PARALLEL_1_MB}
C_PAR_1_MB_N_29 (29mid 29out) {C_PARALLEL_1_MB}
* Cell: 30
L_BUSBAR_1_MB_N_30 (29out 30mid) {L_BUSBAR_1_MB}
x_1_MB_N_30 (30mid 30out 0) MB_turns
+ PARAMS: F_SCALE_C_GROUND={F_SCALE_C_GROUND} F_SCALE_C_T2T={F_SCALE_C_T2T} 
+ F_SCALE_L={F_SCALE_L} F_SCALE_R={F_SCALE_R} 
R_PAR_1_MB_N_30 (30mid 30out) {R_PARALLEL_1_MB}
C_PAR_1_MB_N_30 (30mid 30out) {C_PARALLEL_1_MB}
* Cell: 31
L_BUSBAR_1_MB_N_31 (30out 31mid) {L_BUSBAR_1_MB}
x_1_MB_N_31 (31mid 31out 0) MB_turns
+ PARAMS: F_SCALE_C_GROUND={F_SCALE_C_GROUND} F_SCALE_C_T2T={F_SCALE_C_T2T} 
+ F_SCALE_L={F_SCALE_L} F_SCALE_R={F_SCALE_R} 
R_PAR_1_MB_N_31 (31mid 31out) {R_PARALLEL_1_MB}
C_PAR_1_MB_N_31 (31mid 31out) {C_PARALLEL_1_MB}
* Cell: 32
L_BUSBAR_1_MB_N_32 (31out 32mid) {L_BUSBAR_1_MB}
x_1_MB_N_32 (32mid 32out 0) MB_turns
+ PARAMS: F_SCALE_C_GROUND={F_SCALE_C_GROUND} F_SCALE_C_T2T={F_SCALE_C_T2T} 
+ F_SCALE_L={F_SCALE_L} F_SCALE_R={F_SCALE_R} 
R_PAR_1_MB_N_32 (32mid 32out) {R_PARALLEL_1_MB}
C_PAR_1_MB_N_32 (32mid 32out) {C_PARALLEL_1_MB}
* Cell: 33
L_BUSBAR_1_MB_N_33 (32out 33mid) {L_BUSBAR_1_MB}
x_1_MB_N_33 (33mid 33out 0) MB_turns
+ PARAMS: F_SCALE_C_GROUND={F_SCALE_C_GROUND} F_SCALE_C_T2T={F_SCALE_C_T2T} 
+ F_SCALE_L={F_SCALE_L} F_SCALE_R={F_SCALE_R} 
R_PAR_1_MB_N_33 (33mid 33out) {R_PARALLEL_1_MB}
C_PAR_1_MB_N_33 (33mid 33out) {C_PARALLEL_1_MB}
* Cell: 34
L_BUSBAR_1_MB_N_34 (33out 34mid) {L_BUSBAR_1_MB}
x_1_MB_N_34 (34mid 34out 0) MB_turns
+ PARAMS: F_SCALE_C_GROUND={F_SCALE_C_GROUND} F_SCALE_C_T2T={F_SCALE_C_T2T} 
+ F_SCALE_L={F_SCALE_L} F_SCALE_R={F_SCALE_R} 
R_PAR_1_MB_N_34 (34mid 34out) {R_PARALLEL_1_MB}
C_PAR_1_MB_N_34 (34mid 34out) {C_PARALLEL_1_MB}
* Cell: 35
L_BUSBAR_1_MB_N_35 (34out 35mid) {L_BUSBAR_1_MB}
x_1_MB_N_35 (35mid 35out 0) MB_turns
+ PARAMS: F_SCALE_C_GROUND={F_SCALE_C_GROUND} F_SCALE_C_T2T={F_SCALE_C_T2T} 
+ F_SCALE_L={F_SCALE_L} F_SCALE_R={F_SCALE_R} 
R_PAR_1_MB_N_35 (35mid 35out) {R_PARALLEL_1_MB}
C_PAR_1_MB_N_35 (35mid 35out) {C_PARALLEL_1_MB}
* Cell: 36
L_BUSBAR_1_MB_N_36 (35out 36mid) {L_BUSBAR_1_MB}
x_1_MB_N_36 (36mid 36out 0) MB_turns
+ PARAMS: F_SCALE_C_GROUND={F_SCALE_C_GROUND} F_SCALE_C_T2T={F_SCALE_C_T2T} 
+ F_SCALE_L={F_SCALE_L} F_SCALE_R={F_SCALE_R} 
R_PAR_1_MB_N_36 (36mid 36out) {R_PARALLEL_1_MB}
C_PAR_1_MB_N_36 (36mid 36out) {C_PARALLEL_1_MB}
* Cell: 37
L_BUSBAR_1_MB_N_37 (36out 37mid) {L_BUSBAR_1_MB}
x_1_MB_N_37 (37mid 37out 0) MB_turns
+ PARAMS: F_SCALE_C_GROUND={F_SCALE_C_GROUND} F_SCALE_C_T2T={F_SCALE_C_T2T} 
+ F_SCALE_L={F_SCALE_L} F_SCALE_R={F_SCALE_R} 
R_PAR_1_MB_N_37 (37mid 37out) {R_PARALLEL_1_MB}
C_PAR_1_MB_N_37 (37mid 37out) {C_PARALLEL_1_MB}
* Cell: 38
L_BUSBAR_1_MB_N_38 (37out 38mid) {L_BUSBAR_1_MB}
x_1_MB_N_38 (38mid 38out 0) MB_turns
+ PARAMS: F_SCALE_C_GROUND={F_SCALE_C_GROUND} F_SCALE_C_T2T={F_SCALE_C_T2T} 
+ F_SCALE_L={F_SCALE_L} F_SCALE_R={F_SCALE_R} 
R_PAR_1_MB_N_38 (38mid 38out) {R_PARALLEL_1_MB}
C_PAR_1_MB_N_38 (38mid 38out) {C_PARALLEL_1_MB}
* Cell: 39
L_BUSBAR_1_MB_N_39 (38out 39mid) {L_BUSBAR_1_MB}
x_1_MB_N_39 (39mid 39out 0) MB_turns
+ PARAMS: F_SCALE_C_GROUND={F_SCALE_C_GROUND} F_SCALE_C_T2T={F_SCALE_C_T2T} 
+ F_SCALE_L={F_SCALE_L} F_SCALE_R={F_SCALE_R} 
R_PAR_1_MB_N_39 (39mid 39out) {R_PARALLEL_1_MB}
C_PAR_1_MB_N_39 (39mid 39out) {C_PARALLEL_1_MB}
* Cell: 40
L_BUSBAR_1_MB_N_40 (39out 40mid) {L_BUSBAR_1_MB}
x_1_MB_N_40 (40mid 40out 0) MB_turns
+ PARAMS: F_SCALE_C_GROUND={F_SCALE_C_GROUND} F_SCALE_C_T2T={F_SCALE_C_T2T} 
+ F_SCALE_L={F_SCALE_L} F_SCALE_R={F_SCALE_R} 
R_PAR_1_MB_N_40 (40mid 40out) {R_PARALLEL_1_MB}
C_PAR_1_MB_N_40 (40mid 40out) {C_PARALLEL_1_MB}
* Cell: 41
L_BUSBAR_1_MB_N_41 (40out 41mid) {L_BUSBAR_1_MB}
x_1_MB_N_41 (41mid 41out 0) MB_turns
+ PARAMS: F_SCALE_C_GROUND={F_SCALE_C_GROUND} F_SCALE_C_T2T={F_SCALE_C_T2T} 
+ F_SCALE_L={F_SCALE_L} F_SCALE_R={F_SCALE_R} 
R_PAR_1_MB_N_41 (41mid 41out) {R_PARALLEL_1_MB}
C_PAR_1_MB_N_41 (41mid 41out) {C_PARALLEL_1_MB}
* Cell: 42
L_BUSBAR_1_MB_N_42 (41out 42mid) {L_BUSBAR_1_MB}
x_1_MB_N_42 (42mid 42out 0) MB_turns
+ PARAMS: F_SCALE_C_GROUND={F_SCALE_C_GROUND} F_SCALE_C_T2T={F_SCALE_C_T2T} 
+ F_SCALE_L={F_SCALE_L} F_SCALE_R={F_SCALE_R} 
R_PAR_1_MB_N_42 (42mid 42out) {R_PARALLEL_1_MB}
C_PAR_1_MB_N_42 (42mid 42out) {C_PARALLEL_1_MB}
* Cell: 43
L_BUSBAR_1_MB_N_43 (42out 43mid) {L_BUSBAR_1_MB}
x_1_MB_N_43 (43mid 43out 0) MB_turns
+ PARAMS: F_SCALE_C_GROUND={F_SCALE_C_GROUND} F_SCALE_C_T2T={F_SCALE_C_T2T} 
+ F_SCALE_L={F_SCALE_L} F_SCALE_R={F_SCALE_R} 
R_PAR_1_MB_N_43 (43mid 43out) {R_PARALLEL_1_MB}
C_PAR_1_MB_N_43 (43mid 43out) {C_PARALLEL_1_MB}
* Cell: 44
L_BUSBAR_1_MB_N_44 (43out 44mid) {L_BUSBAR_1_MB}
x_1_MB_N_44 (44mid 44out 0) MB_turns
+ PARAMS: F_SCALE_C_GROUND={F_SCALE_C_GROUND} F_SCALE_C_T2T={F_SCALE_C_T2T} 
+ F_SCALE_L={F_SCALE_L} F_SCALE_R={F_SCALE_R} 
R_PAR_1_MB_N_44 (44mid 44out) {R_PARALLEL_1_MB}
C_PAR_1_MB_N_44 (44mid 44out) {C_PARALLEL_1_MB}
* Cell: 45
L_BUSBAR_1_MB_N_45 (44out 45mid) {L_BUSBAR_1_MB}
x_1_MB_N_45 (45mid 45out 0) MB_turns
+ PARAMS: F_SCALE_C_GROUND={F_SCALE_C_GROUND} F_SCALE_C_T2T={F_SCALE_C_T2T} 
+ F_SCALE_L={F_SCALE_L} F_SCALE_R={F_SCALE_R} 
R_PAR_1_MB_N_45 (45mid 45out) {R_PARALLEL_1_MB}
C_PAR_1_MB_N_45 (45mid 45out) {C_PARALLEL_1_MB}
* Cell: 46
L_BUSBAR_1_MB_N_46 (45out 46mid) {L_BUSBAR_1_MB}
x_1_MB_N_46 (46mid 46out 0) MB_turns
+ PARAMS: F_SCALE_C_GROUND={F_SCALE_C_GROUND} F_SCALE_C_T2T={F_SCALE_C_T2T} 
+ F_SCALE_L={F_SCALE_L} F_SCALE_R={F_SCALE_R} 
R_PAR_1_MB_N_46 (46mid 46out) {R_PARALLEL_1_MB}
C_PAR_1_MB_N_46 (46mid 46out) {C_PARALLEL_1_MB}
* Cell: 47
L_BUSBAR_1_MB_N_47 (46out 47mid) {L_BUSBAR_1_MB}
x_1_MB_N_47 (47mid 47out 0) MB_turns
+ PARAMS: F_SCALE_C_GROUND={F_SCALE_C_GROUND} F_SCALE_C_T2T={F_SCALE_C_T2T} 
+ F_SCALE_L={F_SCALE_L} F_SCALE_R={F_SCALE_R} 
R_PAR_1_MB_N_47 (47mid 47out) {R_PARALLEL_1_MB}
C_PAR_1_MB_N_47 (47mid 47out) {C_PARALLEL_1_MB}
* Cell: 48
L_BUSBAR_1_MB_N_48 (47out 48mid) {L_BUSBAR_1_MB}
x_1_MB_N_48 (48mid 48out 0) MB_turns
+ PARAMS: F_SCALE_C_GROUND={F_SCALE_C_GROUND} F_SCALE_C_T2T={F_SCALE_C_T2T} 
+ F_SCALE_L={F_SCALE_L} F_SCALE_R={F_SCALE_R} 
R_PAR_1_MB_N_48 (48mid 48out) {R_PARALLEL_1_MB}
C_PAR_1_MB_N_48 (48mid 48out) {C_PARALLEL_1_MB}
* Cell: 49
L_BUSBAR_1_MB_N_49 (48out 49mid) {L_BUSBAR_1_MB}
x_1_MB_N_49 (49mid 49out 0) MB_turns
+ PARAMS: F_SCALE_C_GROUND={F_SCALE_C_GROUND} F_SCALE_C_T2T={F_SCALE_C_T2T} 
+ F_SCALE_L={F_SCALE_L} F_SCALE_R={F_SCALE_R} 
R_PAR_1_MB_N_49 (49mid 49out) {R_PARALLEL_1_MB}
C_PAR_1_MB_N_49 (49mid 49out) {C_PARALLEL_1_MB}
* Cell: 50
L_BUSBAR_1_MB_N_50 (49out 50mid) {L_BUSBAR_1_MB}
x_1_MB_N_50 (50mid 50out 0) MB_turns
+ PARAMS: F_SCALE_C_GROUND={F_SCALE_C_GROUND} F_SCALE_C_T2T={F_SCALE_C_T2T} 
+ F_SCALE_L={F_SCALE_L} F_SCALE_R={F_SCALE_R} 
R_PAR_1_MB_N_50 (50mid 50out) {R_PARALLEL_1_MB}
C_PAR_1_MB_N_50 (50mid 50out) {C_PARALLEL_1_MB}
* Cell: 51
L_BUSBAR_1_MB_N_51 (50out 51mid) {L_BUSBAR_1_MB}
x_1_MB_N_51 (51mid 51out 0) MB_turns
+ PARAMS: F_SCALE_C_GROUND={F_SCALE_C_GROUND} F_SCALE_C_T2T={F_SCALE_C_T2T} 
+ F_SCALE_L={F_SCALE_L} F_SCALE_R={F_SCALE_R} 
R_PAR_1_MB_N_51 (51mid 51out) {R_PARALLEL_1_MB}
C_PAR_1_MB_N_51 (51mid 51out) {C_PARALLEL_1_MB}
* Cell: 52
L_BUSBAR_1_MB_N_52 (51out 52mid) {L_BUSBAR_1_MB}
x_1_MB_N_52 (52mid 52out 0) MB_turns
+ PARAMS: F_SCALE_C_GROUND={F_SCALE_C_GROUND} F_SCALE_C_T2T={F_SCALE_C_T2T} 
+ F_SCALE_L={F_SCALE_L} F_SCALE_R={F_SCALE_R} 
R_PAR_1_MB_N_52 (52mid 52out) {R_PARALLEL_1_MB}
C_PAR_1_MB_N_52 (52mid 52out) {C_PARALLEL_1_MB}
* Cell: 53
L_BUSBAR_1_MB_N_53 (52out 53mid) {L_BUSBAR_1_MB}
x_1_MB_N_53 (53mid 53out 0) MB_turns
+ PARAMS: F_SCALE_C_GROUND={F_SCALE_C_GROUND} F_SCALE_C_T2T={F_SCALE_C_T2T} 
+ F_SCALE_L={F_SCALE_L} F_SCALE_R={F_SCALE_R} 
R_PAR_1_MB_N_53 (53mid 53out) {R_PARALLEL_1_MB}
C_PAR_1_MB_N_53 (53mid 53out) {C_PARALLEL_1_MB}
* Cell: 54
L_BUSBAR_1_MB_N_54 (53out 54mid) {L_BUSBAR_1_MB}
x_1_MB_N_54 (54mid 54out 0) MB_turns
+ PARAMS: F_SCALE_C_GROUND={F_SCALE_C_GROUND} F_SCALE_C_T2T={F_SCALE_C_T2T} 
+ F_SCALE_L={F_SCALE_L} F_SCALE_R={F_SCALE_R} 
R_PAR_1_MB_N_54 (54mid 54out) {R_PARALLEL_1_MB}
C_PAR_1_MB_N_54 (54mid 54out) {C_PARALLEL_1_MB}
* Cell: 55
L_BUSBAR_1_MB_N_55 (54out 55mid) {L_BUSBAR_1_MB}
x_1_MB_N_55 (55mid 55out 0) MB_turns
+ PARAMS: F_SCALE_C_GROUND={F_SCALE_C_GROUND} F_SCALE_C_T2T={F_SCALE_C_T2T} 
+ F_SCALE_L={F_SCALE_L} F_SCALE_R={F_SCALE_R} 
R_PAR_1_MB_N_55 (55mid 55out) {R_PARALLEL_1_MB}
C_PAR_1_MB_N_55 (55mid 55out) {C_PARALLEL_1_MB}
* Cell: 56
L_BUSBAR_1_MB_N_56 (55out 56mid) {L_BUSBAR_1_MB}
x_1_MB_N_56 (56mid 56out 0) MB_turns
+ PARAMS: F_SCALE_C_GROUND={F_SCALE_C_GROUND} F_SCALE_C_T2T={F_SCALE_C_T2T} 
+ F_SCALE_L={F_SCALE_L} F_SCALE_R={F_SCALE_R} 
R_PAR_1_MB_N_56 (56mid 56out) {R_PARALLEL_1_MB}
C_PAR_1_MB_N_56 (56mid 56out) {C_PARALLEL_1_MB}
* Cell: 57
L_BUSBAR_1_MB_N_57 (56out 57mid) {L_BUSBAR_1_MB}
x_1_MB_N_57 (57mid 57out 0) MB_turns
+ PARAMS: F_SCALE_C_GROUND={F_SCALE_C_GROUND} F_SCALE_C_T2T={F_SCALE_C_T2T} 
+ F_SCALE_L={F_SCALE_L} F_SCALE_R={F_SCALE_R} 
R_PAR_1_MB_N_57 (57mid 57out) {R_PARALLEL_1_MB}
C_PAR_1_MB_N_57 (57mid 57out) {C_PARALLEL_1_MB}
* Cell: 58
L_BUSBAR_1_MB_N_58 (57out 58mid) {L_BUSBAR_1_MB}
x_1_MB_N_58 (58mid 58out 0) MB_turns
+ PARAMS: F_SCALE_C_GROUND={F_SCALE_C_GROUND} F_SCALE_C_T2T={F_SCALE_C_T2T} 
+ F_SCALE_L={F_SCALE_L} F_SCALE_R={F_SCALE_R} 
R_PAR_1_MB_N_58 (58mid 58out) {R_PARALLEL_1_MB}
C_PAR_1_MB_N_58 (58mid 58out) {C_PARALLEL_1_MB}
* Cell: 59
L_BUSBAR_1_MB_N_59 (58out 59mid) {L_BUSBAR_1_MB}
x_1_MB_N_59 (59mid 59out 0) MB_turns
+ PARAMS: F_SCALE_C_GROUND={F_SCALE_C_GROUND} F_SCALE_C_T2T={F_SCALE_C_T2T} 
+ F_SCALE_L={F_SCALE_L} F_SCALE_R={F_SCALE_R} 
R_PAR_1_MB_N_59 (59mid 59out) {R_PARALLEL_1_MB}
C_PAR_1_MB_N_59 (59mid 59out) {C_PARALLEL_1_MB}
* Cell: 60
L_BUSBAR_1_MB_N_60 (59out 60mid) {L_BUSBAR_1_MB}
x_1_MB_N_60 (60mid 60out 0) MB_turns
+ PARAMS: F_SCALE_C_GROUND={F_SCALE_C_GROUND} F_SCALE_C_T2T={F_SCALE_C_T2T} 
+ F_SCALE_L={F_SCALE_L} F_SCALE_R={F_SCALE_R} 
R_PAR_1_MB_N_60 (60mid 60out) {R_PARALLEL_1_MB}
C_PAR_1_MB_N_60 (60mid 60out) {C_PARALLEL_1_MB}
* Cell: 61
L_BUSBAR_1_MB_N_61 (60out 61mid) {L_BUSBAR_1_MB}
x_1_MB_N_61 (61mid 61out 0) MB_turns
+ PARAMS: F_SCALE_C_GROUND={F_SCALE_C_GROUND} F_SCALE_C_T2T={F_SCALE_C_T2T} 
+ F_SCALE_L={F_SCALE_L} F_SCALE_R={F_SCALE_R} 
R_PAR_1_MB_N_61 (61mid 61out) {R_PARALLEL_1_MB}
C_PAR_1_MB_N_61 (61mid 61out) {C_PARALLEL_1_MB}
* Cell: 62
L_BUSBAR_1_MB_N_62 (61out 62mid) {L_BUSBAR_1_MB}
x_1_MB_N_62 (62mid 62out 0) MB_turns
+ PARAMS: F_SCALE_C_GROUND={F_SCALE_C_GROUND} F_SCALE_C_T2T={F_SCALE_C_T2T} 
+ F_SCALE_L={F_SCALE_L} F_SCALE_R={F_SCALE_R} 
R_PAR_1_MB_N_62 (62mid 62out) {R_PARALLEL_1_MB}
C_PAR_1_MB_N_62 (62mid 62out) {C_PARALLEL_1_MB}
* Cell: 63
L_BUSBAR_1_MB_N_63 (62out 63mid) {L_BUSBAR_1_MB}
x_1_MB_N_63 (63mid 63out 0) MB_turns
+ PARAMS: F_SCALE_C_GROUND={F_SCALE_C_GROUND} F_SCALE_C_T2T={F_SCALE_C_T2T} 
+ F_SCALE_L={F_SCALE_L} F_SCALE_R={F_SCALE_R} 
R_PAR_1_MB_N_63 (63mid 63out) {R_PARALLEL_1_MB}
C_PAR_1_MB_N_63 (63mid 63out) {C_PARALLEL_1_MB}
* Cell: 64
L_BUSBAR_1_MB_N_64 (63out 64mid) {L_BUSBAR_1_MB}
x_1_MB_N_64 (64mid 64out 0) MB_turns
+ PARAMS: F_SCALE_C_GROUND={F_SCALE_C_GROUND} F_SCALE_C_T2T={F_SCALE_C_T2T} 
+ F_SCALE_L={F_SCALE_L} F_SCALE_R={F_SCALE_R} 
R_PAR_1_MB_N_64 (64mid 64out) {R_PARALLEL_1_MB}
C_PAR_1_MB_N_64 (64mid 64out) {C_PARALLEL_1_MB}
* Cell: 65
L_BUSBAR_1_MB_N_65 (64out 65mid) {L_BUSBAR_1_MB}
x_1_MB_N_65 (65mid 65out 0) MB_turns
+ PARAMS: F_SCALE_C_GROUND={F_SCALE_C_GROUND} F_SCALE_C_T2T={F_SCALE_C_T2T} 
+ F_SCALE_L={F_SCALE_L} F_SCALE_R={F_SCALE_R} 
R_PAR_1_MB_N_65 (65mid 65out) {R_PARALLEL_1_MB}
C_PAR_1_MB_N_65 (65mid 65out) {C_PARALLEL_1_MB}
* Cell: 66
L_BUSBAR_1_MB_N_66 (65out 66mid) {L_BUSBAR_1_MB}
x_1_MB_N_66 (66mid 66out 0) MB_turns
+ PARAMS: F_SCALE_C_GROUND={F_SCALE_C_GROUND} F_SCALE_C_T2T={F_SCALE_C_T2T} 
+ F_SCALE_L={F_SCALE_L} F_SCALE_R={F_SCALE_R} 
R_PAR_1_MB_N_66 (66mid 66out) {R_PARALLEL_1_MB}
C_PAR_1_MB_N_66 (66mid 66out) {C_PARALLEL_1_MB}
* Cell: 67
L_BUSBAR_1_MB_N_67 (66out 67mid) {L_BUSBAR_1_MB}
x_1_MB_N_67 (67mid 67out 0) MB_turns
+ PARAMS: F_SCALE_C_GROUND={F_SCALE_C_GROUND} F_SCALE_C_T2T={F_SCALE_C_T2T} 
+ F_SCALE_L={F_SCALE_L} F_SCALE_R={F_SCALE_R} 
R_PAR_1_MB_N_67 (67mid 67out) {R_PARALLEL_1_MB}
C_PAR_1_MB_N_67 (67mid 67out) {C_PARALLEL_1_MB}
* Cell: 68
L_BUSBAR_1_MB_N_68 (67out 68mid) {L_BUSBAR_1_MB}
x_1_MB_N_68 (68mid 68out 0) MB_turns
+ PARAMS: F_SCALE_C_GROUND={F_SCALE_C_GROUND} F_SCALE_C_T2T={F_SCALE_C_T2T} 
+ F_SCALE_L={F_SCALE_L} F_SCALE_R={F_SCALE_R} 
R_PAR_1_MB_N_68 (68mid 68out) {R_PARALLEL_1_MB}
C_PAR_1_MB_N_68 (68mid 68out) {C_PARALLEL_1_MB}
* Cell: 69
L_BUSBAR_1_MB_N_69 (68out 69mid) {L_BUSBAR_1_MB}
x_1_MB_N_69 (69mid 69out 0) MB_turns
+ PARAMS: F_SCALE_C_GROUND={F_SCALE_C_GROUND} F_SCALE_C_T2T={F_SCALE_C_T2T} 
+ F_SCALE_L={F_SCALE_L} F_SCALE_R={F_SCALE_R} 
R_PAR_1_MB_N_69 (69mid 69out) {R_PARALLEL_1_MB}
C_PAR_1_MB_N_69 (69mid 69out) {C_PARALLEL_1_MB}
* Cell: 70
L_BUSBAR_1_MB_N_70 (69out 70mid) {L_BUSBAR_1_MB}
x_1_MB_N_70 (70mid 70out 0) MB_turns
+ PARAMS: F_SCALE_C_GROUND={F_SCALE_C_GROUND} F_SCALE_C_T2T={F_SCALE_C_T2T} 
+ F_SCALE_L={F_SCALE_L} F_SCALE_R={F_SCALE_R} 
R_PAR_1_MB_N_70 (70mid 70out) {R_PARALLEL_1_MB}
C_PAR_1_MB_N_70 (70mid 70out) {C_PARALLEL_1_MB}
* Cell: 71
L_BUSBAR_1_MB_N_71 (70out 71mid) {L_BUSBAR_1_MB}
x_1_MB_N_71 (71mid 71out 0) MB_turns
+ PARAMS: F_SCALE_C_GROUND={F_SCALE_C_GROUND} F_SCALE_C_T2T={F_SCALE_C_T2T} 
+ F_SCALE_L={F_SCALE_L} F_SCALE_R={F_SCALE_R} 
R_PAR_1_MB_N_71 (71mid 71out) {R_PARALLEL_1_MB}
C_PAR_1_MB_N_71 (71mid 71out) {C_PARALLEL_1_MB}
* Cell: 72
L_BUSBAR_1_MB_N_72 (71out 72mid) {L_BUSBAR_1_MB}
x_1_MB_N_72 (72mid 72out 0) MB_turns
+ PARAMS: F_SCALE_C_GROUND={F_SCALE_C_GROUND} F_SCALE_C_T2T={F_SCALE_C_T2T} 
+ F_SCALE_L={F_SCALE_L} F_SCALE_R={F_SCALE_R} 
R_PAR_1_MB_N_72 (72mid 72out) {R_PARALLEL_1_MB}
C_PAR_1_MB_N_72 (72mid 72out) {C_PARALLEL_1_MB}
* Cell: 73
L_BUSBAR_1_MB_N_73 (72out 73mid) {L_BUSBAR_1_MB}
x_1_MB_N_73 (73mid 73out 0) MB_turns
+ PARAMS: F_SCALE_C_GROUND={F_SCALE_C_GROUND} F_SCALE_C_T2T={F_SCALE_C_T2T} 
+ F_SCALE_L={F_SCALE_L} F_SCALE_R={F_SCALE_R} 
R_PAR_1_MB_N_73 (73mid 73out) {R_PARALLEL_1_MB}
C_PAR_1_MB_N_73 (73mid 73out) {C_PARALLEL_1_MB}
* Cell: 74
L_BUSBAR_1_MB_N_74 (73out 74mid) {L_BUSBAR_1_MB}
x_1_MB_N_74 (74mid 74out 0) MB_turns
+ PARAMS: F_SCALE_C_GROUND={F_SCALE_C_GROUND} F_SCALE_C_T2T={F_SCALE_C_T2T} 
+ F_SCALE_L={F_SCALE_L} F_SCALE_R={F_SCALE_R} 
R_PAR_1_MB_N_74 (74mid 74out) {R_PARALLEL_1_MB}
C_PAR_1_MB_N_74 (74mid 74out) {C_PARALLEL_1_MB}
* Cell: 75
L_BUSBAR_1_MB_N_75 (74out 75mid) {L_BUSBAR_1_MB}
x_1_MB_N_75 (75mid 75out 0) MB_turns
+ PARAMS: F_SCALE_C_GROUND={F_SCALE_C_GROUND} F_SCALE_C_T2T={F_SCALE_C_T2T} 
+ F_SCALE_L={F_SCALE_L} F_SCALE_R={F_SCALE_R} 
R_PAR_1_MB_N_75 (75mid 75out) {R_PARALLEL_1_MB}
C_PAR_1_MB_N_75 (75mid 75out) {C_PARALLEL_1_MB}
* Cell: 76
L_BUSBAR_1_MB_N_76 (75out 76mid) {L_BUSBAR_1_MB}
x_1_MB_N_76 (76mid 76out 0) MB_turns
+ PARAMS: F_SCALE_C_GROUND={F_SCALE_C_GROUND} F_SCALE_C_T2T={F_SCALE_C_T2T} 
+ F_SCALE_L={F_SCALE_L} F_SCALE_R={F_SCALE_R} 
R_PAR_1_MB_N_76 (76mid 76out) {R_PARALLEL_1_MB}
C_PAR_1_MB_N_76 (76mid 76out) {C_PARALLEL_1_MB}
* Cell: 77
L_BUSBAR_1_MB_N_77 (76out 77mid) {L_BUSBAR_1_MB}
x_1_MB_N_77 (77mid 77out 0) MB_turns
+ PARAMS: F_SCALE_C_GROUND={F_SCALE_C_GROUND} F_SCALE_C_T2T={F_SCALE_C_T2T} 
+ F_SCALE_L={F_SCALE_L} F_SCALE_R={F_SCALE_R} 
R_PAR_1_MB_N_77 (77mid 77out) {R_PARALLEL_1_MB}
C_PAR_1_MB_N_77 (77mid 77out) {C_PARALLEL_1_MB}
* Cell: 78
L_BUSBAR_1_MB_N_78 (77out 78mid) {L_BUSBAR_1_MB}
x_1_MB_N_78 (78mid 78out 0) MB_turns
+ PARAMS: F_SCALE_C_GROUND={F_SCALE_C_GROUND} F_SCALE_C_T2T={F_SCALE_C_T2T} 
+ F_SCALE_L={F_SCALE_L} F_SCALE_R={F_SCALE_R} 
R_PAR_1_MB_N_78 (78mid 78out) {R_PARALLEL_1_MB}
C_PAR_1_MB_N_78 (78mid 78out) {C_PARALLEL_1_MB}
* Cell: 79
L_BUSBAR_1_MB_N_79 (78out 79mid) {L_BUSBAR_1_MB}
x_1_MB_N_79 (79mid 79out 0) MB_turns
+ PARAMS: F_SCALE_C_GROUND={F_SCALE_C_GROUND} F_SCALE_C_T2T={F_SCALE_C_T2T} 
+ F_SCALE_L={F_SCALE_L} F_SCALE_R={F_SCALE_R} 
R_PAR_1_MB_N_79 (79mid 79out) {R_PARALLEL_1_MB}
C_PAR_1_MB_N_79 (79mid 79out) {C_PARALLEL_1_MB}
* Cell: 80
L_BUSBAR_1_MB_N_80 (79out 80mid) {L_BUSBAR_1_MB}
x_1_MB_N_80 (80mid 80out 0) MB_turns
+ PARAMS: F_SCALE_C_GROUND={F_SCALE_C_GROUND} F_SCALE_C_T2T={F_SCALE_C_T2T} 
+ F_SCALE_L={F_SCALE_L} F_SCALE_R={F_SCALE_R} 
R_PAR_1_MB_N_80 (80mid 80out) {R_PARALLEL_1_MB}
C_PAR_1_MB_N_80 (80mid 80out) {C_PARALLEL_1_MB}
* Cell: 81
L_BUSBAR_1_MB_N_81 (80out 81mid) {L_BUSBAR_1_MB}
x_1_MB_N_81 (81mid 81out 0) MB_turns
+ PARAMS: F_SCALE_C_GROUND={F_SCALE_C_GROUND} F_SCALE_C_T2T={F_SCALE_C_T2T} 
+ F_SCALE_L={F_SCALE_L} F_SCALE_R={F_SCALE_R} 
R_PAR_1_MB_N_81 (81mid 81out) {R_PARALLEL_1_MB}
C_PAR_1_MB_N_81 (81mid 81out) {C_PARALLEL_1_MB}
* Cell: 82
L_BUSBAR_1_MB_N_82 (81out 82mid) {L_BUSBAR_1_MB}
x_1_MB_N_82 (82mid 82out 0) MB_turns
+ PARAMS: F_SCALE_C_GROUND={F_SCALE_C_GROUND} F_SCALE_C_T2T={F_SCALE_C_T2T} 
+ F_SCALE_L={F_SCALE_L} F_SCALE_R={F_SCALE_R} 
R_PAR_1_MB_N_82 (82mid 82out) {R_PARALLEL_1_MB}
C_PAR_1_MB_N_82 (82mid 82out) {C_PARALLEL_1_MB}
* Cell: 83
L_BUSBAR_1_MB_N_83 (82out 83mid) {L_BUSBAR_1_MB}
x_1_MB_N_83 (83mid 83out 0) MB_turns
+ PARAMS: F_SCALE_C_GROUND={F_SCALE_C_GROUND} F_SCALE_C_T2T={F_SCALE_C_T2T} 
+ F_SCALE_L={F_SCALE_L} F_SCALE_R={F_SCALE_R} 
R_PAR_1_MB_N_83 (83mid 83out) {R_PARALLEL_1_MB}
C_PAR_1_MB_N_83 (83mid 83out) {C_PARALLEL_1_MB}
* Cell: 84
L_BUSBAR_1_MB_N_84 (83out 84mid) {L_BUSBAR_1_MB}
x_1_MB_N_84 (84mid 84out 0) MB_turns
+ PARAMS: F_SCALE_C_GROUND={F_SCALE_C_GROUND} F_SCALE_C_T2T={F_SCALE_C_T2T} 
+ F_SCALE_L={F_SCALE_L} F_SCALE_R={F_SCALE_R} 
R_PAR_1_MB_N_84 (84mid 84out) {R_PARALLEL_1_MB}
C_PAR_1_MB_N_84 (84mid 84out) {C_PARALLEL_1_MB}
* Cell: 85
L_BUSBAR_1_MB_N_85 (84out 85mid) {L_BUSBAR_1_MB}
x_1_MB_N_85 (85mid 85out 0) MB_turns
+ PARAMS: F_SCALE_C_GROUND={F_SCALE_C_GROUND} F_SCALE_C_T2T={F_SCALE_C_T2T} 
+ F_SCALE_L={F_SCALE_L} F_SCALE_R={F_SCALE_R} 
R_PAR_1_MB_N_85 (85mid 85out) {R_PARALLEL_1_MB}
C_PAR_1_MB_N_85 (85mid 85out) {C_PARALLEL_1_MB}
* Cell: 86
L_BUSBAR_1_MB_N_86 (85out 86mid) {L_BUSBAR_1_MB}
x_1_MB_N_86 (86mid 86out 0) MB_turns
+ PARAMS: F_SCALE_C_GROUND={F_SCALE_C_GROUND} F_SCALE_C_T2T={F_SCALE_C_T2T} 
+ F_SCALE_L={F_SCALE_L} F_SCALE_R={F_SCALE_R} 
R_PAR_1_MB_N_86 (86mid 86out) {R_PARALLEL_1_MB}
C_PAR_1_MB_N_86 (86mid 86out) {C_PARALLEL_1_MB}
* Cell: 87
L_BUSBAR_1_MB_N_87 (86out 87mid) {L_BUSBAR_1_MB}
x_1_MB_N_87 (87mid 87out 0) MB_turns
+ PARAMS: F_SCALE_C_GROUND={F_SCALE_C_GROUND} F_SCALE_C_T2T={F_SCALE_C_T2T} 
+ F_SCALE_L={F_SCALE_L} F_SCALE_R={F_SCALE_R} 
R_PAR_1_MB_N_87 (87mid 87out) {R_PARALLEL_1_MB}
C_PAR_1_MB_N_87 (87mid 87out) {C_PARALLEL_1_MB}
* Cell: 88
L_BUSBAR_1_MB_N_88 (87out 88mid) {L_BUSBAR_1_MB}
x_1_MB_N_88 (88mid 88out 0) MB_turns
+ PARAMS: F_SCALE_C_GROUND={F_SCALE_C_GROUND} F_SCALE_C_T2T={F_SCALE_C_T2T} 
+ F_SCALE_L={F_SCALE_L} F_SCALE_R={F_SCALE_R} 
R_PAR_1_MB_N_88 (88mid 88out) {R_PARALLEL_1_MB}
C_PAR_1_MB_N_88 (88mid 88out) {C_PARALLEL_1_MB}
* Cell: 89
L_BUSBAR_1_MB_N_89 (88out 89mid) {L_BUSBAR_1_MB}
x_1_MB_N_89 (89mid 89out 0) MB_turns
+ PARAMS: F_SCALE_C_GROUND={F_SCALE_C_GROUND} F_SCALE_C_T2T={F_SCALE_C_T2T} 
+ F_SCALE_L={F_SCALE_L} F_SCALE_R={F_SCALE_R} 
R_PAR_1_MB_N_89 (89mid 89out) {R_PARALLEL_1_MB}
C_PAR_1_MB_N_89 (89mid 89out) {C_PARALLEL_1_MB}
* Cell: 90
L_BUSBAR_1_MB_N_90 (89out 90mid) {L_BUSBAR_1_MB}
x_1_MB_N_90 (90mid 90out 0) MB_turns
+ PARAMS: F_SCALE_C_GROUND={F_SCALE_C_GROUND} F_SCALE_C_T2T={F_SCALE_C_T2T} 
+ F_SCALE_L={F_SCALE_L} F_SCALE_R={F_SCALE_R} 
R_PAR_1_MB_N_90 (90mid 90out) {R_PARALLEL_1_MB}
C_PAR_1_MB_N_90 (90mid 90out) {C_PARALLEL_1_MB}
* Cell: 91
L_BUSBAR_1_MB_N_91 (90out 91mid) {L_BUSBAR_1_MB}
x_1_MB_N_91 (91mid 91out 0) MB_turns
+ PARAMS: F_SCALE_C_GROUND={F_SCALE_C_GROUND} F_SCALE_C_T2T={F_SCALE_C_T2T} 
+ F_SCALE_L={F_SCALE_L} F_SCALE_R={F_SCALE_R} 
R_PAR_1_MB_N_91 (91mid 91out) {R_PARALLEL_1_MB}
C_PAR_1_MB_N_91 (91mid 91out) {C_PARALLEL_1_MB}
* Cell: 92
L_BUSBAR_1_MB_N_92 (91out 92mid) {L_BUSBAR_1_MB}
x_1_MB_N_92 (92mid 92out 0) MB_turns
+ PARAMS: F_SCALE_C_GROUND={F_SCALE_C_GROUND} F_SCALE_C_T2T={F_SCALE_C_T2T} 
+ F_SCALE_L={F_SCALE_L} F_SCALE_R={F_SCALE_R} 
R_PAR_1_MB_N_92 (92mid 92out) {R_PARALLEL_1_MB}
C_PAR_1_MB_N_92 (92mid 92out) {C_PARALLEL_1_MB}
* Cell: 93
L_BUSBAR_1_MB_N_93 (92out 93mid) {L_BUSBAR_1_MB}
x_1_MB_N_93 (93mid 93out 0) MB_turns
+ PARAMS: F_SCALE_C_GROUND={F_SCALE_C_GROUND} F_SCALE_C_T2T={F_SCALE_C_T2T} 
+ F_SCALE_L={F_SCALE_L} F_SCALE_R={F_SCALE_R} 
R_PAR_1_MB_N_93 (93mid 93out) {R_PARALLEL_1_MB}
C_PAR_1_MB_N_93 (93mid 93out) {C_PARALLEL_1_MB}
* Cell: 94
L_BUSBAR_1_MB_N_94 (93out 94mid) {L_BUSBAR_1_MB}
x_1_MB_N_94 (94mid 94out 0) MB_turns
+ PARAMS: F_SCALE_C_GROUND={F_SCALE_C_GROUND} F_SCALE_C_T2T={F_SCALE_C_T2T} 
+ F_SCALE_L={F_SCALE_L} F_SCALE_R={F_SCALE_R} 
R_PAR_1_MB_N_94 (94mid 94out) {R_PARALLEL_1_MB}
C_PAR_1_MB_N_94 (94mid 94out) {C_PARALLEL_1_MB}
* Cell: 95
L_BUSBAR_1_MB_N_95 (94out 95mid) {L_BUSBAR_1_MB}
x_1_MB_N_95 (95mid 95out 0) MB_turns
+ PARAMS: F_SCALE_C_GROUND={F_SCALE_C_GROUND} F_SCALE_C_T2T={F_SCALE_C_T2T} 
+ F_SCALE_L={F_SCALE_L} F_SCALE_R={F_SCALE_R} 
R_PAR_1_MB_N_95 (95mid 95out) {R_PARALLEL_1_MB}
C_PAR_1_MB_N_95 (95mid 95out) {C_PARALLEL_1_MB}
* Cell: 96
L_BUSBAR_1_MB_N_96 (95out 96mid) {L_BUSBAR_1_MB}
x_1_MB_N_96 (96mid 96out 0) MB_turns
+ PARAMS: F_SCALE_C_GROUND={F_SCALE_C_GROUND} F_SCALE_C_T2T={F_SCALE_C_T2T} 
+ F_SCALE_L={F_SCALE_L} F_SCALE_R={F_SCALE_R} 
R_PAR_1_MB_N_96 (96mid 96out) {R_PARALLEL_1_MB}
C_PAR_1_MB_N_96 (96mid 96out) {C_PARALLEL_1_MB}
* Cell: 97
L_BUSBAR_1_MB_N_97 (96out 97mid) {L_BUSBAR_1_MB}
x_1_MB_N_97 (97mid 97out 0) MB_turns
+ PARAMS: F_SCALE_C_GROUND={F_SCALE_C_GROUND} F_SCALE_C_T2T={F_SCALE_C_T2T} 
+ F_SCALE_L={F_SCALE_L} F_SCALE_R={F_SCALE_R} 
R_PAR_1_MB_N_97 (97mid 97out) {R_PARALLEL_1_MB}
C_PAR_1_MB_N_97 (97mid 97out) {C_PARALLEL_1_MB}
* Cell: 98
L_BUSBAR_1_MB_N_98 (97out 98mid) {L_BUSBAR_1_MB}
x_1_MB_N_98 (98mid 98out 0) MB_turns
+ PARAMS: F_SCALE_C_GROUND={F_SCALE_C_GROUND} F_SCALE_C_T2T={F_SCALE_C_T2T} 
+ F_SCALE_L={F_SCALE_L} F_SCALE_R={F_SCALE_R} 
R_PAR_1_MB_N_98 (98mid 98out) {R_PARALLEL_1_MB}
C_PAR_1_MB_N_98 (98mid 98out) {C_PARALLEL_1_MB}
* Cell: 99
L_BUSBAR_1_MB_N_99 (98out 99mid) {L_BUSBAR_1_MB}
x_1_MB_N_99 (99mid 99out 0) MB_turns
+ PARAMS: F_SCALE_C_GROUND={F_SCALE_C_GROUND} F_SCALE_C_T2T={F_SCALE_C_T2T} 
+ F_SCALE_L={F_SCALE_L} F_SCALE_R={F_SCALE_R} 
R_PAR_1_MB_N_99 (99mid 99out) {R_PARALLEL_1_MB}
C_PAR_1_MB_N_99 (99mid 99out) {C_PARALLEL_1_MB}
* Cell: 100
L_BUSBAR_1_MB_N_100 (99out 100mid) {L_BUSBAR_1_MB}
x_1_MB_N_100 (100mid 100out 0) MB_turns
+ PARAMS: F_SCALE_C_GROUND={F_SCALE_C_GROUND} F_SCALE_C_T2T={F_SCALE_C_T2T} 
+ F_SCALE_L={F_SCALE_L} F_SCALE_R={F_SCALE_R} 
R_PAR_1_MB_N_100 (100mid 100out) {R_PARALLEL_1_MB}
C_PAR_1_MB_N_100 (100mid 100out) {C_PARALLEL_1_MB}
* Cell: 101
L_BUSBAR_1_MB_N_101 (100out 101mid) {L_BUSBAR_1_MB}
x_1_MB_N_101 (101mid 101out 0) MB_turns
+ PARAMS: F_SCALE_C_GROUND={F_SCALE_C_GROUND} F_SCALE_C_T2T={F_SCALE_C_T2T} 
+ F_SCALE_L={F_SCALE_L} F_SCALE_R={F_SCALE_R} 
R_PAR_1_MB_N_101 (101mid 101out) {R_PARALLEL_1_MB}
C_PAR_1_MB_N_101 (101mid 101out) {C_PARALLEL_1_MB}
* Cell: 102
L_BUSBAR_1_MB_N_102 (101out 102mid) {L_BUSBAR_1_MB}
x_1_MB_N_102 (102mid 102out 0) MB_turns
+ PARAMS: F_SCALE_C_GROUND={F_SCALE_C_GROUND} F_SCALE_C_T2T={F_SCALE_C_T2T} 
+ F_SCALE_L={F_SCALE_L} F_SCALE_R={F_SCALE_R} 
R_PAR_1_MB_N_102 (102mid 102out) {R_PARALLEL_1_MB}
C_PAR_1_MB_N_102 (102mid 102out) {C_PARALLEL_1_MB}
* Cell: 103
L_BUSBAR_1_MB_N_103 (102out 103mid) {L_BUSBAR_1_MB}
x_1_MB_N_103 (103mid 103out 0) MB_turns
+ PARAMS: F_SCALE_C_GROUND={F_SCALE_C_GROUND} F_SCALE_C_T2T={F_SCALE_C_T2T} 
+ F_SCALE_L={F_SCALE_L} F_SCALE_R={F_SCALE_R} 
R_PAR_1_MB_N_103 (103mid 103out) {R_PARALLEL_1_MB}
C_PAR_1_MB_N_103 (103mid 103out) {C_PARALLEL_1_MB}
* Cell: 104
L_BUSBAR_1_MB_N_104 (103out 104mid) {L_BUSBAR_1_MB}
x_1_MB_N_104 (104mid 104out 0) MB_turns
+ PARAMS: F_SCALE_C_GROUND={F_SCALE_C_GROUND} F_SCALE_C_T2T={F_SCALE_C_T2T} 
+ F_SCALE_L={F_SCALE_L} F_SCALE_R={F_SCALE_R} 
R_PAR_1_MB_N_104 (104mid 104out) {R_PARALLEL_1_MB}
C_PAR_1_MB_N_104 (104mid 104out) {C_PARALLEL_1_MB}
* Cell: 105
L_BUSBAR_1_MB_N_105 (104out 105mid) {L_BUSBAR_1_MB}
x_1_MB_N_105 (105mid 105out 0) MB_turns
+ PARAMS: F_SCALE_C_GROUND={F_SCALE_C_GROUND} F_SCALE_C_T2T={F_SCALE_C_T2T} 
+ F_SCALE_L={F_SCALE_L} F_SCALE_R={F_SCALE_R} 
R_PAR_1_MB_N_105 (105mid 105out) {R_PARALLEL_1_MB}
C_PAR_1_MB_N_105 (105mid 105out) {C_PARALLEL_1_MB}
* Cell: 106
L_BUSBAR_1_MB_N_106 (105out 106mid) {L_BUSBAR_1_MB}
x_1_MB_N_106 (106mid 106out 0) MB_turns
+ PARAMS: F_SCALE_C_GROUND={F_SCALE_C_GROUND} F_SCALE_C_T2T={F_SCALE_C_T2T} 
+ F_SCALE_L={F_SCALE_L} F_SCALE_R={F_SCALE_R} 
R_PAR_1_MB_N_106 (106mid 106out) {R_PARALLEL_1_MB}
C_PAR_1_MB_N_106 (106mid 106out) {C_PARALLEL_1_MB}
* Cell: 107
L_BUSBAR_1_MB_N_107 (106out 107mid) {L_BUSBAR_1_MB}
x_1_MB_N_107 (107mid 107out 0) MB_turns
+ PARAMS: F_SCALE_C_GROUND={F_SCALE_C_GROUND} F_SCALE_C_T2T={F_SCALE_C_T2T} 
+ F_SCALE_L={F_SCALE_L} F_SCALE_R={F_SCALE_R} 
R_PAR_1_MB_N_107 (107mid 107out) {R_PARALLEL_1_MB}
C_PAR_1_MB_N_107 (107mid 107out) {C_PARALLEL_1_MB}
* Cell: 108
L_BUSBAR_1_MB_N_108 (107out 108mid) {L_BUSBAR_1_MB}
x_1_MB_N_108 (108mid 108out 0) MB_turns
+ PARAMS: F_SCALE_C_GROUND={F_SCALE_C_GROUND} F_SCALE_C_T2T={F_SCALE_C_T2T} 
+ F_SCALE_L={F_SCALE_L} F_SCALE_R={F_SCALE_R} 
R_PAR_1_MB_N_108 (108mid 108out) {R_PARALLEL_1_MB}
C_PAR_1_MB_N_108 (108mid 108out) {C_PARALLEL_1_MB}
* Cell: 109
L_BUSBAR_1_MB_N_109 (108out 109mid) {L_BUSBAR_1_MB}
x_1_MB_N_109 (109mid 109out 0) MB_turns
+ PARAMS: F_SCALE_C_GROUND={F_SCALE_C_GROUND} F_SCALE_C_T2T={F_SCALE_C_T2T} 
+ F_SCALE_L={F_SCALE_L} F_SCALE_R={F_SCALE_R} 
R_PAR_1_MB_N_109 (109mid 109out) {R_PARALLEL_1_MB}
C_PAR_1_MB_N_109 (109mid 109out) {C_PARALLEL_1_MB}
* Cell: 110
L_BUSBAR_1_MB_N_110 (109out 110mid) {L_BUSBAR_1_MB}
x_1_MB_N_110 (110mid 110out 0) MB_turns
+ PARAMS: F_SCALE_C_GROUND={F_SCALE_C_GROUND} F_SCALE_C_T2T={F_SCALE_C_T2T} 
+ F_SCALE_L={F_SCALE_L} F_SCALE_R={F_SCALE_R} 
R_PAR_1_MB_N_110 (110mid 110out) {R_PARALLEL_1_MB}
C_PAR_1_MB_N_110 (110mid 110out) {C_PARALLEL_1_MB}
* Cell: 111
L_BUSBAR_1_MB_N_111 (110out 111mid) {L_BUSBAR_1_MB}
x_1_MB_N_111 (111mid 111out 0) MB_turns
+ PARAMS: F_SCALE_C_GROUND={F_SCALE_C_GROUND} F_SCALE_C_T2T={F_SCALE_C_T2T} 
+ F_SCALE_L={F_SCALE_L} F_SCALE_R={F_SCALE_R} 
R_PAR_1_MB_N_111 (111mid 111out) {R_PARALLEL_1_MB}
C_PAR_1_MB_N_111 (111mid 111out) {C_PARALLEL_1_MB}
* Cell: 112
L_BUSBAR_1_MB_N_112 (111out 112mid) {L_BUSBAR_1_MB}
x_1_MB_N_112 (112mid 112out 0) MB_turns
+ PARAMS: F_SCALE_C_GROUND={F_SCALE_C_GROUND} F_SCALE_C_T2T={F_SCALE_C_T2T} 
+ F_SCALE_L={F_SCALE_L} F_SCALE_R={F_SCALE_R} 
R_PAR_1_MB_N_112 (112mid 112out) {R_PARALLEL_1_MB}
C_PAR_1_MB_N_112 (112mid 112out) {C_PARALLEL_1_MB}
* Cell: 113
L_BUSBAR_1_MB_N_113 (112out 113mid) {L_BUSBAR_1_MB}
x_1_MB_N_113 (113mid 113out 0) MB_turns
+ PARAMS: F_SCALE_C_GROUND={F_SCALE_C_GROUND} F_SCALE_C_T2T={F_SCALE_C_T2T} 
+ F_SCALE_L={F_SCALE_L} F_SCALE_R={F_SCALE_R} 
R_PAR_1_MB_N_113 (113mid 113out) {R_PARALLEL_1_MB}
C_PAR_1_MB_N_113 (113mid 113out) {C_PARALLEL_1_MB}
* Cell: 114
L_BUSBAR_1_MB_N_114 (113out 114mid) {L_BUSBAR_1_MB}
x_1_MB_N_114 (114mid 114out 0) MB_turns
+ PARAMS: F_SCALE_C_GROUND={F_SCALE_C_GROUND} F_SCALE_C_T2T={F_SCALE_C_T2T} 
+ F_SCALE_L={F_SCALE_L} F_SCALE_R={F_SCALE_R} 
R_PAR_1_MB_N_114 (114mid 114out) {R_PARALLEL_1_MB}
C_PAR_1_MB_N_114 (114mid 114out) {C_PARALLEL_1_MB}
* Cell: 115
L_BUSBAR_1_MB_N_115 (114out 115mid) {L_BUSBAR_1_MB}
x_1_MB_N_115 (115mid 115out 0) MB_turns
+ PARAMS: F_SCALE_C_GROUND={F_SCALE_C_GROUND} F_SCALE_C_T2T={F_SCALE_C_T2T} 
+ F_SCALE_L={F_SCALE_L} F_SCALE_R={F_SCALE_R} 
R_PAR_1_MB_N_115 (115mid 115out) {R_PARALLEL_1_MB}
C_PAR_1_MB_N_115 (115mid 115out) {C_PARALLEL_1_MB}
* Cell: 116
L_BUSBAR_1_MB_N_116 (115out 116mid) {L_BUSBAR_1_MB}
x_1_MB_N_116 (116mid 116out 0) MB_turns
+ PARAMS: F_SCALE_C_GROUND={F_SCALE_C_GROUND} F_SCALE_C_T2T={F_SCALE_C_T2T} 
+ F_SCALE_L={F_SCALE_L} F_SCALE_R={F_SCALE_R} 
R_PAR_1_MB_N_116 (116mid 116out) {R_PARALLEL_1_MB}
C_PAR_1_MB_N_116 (116mid 116out) {C_PARALLEL_1_MB}
* Cell: 117
L_BUSBAR_1_MB_N_117 (116out 117mid) {L_BUSBAR_1_MB}
x_1_MB_N_117 (117mid 117out 0) MB_turns
+ PARAMS: F_SCALE_C_GROUND={F_SCALE_C_GROUND} F_SCALE_C_T2T={F_SCALE_C_T2T} 
+ F_SCALE_L={F_SCALE_L} F_SCALE_R={F_SCALE_R} 
R_PAR_1_MB_N_117 (117mid 117out) {R_PARALLEL_1_MB}
C_PAR_1_MB_N_117 (117mid 117out) {C_PARALLEL_1_MB}
* Cell: 118
L_BUSBAR_1_MB_N_118 (117out 118mid) {L_BUSBAR_1_MB}
x_1_MB_N_118 (118mid 118out 0) MB_turns
+ PARAMS: F_SCALE_C_GROUND={F_SCALE_C_GROUND} F_SCALE_C_T2T={F_SCALE_C_T2T} 
+ F_SCALE_L={F_SCALE_L} F_SCALE_R={F_SCALE_R} 
R_PAR_1_MB_N_118 (118mid 118out) {R_PARALLEL_1_MB}
C_PAR_1_MB_N_118 (118mid 118out) {C_PARALLEL_1_MB}
* Cell: 119
L_BUSBAR_1_MB_N_119 (118out 119mid) {L_BUSBAR_1_MB}
x_1_MB_N_119 (119mid 119out 0) MB_turns
+ PARAMS: F_SCALE_C_GROUND={F_SCALE_C_GROUND} F_SCALE_C_T2T={F_SCALE_C_T2T} 
+ F_SCALE_L={F_SCALE_L} F_SCALE_R={F_SCALE_R} 
R_PAR_1_MB_N_119 (119mid 119out) {R_PARALLEL_1_MB}
C_PAR_1_MB_N_119 (119mid 119out) {C_PARALLEL_1_MB}
* Cell: 120
L_BUSBAR_1_MB_N_120 (119out 120mid) {L_BUSBAR_1_MB}
x_1_MB_N_120 (120mid 120out 0) MB_turns
+ PARAMS: F_SCALE_C_GROUND={F_SCALE_C_GROUND} F_SCALE_C_T2T={F_SCALE_C_T2T} 
+ F_SCALE_L={F_SCALE_L} F_SCALE_R={F_SCALE_R} 
R_PAR_1_MB_N_120 (120mid 120out) {R_PARALLEL_1_MB}
C_PAR_1_MB_N_120 (120mid 120out) {C_PARALLEL_1_MB}
* Cell: 121
L_BUSBAR_1_MB_N_121 (120out 121mid) {L_BUSBAR_1_MB}
x_1_MB_N_121 (121mid 121out 0) MB_turns
+ PARAMS: F_SCALE_C_GROUND={F_SCALE_C_GROUND} F_SCALE_C_T2T={F_SCALE_C_T2T} 
+ F_SCALE_L={F_SCALE_L} F_SCALE_R={F_SCALE_R} 
R_PAR_1_MB_N_121 (121mid 121out) {R_PARALLEL_1_MB}
C_PAR_1_MB_N_121 (121mid 121out) {C_PARALLEL_1_MB}
* Cell: 122
L_BUSBAR_1_MB_N_122 (121out 122mid) {L_BUSBAR_1_MB}
x_1_MB_N_122 (122mid 122out 0) MB_turns
+ PARAMS: F_SCALE_C_GROUND={F_SCALE_C_GROUND} F_SCALE_C_T2T={F_SCALE_C_T2T} 
+ F_SCALE_L={F_SCALE_L} F_SCALE_R={F_SCALE_R} 
R_PAR_1_MB_N_122 (122mid 122out) {R_PARALLEL_1_MB}
C_PAR_1_MB_N_122 (122mid 122out) {C_PARALLEL_1_MB}
* Cell: 123
L_BUSBAR_1_MB_N_123 (122out 123mid) {L_BUSBAR_1_MB}
x_1_MB_N_123 (123mid 123out 0) MB_turns
+ PARAMS: F_SCALE_C_GROUND={F_SCALE_C_GROUND} F_SCALE_C_T2T={F_SCALE_C_T2T} 
+ F_SCALE_L={F_SCALE_L} F_SCALE_R={F_SCALE_R} 
R_PAR_1_MB_N_123 (123mid 123out) {R_PARALLEL_1_MB}
C_PAR_1_MB_N_123 (123mid 123out) {C_PARALLEL_1_MB}
* Cell: 124
L_BUSBAR_1_MB_N_124 (123out 124mid) {L_BUSBAR_1_MB}
x_1_MB_N_124 (124mid 124out 0) MB_turns
+ PARAMS: F_SCALE_C_GROUND={F_SCALE_C_GROUND} F_SCALE_C_T2T={F_SCALE_C_T2T} 
+ F_SCALE_L={F_SCALE_L} F_SCALE_R={F_SCALE_R} 
R_PAR_1_MB_N_124 (124mid 124out) {R_PARALLEL_1_MB}
C_PAR_1_MB_N_124 (124mid 124out) {C_PARALLEL_1_MB}
* Cell: 125
L_BUSBAR_1_MB_N_125 (124out 125mid) {L_BUSBAR_1_MB}
x_1_MB_N_125 (125mid 125out 0) MB_turns
+ PARAMS: F_SCALE_C_GROUND={F_SCALE_C_GROUND} F_SCALE_C_T2T={F_SCALE_C_T2T} 
+ F_SCALE_L={F_SCALE_L} F_SCALE_R={F_SCALE_R} 
R_PAR_1_MB_N_125 (125mid 125out) {R_PARALLEL_1_MB}
C_PAR_1_MB_N_125 (125mid 125out) {C_PARALLEL_1_MB}
* Cell: 126
L_BUSBAR_1_MB_N_126 (125out 126mid) {L_BUSBAR_1_MB}
x_1_MB_N_126 (126mid 126out 0) MB_turns
+ PARAMS: F_SCALE_C_GROUND={F_SCALE_C_GROUND} F_SCALE_C_T2T={F_SCALE_C_T2T} 
+ F_SCALE_L={F_SCALE_L} F_SCALE_R={F_SCALE_R} 
R_PAR_1_MB_N_126 (126mid 126out) {R_PARALLEL_1_MB}
C_PAR_1_MB_N_126 (126mid 126out) {C_PARALLEL_1_MB}
* Cell: 127
L_BUSBAR_1_MB_N_127 (126out 127mid) {L_BUSBAR_1_MB}
x_1_MB_N_127 (127mid 127out 0) MB_turns
+ PARAMS: F_SCALE_C_GROUND={F_SCALE_C_GROUND} F_SCALE_C_T2T={F_SCALE_C_T2T} 
+ F_SCALE_L={F_SCALE_L} F_SCALE_R={F_SCALE_R} 
R_PAR_1_MB_N_127 (127mid 127out) {R_PARALLEL_1_MB}
C_PAR_1_MB_N_127 (127mid 127out) {C_PARALLEL_1_MB}
* Cell: 128
L_BUSBAR_1_MB_N_128 (127out 128mid) {L_BUSBAR_1_MB}
x_1_MB_N_128 (128mid 128out 0) MB_turns
+ PARAMS: F_SCALE_C_GROUND={F_SCALE_C_GROUND} F_SCALE_C_T2T={F_SCALE_C_T2T} 
+ F_SCALE_L={F_SCALE_L} F_SCALE_R={F_SCALE_R} 
R_PAR_1_MB_N_128 (128mid 128out) {R_PARALLEL_1_MB}
C_PAR_1_MB_N_128 (128mid 128out) {C_PARALLEL_1_MB}
* Cell: 129
L_BUSBAR_1_MB_N_129 (128out 129mid) {L_BUSBAR_1_MB}
x_1_MB_N_129 (129mid 129out 0) MB_turns
+ PARAMS: F_SCALE_C_GROUND={F_SCALE_C_GROUND} F_SCALE_C_T2T={F_SCALE_C_T2T} 
+ F_SCALE_L={F_SCALE_L} F_SCALE_R={F_SCALE_R} 
R_PAR_1_MB_N_129 (129mid 129out) {R_PARALLEL_1_MB}
C_PAR_1_MB_N_129 (129mid 129out) {C_PARALLEL_1_MB}
* Cell: 130
L_BUSBAR_1_MB_N_130 (129out 130mid) {L_BUSBAR_1_MB}
x_1_MB_N_130 (130mid 130out 0) MB_turns
+ PARAMS: F_SCALE_C_GROUND={F_SCALE_C_GROUND} F_SCALE_C_T2T={F_SCALE_C_T2T} 
+ F_SCALE_L={F_SCALE_L} F_SCALE_R={F_SCALE_R} 
R_PAR_1_MB_N_130 (130mid 130out) {R_PARALLEL_1_MB}
C_PAR_1_MB_N_130 (130mid 130out) {C_PARALLEL_1_MB}
* Cell: 131
L_BUSBAR_1_MB_N_131 (130out 131mid) {L_BUSBAR_1_MB}
x_1_MB_N_131 (131mid 131out 0) MB_turns
+ PARAMS: F_SCALE_C_GROUND={F_SCALE_C_GROUND} F_SCALE_C_T2T={F_SCALE_C_T2T} 
+ F_SCALE_L={F_SCALE_L} F_SCALE_R={F_SCALE_R} 
R_PAR_1_MB_N_131 (131mid 131out) {R_PARALLEL_1_MB}
C_PAR_1_MB_N_131 (131mid 131out) {C_PARALLEL_1_MB}
* Cell: 132
L_BUSBAR_1_MB_N_132 (131out 132mid) {L_BUSBAR_1_MB}
x_1_MB_N_132 (132mid 132out 0) MB_turns
+ PARAMS: F_SCALE_C_GROUND={F_SCALE_C_GROUND} F_SCALE_C_T2T={F_SCALE_C_T2T} 
+ F_SCALE_L={F_SCALE_L} F_SCALE_R={F_SCALE_R} 
R_PAR_1_MB_N_132 (132mid 132out) {R_PARALLEL_1_MB}
C_PAR_1_MB_N_132 (132mid 132out) {C_PARALLEL_1_MB}
* Cell: 133
L_BUSBAR_1_MB_N_133 (132out 133mid) {L_BUSBAR_1_MB}
x_1_MB_N_133 (133mid 133out 0) MB_turns
+ PARAMS: F_SCALE_C_GROUND={F_SCALE_C_GROUND} F_SCALE_C_T2T={F_SCALE_C_T2T} 
+ F_SCALE_L={F_SCALE_L} F_SCALE_R={F_SCALE_R} 
R_PAR_1_MB_N_133 (133mid 133out) {R_PARALLEL_1_MB}
C_PAR_1_MB_N_133 (133mid 133out) {C_PARALLEL_1_MB}
* Cell: 134
L_BUSBAR_1_MB_N_134 (133out 134mid) {L_BUSBAR_1_MB}
x_1_MB_N_134 (134mid 134out 0) MB_turns
+ PARAMS: F_SCALE_C_GROUND={F_SCALE_C_GROUND} F_SCALE_C_T2T={F_SCALE_C_T2T} 
+ F_SCALE_L={F_SCALE_L} F_SCALE_R={F_SCALE_R} 
R_PAR_1_MB_N_134 (134mid 134out) {R_PARALLEL_1_MB}
C_PAR_1_MB_N_134 (134mid 134out) {C_PARALLEL_1_MB}
* Cell: 135
L_BUSBAR_1_MB_N_135 (134out 135mid) {L_BUSBAR_1_MB}
x_1_MB_N_135 (135mid 135out 0) MB_turns
+ PARAMS: F_SCALE_C_GROUND={F_SCALE_C_GROUND} F_SCALE_C_T2T={F_SCALE_C_T2T} 
+ F_SCALE_L={F_SCALE_L} F_SCALE_R={F_SCALE_R} 
R_PAR_1_MB_N_135 (135mid 135out) {R_PARALLEL_1_MB}
C_PAR_1_MB_N_135 (135mid 135out) {C_PARALLEL_1_MB}
* Cell: 136
L_BUSBAR_1_MB_N_136 (135out 136mid) {L_BUSBAR_1_MB}
x_1_MB_N_136 (136mid 136out 0) MB_turns
+ PARAMS: F_SCALE_C_GROUND={F_SCALE_C_GROUND} F_SCALE_C_T2T={F_SCALE_C_T2T} 
+ F_SCALE_L={F_SCALE_L} F_SCALE_R={F_SCALE_R} 
R_PAR_1_MB_N_136 (136mid 136out) {R_PARALLEL_1_MB}
C_PAR_1_MB_N_136 (136mid 136out) {C_PARALLEL_1_MB}
* Cell: 137
L_BUSBAR_1_MB_N_137 (136out 137mid) {L_BUSBAR_1_MB}
x_1_MB_N_137 (137mid 137out 0) MB_turns
+ PARAMS: F_SCALE_C_GROUND={F_SCALE_C_GROUND} F_SCALE_C_T2T={F_SCALE_C_T2T} 
+ F_SCALE_L={F_SCALE_L} F_SCALE_R={F_SCALE_R} 
R_PAR_1_MB_N_137 (137mid 137out) {R_PARALLEL_1_MB}
C_PAR_1_MB_N_137 (137mid 137out) {C_PARALLEL_1_MB}
* Cell: 138
L_BUSBAR_1_MB_N_138 (137out 138mid) {L_BUSBAR_1_MB}
x_1_MB_N_138 (138mid 138out 0) MB_turns
+ PARAMS: F_SCALE_C_GROUND={F_SCALE_C_GROUND} F_SCALE_C_T2T={F_SCALE_C_T2T} 
+ F_SCALE_L={F_SCALE_L} F_SCALE_R={F_SCALE_R} 
R_PAR_1_MB_N_138 (138mid 138out) {R_PARALLEL_1_MB}
C_PAR_1_MB_N_138 (138mid 138out) {C_PARALLEL_1_MB}
* Cell: 139
L_BUSBAR_1_MB_N_139 (138out 139mid) {L_BUSBAR_1_MB}
x_1_MB_N_139 (139mid 139out 0) MB_turns
+ PARAMS: F_SCALE_C_GROUND={F_SCALE_C_GROUND} F_SCALE_C_T2T={F_SCALE_C_T2T} 
+ F_SCALE_L={F_SCALE_L} F_SCALE_R={F_SCALE_R} 
R_PAR_1_MB_N_139 (139mid 139out) {R_PARALLEL_1_MB}
C_PAR_1_MB_N_139 (139mid 139out) {C_PARALLEL_1_MB}
* Cell: 140
L_BUSBAR_1_MB_N_140 (139out 140mid) {L_BUSBAR_1_MB}
x_1_MB_N_140 (140mid 140out 0) MB_turns
+ PARAMS: F_SCALE_C_GROUND={F_SCALE_C_GROUND} F_SCALE_C_T2T={F_SCALE_C_T2T} 
+ F_SCALE_L={F_SCALE_L} F_SCALE_R={F_SCALE_R} 
R_PAR_1_MB_N_140 (140mid 140out) {R_PARALLEL_1_MB}
C_PAR_1_MB_N_140 (140mid 140out) {C_PARALLEL_1_MB}
* Cell: 141
L_BUSBAR_1_MB_N_141 (140out 141mid) {L_BUSBAR_1_MB}
x_1_MB_N_141 (141mid 141out 0) MB_turns
+ PARAMS: F_SCALE_C_GROUND={F_SCALE_C_GROUND} F_SCALE_C_T2T={F_SCALE_C_T2T} 
+ F_SCALE_L={F_SCALE_L} F_SCALE_R={F_SCALE_R} 
R_PAR_1_MB_N_141 (141mid 141out) {R_PARALLEL_1_MB}
C_PAR_1_MB_N_141 (141mid 141out) {C_PARALLEL_1_MB}
* Cell: 142
L_BUSBAR_1_MB_N_142 (141out 142mid) {L_BUSBAR_1_MB}
x_1_MB_N_142 (142mid 142out 0) MB_turns
+ PARAMS: F_SCALE_C_GROUND={F_SCALE_C_GROUND} F_SCALE_C_T2T={F_SCALE_C_T2T} 
+ F_SCALE_L={F_SCALE_L} F_SCALE_R={F_SCALE_R} 
R_PAR_1_MB_N_142 (142mid 142out) {R_PARALLEL_1_MB}
C_PAR_1_MB_N_142 (142mid 142out) {C_PARALLEL_1_MB}
* Cell: 143
L_BUSBAR_1_MB_N_143 (142out 143mid) {L_BUSBAR_1_MB}
x_1_MB_N_143 (143mid 143out 0) MB_turns
+ PARAMS: F_SCALE_C_GROUND={F_SCALE_C_GROUND} F_SCALE_C_T2T={F_SCALE_C_T2T} 
+ F_SCALE_L={F_SCALE_L} F_SCALE_R={F_SCALE_R} 
R_PAR_1_MB_N_143 (143mid 143out) {R_PARALLEL_1_MB}
C_PAR_1_MB_N_143 (143mid 143out) {C_PARALLEL_1_MB}
* Cell: 144
L_BUSBAR_1_MB_N_144 (143out 144mid) {L_BUSBAR_1_MB}
x_1_MB_N_144 (144mid 144out 0) MB_turns
+ PARAMS: F_SCALE_C_GROUND={F_SCALE_C_GROUND} F_SCALE_C_T2T={F_SCALE_C_T2T} 
+ F_SCALE_L={F_SCALE_L} F_SCALE_R={F_SCALE_R} 
R_PAR_1_MB_N_144 (144mid 144out) {R_PARALLEL_1_MB}
C_PAR_1_MB_N_144 (144mid 144out) {C_PARALLEL_1_MB}
* Cell: 145
L_BUSBAR_1_MB_N_145 (144out 145mid) {L_BUSBAR_1_MB}
x_1_MB_N_145 (145mid 145out 0) MB_turns
+ PARAMS: F_SCALE_C_GROUND={F_SCALE_C_GROUND} F_SCALE_C_T2T={F_SCALE_C_T2T} 
+ F_SCALE_L={F_SCALE_L} F_SCALE_R={F_SCALE_R} 
R_PAR_1_MB_N_145 (145mid 145out) {R_PARALLEL_1_MB}
C_PAR_1_MB_N_145 (145mid 145out) {C_PARALLEL_1_MB}
* Cell: 146
L_BUSBAR_1_MB_N_146 (145out 146mid) {L_BUSBAR_1_MB}
x_1_MB_N_146 (146mid 146out 0) MB_turns
+ PARAMS: F_SCALE_C_GROUND={F_SCALE_C_GROUND} F_SCALE_C_T2T={F_SCALE_C_T2T} 
+ F_SCALE_L={F_SCALE_L} F_SCALE_R={F_SCALE_R} 
R_PAR_1_MB_N_146 (146mid 146out) {R_PARALLEL_1_MB}
C_PAR_1_MB_N_146 (146mid 146out) {C_PARALLEL_1_MB}
* Cell: 147
L_BUSBAR_1_MB_N_147 (146out 147mid) {L_BUSBAR_1_MB}
x_1_MB_N_147 (147mid 147out 0) MB_turns
+ PARAMS: F_SCALE_C_GROUND={F_SCALE_C_GROUND} F_SCALE_C_T2T={F_SCALE_C_T2T} 
+ F_SCALE_L={F_SCALE_L} F_SCALE_R={F_SCALE_R} 
R_PAR_1_MB_N_147 (147mid 147out) {R_PARALLEL_1_MB}
C_PAR_1_MB_N_147 (147mid 147out) {C_PARALLEL_1_MB}
* Cell: 148
L_BUSBAR_1_MB_N_148 (147out 148mid) {L_BUSBAR_1_MB}
x_1_MB_N_148 (148mid 148out 0) MB_turns
+ PARAMS: F_SCALE_C_GROUND={F_SCALE_C_GROUND} F_SCALE_C_T2T={F_SCALE_C_T2T} 
+ F_SCALE_L={F_SCALE_L} F_SCALE_R={F_SCALE_R} 
R_PAR_1_MB_N_148 (148mid 148out) {R_PARALLEL_1_MB}
C_PAR_1_MB_N_148 (148mid 148out) {C_PARALLEL_1_MB}
* Cell: 149
L_BUSBAR_1_MB_N_149 (148out 149mid) {L_BUSBAR_1_MB}
x_1_MB_N_149 (149mid 149out 0) MB_turns
+ PARAMS: F_SCALE_C_GROUND={F_SCALE_C_GROUND} F_SCALE_C_T2T={F_SCALE_C_T2T} 
+ F_SCALE_L={F_SCALE_L} F_SCALE_R={F_SCALE_R} 
R_PAR_1_MB_N_149 (149mid 149out) {R_PARALLEL_1_MB}
C_PAR_1_MB_N_149 (149mid 149out) {C_PARALLEL_1_MB}
* Cell: 150
L_BUSBAR_1_MB_N_150 (149out 150mid) {L_BUSBAR_1_MB}
x_1_MB_N_150 (150mid 150out 0) MB_turns
+ PARAMS: F_SCALE_C_GROUND={F_SCALE_C_GROUND} F_SCALE_C_T2T={F_SCALE_C_T2T} 
+ F_SCALE_L={F_SCALE_L} F_SCALE_R={F_SCALE_R} 
R_PAR_1_MB_N_150 (150mid 150out) {R_PARALLEL_1_MB}
C_PAR_1_MB_N_150 (150mid 150out) {C_PARALLEL_1_MB}
* Cell: 151
L_BUSBAR_1_MB_N_151 (150out 151mid) {L_BUSBAR_1_MB}
x_1_MB_N_151 (151mid 151out 0) MB_turns
+ PARAMS: F_SCALE_C_GROUND={F_SCALE_C_GROUND} F_SCALE_C_T2T={F_SCALE_C_T2T} 
+ F_SCALE_L={F_SCALE_L} F_SCALE_R={F_SCALE_R} 
R_PAR_1_MB_N_151 (151mid 151out) {R_PARALLEL_1_MB}
C_PAR_1_MB_N_151 (151mid 151out) {C_PARALLEL_1_MB}
* Cell: 152
L_BUSBAR_1_MB_N_152 (151out 152mid) {L_BUSBAR_1_MB}
x_1_MB_N_152 (152mid 152out 0) MB_turns
+ PARAMS: F_SCALE_C_GROUND={F_SCALE_C_GROUND} F_SCALE_C_T2T={F_SCALE_C_T2T} 
+ F_SCALE_L={F_SCALE_L} F_SCALE_R={F_SCALE_R} 
R_PAR_1_MB_N_152 (152mid 152out) {R_PARALLEL_1_MB}
C_PAR_1_MB_N_152 (152mid 152out) {C_PARALLEL_1_MB}
* Cell: 153
L_BUSBAR_1_MB_N_153 (152out 153mid) {L_BUSBAR_1_MB}
x_1_MB_N_153 (153mid 153out 0) MB_turns
+ PARAMS: F_SCALE_C_GROUND={F_SCALE_C_GROUND} F_SCALE_C_T2T={F_SCALE_C_T2T} 
+ F_SCALE_L={F_SCALE_L} F_SCALE_R={F_SCALE_R} 
R_PAR_1_MB_N_153 (153mid 153out) {R_PARALLEL_1_MB}
C_PAR_1_MB_N_153 (153mid 153out) {C_PARALLEL_1_MB}
* Cell: 154
L_BUSBAR_1_MB_N_154 (153out 154mid) {L_BUSBAR_1_MB}
x_1_MB_N_154 (154mid 154out 0) MB_turns
+ PARAMS: F_SCALE_C_GROUND={F_SCALE_C_GROUND} F_SCALE_C_T2T={F_SCALE_C_T2T} 
+ F_SCALE_L={F_SCALE_L} F_SCALE_R={F_SCALE_R} 
R_PAR_1_MB_N_154 (154mid 154out) {R_PARALLEL_1_MB}
C_PAR_1_MB_N_154 (154mid 154out) {C_PARALLEL_1_MB}
*Last busbar
L_BUSBAR_END (154out 0) {L_BUSBAR_1_MB}
* Voltage source
V_AC (0 0series_in) AC 1
* Voltage measurement
E_total_voltage (0 0total_voltage) VALUE = {V(0series_out)-V(154out)}
.OPTION
+ RELTOL=0.01
+ VNTOL=0.000001
+ ABSTOL=0.0000000001
+ CHGTOL=0.00000000000001
+ GMIN=0.0000000001
+ ITL1=400
+ ITL2=20
+ ITL4=400
+ TNOM=27
+ NUMDGT=8

.AUTOCONVERGE
+ RELTOL=0.05
+ VNTOL=0.001
+ ABSTOL=0.00001
+ ITL1=1000
+ ITL2=1000
+ ITL4=1000
+ PIVTOL=0.0000000001

.AC DEC 50 1Hz 200kHz

* Configuration file
.INC configurationFileFrequency.cir
.END

