{
    "coSimulationDir": "C:\\cernbox\\COSIM\\600A\\RQTL11.R5B1\\Output\\",
    "coSimulationModelSolvers": [
        "PSPICE",
        "LEDET"
    ],
    "coSimulationModelDirs": [
        "C:\\cernbox\\SWAN_projects\\steam-notebooks\\steam-sing-input\\600A_Rpar\\cosim_model_RQTL11.R5B1\\PSPICE\\",
        "C:\\cernbox\\SWAN_projects\\steam-notebooks\\steam-sing-input\\600A_Rpar\\cosim_model_RQTL11.R5B1\\LEDET\\"
    ],
    "coSimulationModelConfigs": [
        "PSpiceConfig.json",
        "LedetConfig.json"
    ],
    "coSimulationPortDefinitions": [
        "PSpiceInputOutputPortDefinition.json",
        "LedetInputOutputPortDefinition.json"
    ],
    "convergenceVariables": [
        "I(x_mag_1.L_1)",
        "U_inductive_dynamic_CoilSections_1"
    ],
    "t_0": [
        0,
        0.6
    ],
    "t_end": [
        0.6,
        1.2
    ],
    "t_step_max": [
        [
            0.001,
            0.001
        ],
        [
            0.001,
            0.001
        ]
    ],
    "relTolerance": [
        0.0001,
        null
    ],
    "absTolerance": [
        1,
        null
    ],
    "executionOrder": [
        1,
        2
    ],
    "executeCleanRun": [
        true,
        true
    ]
}