r1	r2	rGnd1	rGnd2	rGnd3	rGnd4
10	10	1.10E+07	1.10E+07	1.10E+07	1.10E+07
10	9.91	1.10E+07	1.10E+07	1.10E+07	1.10E+07
10	9.91	1.10E+07	1.10E+07	1.10E+07	1.10E+07
8.79	10	1.10E+07	1.10E+07	1.10E+07	1.10E+07
10	10	1.10E+07	1.10E+07	1.10E+07	1.10E+07
10	10	1.10E+07	1.10E+07	1.10E+07	1.10E+07
10	10	1.10E+07	1.10E+07	1.10E+07	1.10E+07
10	10	1.10E+07	1.10E+07	1.10E+07	1.10E+07
8.86	10	1.10E+07	1.10E+07	1.10E+07	1.10E+07
10	8.14	1.10E+07	1.10E+07	1.10E+07	1.10E+07
8.63	10	1.10E+07	1.10E+07	1.10E+07	1.10E+07
10	10	1.10E+07	1.10E+07	1.10E+07	1.10E+07
10	9.25	1.10E+07	1.10E+07	1.10E+07	1.10E+07
10	7.96	1.10E+07	1.10E+07	1.10E+07	1.10E+07
8.91	10	1.10E+07	1.10E+07	1.10E+07	1.10E+07
10	7.92	1.10E+07	1.10E+07	1.10E+07	1.10E+07
10	9.25	1.10E+07	1.10E+07	1.10E+07	1.10E+07
10	10	1.10E+07	1.10E+07	1.10E+07	1.10E+07
8.96	10	1.10E+07	1.10E+07	1.10E+07	1.10E+07
10	7.91	1.10E+07	1.10E+07	1.10E+07	1.10E+07
10	9.04	1.10E+07	1.10E+07	1.10E+07	1.10E+07
10	8.21	1.10E+07	1.10E+07	1.10E+07	1.10E+07
8.89	10	1.10E+07	1.10E+07	1.10E+07	1.10E+07
10	10	1.10E+07	1.10E+07	1.10E+07	1.10E+07
10	7.96	1.10E+07	1.10E+07	1.10E+07	1.10E+07
10	10	1.10E+07	1.10E+07	1.10E+07	1.10E+07
10	10	1.10E+07	1.10E+07	1.10E+07	1.10E+07
10	10	1.10E+07	1.10E+07	1.10E+07	1.10E+07
10	9.02	1.10E+07	1.10E+07	1.10E+07	1.10E+07
8	10	1.10E+07	1.10E+07	1.10E+07	1.10E+07
8.18	10	1.10E+07	1.10E+07	1.10E+07	1.10E+07
8.02	10	1.10E+07	1.10E+07	1.10E+07	1.10E+07
7.84	10	1.10E+07	1.10E+07	1.10E+07	1.10E+07
8.18	10	1.10E+07	1.10E+07	1.10E+07	1.10E+07
10	10	1.10E+07	1.10E+07	1.10E+07	1.10E+07
10	9.02	1.10E+07	1.10E+07	1.10E+07	1.10E+07
9.02	10	1.10E+07	1.10E+07	1.10E+07	1.10E+07
8.46	10	1.10E+07	1.10E+07	1.10E+07	1.10E+07
10	10	1.10E+07	1.10E+07	1.10E+07	1.10E+07
10	10	1.10E+07	1.10E+07	1.10E+07	1.10E+07
10	10	1.10E+07	1.10E+07	1.10E+07	1.10E+07
10	10	1.10E+07	1.10E+07	1.10E+07	1.10E+07
10	10	1.10E+07	1.10E+07	1.10E+07	1.10E+07
9.09	10	1.10E+07	1.10E+07	1.10E+07	1.10E+07
10	10	1.10E+07	1.10E+07	1.10E+07	1.10E+07
10	10	1.10E+07	1.10E+07	1.10E+07	1.10E+07
8.02	10	1.10E+07	1.10E+07	1.10E+07	1.10E+07
10	8.18	1.10E+07	1.10E+07	1.10E+07	1.10E+07
8.04	10	1.10E+07	1.10E+07	1.10E+07	1.10E+07
8.91	10	1.10E+07	1.10E+07	1.10E+07	1.10E+07
7.87	10	1.10E+07	1.10E+07	1.10E+07	1.10E+07
10	10	1.10E+07	1.10E+07	1.10E+07	1.10E+07
9.07	10	1.10E+07	1.10E+07	1.10E+07	1.10E+07
8.98	10	1.10E+07	1.10E+07	1.10E+07	1.10E+07
10	10	1.10E+07	1.10E+07	1.10E+07	1.10E+07
10	10	1.10E+07	1.10E+07	1.10E+07	1.10E+07
10	10	1.10E+07	1.10E+07	1.10E+07	1.10E+07
10	10	1.10E+07	1.10E+07	1.10E+07	1.10E+07
10	8.04	1.10E+07	1.10E+07	1.10E+07	1.10E+07
7.96	10	1.10E+07	1.10E+07	1.10E+07	1.10E+07
10	10	1.10E+07	1.10E+07	1.10E+07	1.10E+07
10	7.55	1.10E+07	1.10E+07	1.10E+07	1.10E+07
8.04	10	1.10E+07	1.10E+07	1.10E+07	1.10E+07
10	10	1.10E+07	1.10E+07	1.10E+07	1.10E+07
10	10	1.10E+07	1.10E+07	1.10E+07	1.10E+07
10	10	1.10E+07	1.10E+07	1.10E+07	1.10E+07
10	8.15	1.10E+07	1.10E+07	1.10E+07	1.10E+07
7.94	10	1.10E+07	1.10E+07	1.10E+07	1.10E+07
10	10	1.10E+07	1.10E+07	1.10E+07	1.10E+07
10	8.01	1.10E+07	1.10E+07	1.10E+07	1.10E+07
10	10	1.10E+07	1.10E+07	1.10E+07	1.10E+07
7.75	10	1.10E+07	1.10E+07	1.10E+07	1.10E+07
10	8.54	1.10E+07	1.10E+07	1.10E+07	1.10E+07
7.88	10	1.10E+07	1.10E+07	1.10E+07	1.10E+07
10	8.75	1.10E+07	1.10E+07	1.10E+07	1.10E+07
10	10	1.10E+07	1.10E+07	1.10E+07	1.10E+07
10	10	1.10E+07	1.10E+07	1.10E+07	1.10E+07
10	10	1.10E+07	1.10E+07	1.10E+07	1.10E+07
10	10	1.10E+07	1.10E+07	1.10E+07	1.10E+07
10	10	1.10E+07	1.10E+07	1.10E+07	1.10E+07
10	10	1.10E+07	1.10E+07	1.10E+07	1.10E+07
8.55	10	1.10E+07	1.10E+07	1.10E+07	1.10E+07
10	10	1.10E+07	1.10E+07	1.10E+07	1.10E+07
10	10	1.10E+07	1.10E+07	1.10E+07	1.10E+07
10	10	1.10E+07	1.10E+07	1.10E+07	1.10E+07
10	10	1.10E+07	1.10E+07	1.10E+07	1.10E+07
7.91	10	1.10E+07	1.10E+07	1.10E+07	1.10E+07
10	10	1.10E+07	1.10E+07	1.10E+07	1.10E+07
10	10	1.10E+07	1.10E+07	1.10E+07	1.10E+07
8.54	10	1.10E+07	1.10E+07	1.10E+07	1.10E+07
10	9.09	1.10E+07	1.10E+07	1.10E+07	1.10E+07
8.57	10	1.10E+07	1.10E+07	1.10E+07	1.10E+07
10	7.79	1.10E+07	1.10E+07	1.10E+07	1.10E+07
10	10	1.10E+07	1.10E+07	1.10E+07	1.10E+07
8.79	10	1.10E+07	1.10E+07	1.10E+07	1.10E+07
10	8.02	1.10E+07	1.10E+07	1.10E+07	1.10E+07
10	7.38	1.10E+07	1.10E+07	1.10E+07	1.10E+07
10	10	1.10E+07	1.10E+07	1.10E+07	1.10E+07
10	10	1.10E+07	1.10E+07	1.10E+07	1.10E+07
8.07	10	1.10E+07	1.10E+07	1.10E+07	1.10E+07
10	7.92	1.10E+07	1.10E+07	1.10E+07	1.10E+07
10	10	1.10E+07	1.10E+07	1.10E+07	1.10E+07
10	10	1.10E+07	1.10E+07	1.10E+07	1.10E+07
10	10	1.10E+07	1.10E+07	1.10E+07	1.10E+07
7.88	10	1.10E+07	1.10E+07	1.10E+07	1.10E+07
10	10	1.10E+07	1.10E+07	1.10E+07	1.10E+07
10	9.05	1.10E+07	1.10E+07	1.10E+07	1.10E+07
10	9.8	1.10E+07	1.10E+07	1.10E+07	1.10E+07
10	10	1.10E+07	1.10E+07	1.10E+07	1.10E+07
10	8.89	1.10E+07	1.10E+07	1.10E+07	1.10E+07
10	9.75	1.10E+07	1.10E+07	1.10E+07	1.10E+07
10	9.77	1.10E+07	1.10E+07	1.10E+07	1.10E+07
9.11	10	1.10E+07	1.10E+07	1.10E+07	1.10E+07
8.5	10	1.10E+07	1.10E+07	1.10E+07	1.10E+07
10	8.59	1.10E+07	1.10E+07	1.10E+07	1.10E+07
10	9.71	1.10E+07	1.10E+07	1.10E+07	1.10E+07
10	10	1.10E+07	1.10E+07	1.10E+07	1.10E+07
7.9	10	1.10E+07	1.10E+07	1.10E+07	1.10E+07
8.51	10	1.10E+07	1.10E+07	1.10E+07	1.10E+07
10	8.91	1.10E+07	1.10E+07	1.10E+07	1.10E+07
8.57	10	1.10E+07	1.10E+07	1.10E+07	1.10E+07
10	8.8	1.10E+07	1.10E+07	1.10E+07	1.10E+07
10	8.79	1.10E+07	1.10E+07	1.10E+07	1.10E+07
10	8.77	1.10E+07	1.10E+07	1.10E+07	1.10E+07
8.73	10	1.10E+07	1.10E+07	1.10E+07	1.10E+07
10	8.82	1.10E+07	1.10E+07	1.10E+07	1.10E+07
8.54	10	1.10E+07	1.10E+07	1.10E+07	1.10E+07
10	8.73	1.10E+07	1.10E+07	1.10E+07	1.10E+07
10	10	1.10E+07	1.10E+07	1.10E+07	1.10E+07
10	9.04	1.10E+07	1.10E+07	1.10E+07	1.10E+07
10	8.73	1.10E+07	1.10E+07	1.10E+07	1.10E+07
10	10	1.10E+07	1.10E+07	1.10E+07	1.10E+07
7.56	10	1.10E+07	1.10E+07	1.10E+07	1.10E+07
10	10	1.10E+07	1.10E+07	1.10E+07	1.10E+07
10	10	1.10E+07	1.10E+07	1.10E+07	1.10E+07
10	10	1.10E+07	1.10E+07	1.10E+07	1.10E+07
10	8.77	1.10E+07	1.10E+07	1.10E+07	1.10E+07
7.73	10	1.10E+07	1.10E+07	1.10E+07	1.10E+07
10	10	1.10E+07	1.10E+07	1.10E+07	1.10E+07
10	8.98	1.10E+07	1.10E+07	1.10E+07	1.10E+07
8.99	10	1.10E+07	1.10E+07	1.10E+07	1.10E+07
10	10	1.10E+07	1.10E+07	1.10E+07	1.10E+07
8.77	10	1.10E+07	1.10E+07	1.10E+07	1.10E+07
10	7.96	1.10E+07	1.10E+07	1.10E+07	1.10E+07
10	10	1.10E+07	1.10E+07	1.10E+07	1.10E+07
10	7.67	1.10E+07	1.10E+07	1.10E+07	1.10E+07
10	7.64	1.10E+07	1.10E+07	1.10E+07	1.10E+07
7.34	10	1.10E+07	1.10E+07	1.10E+07	1.10E+07
10	10	1.10E+07	1.10E+07	1.10E+07	1.10E+07
10	8.18	1.10E+07	1.10E+07	1.10E+07	1.10E+07
10	7.86	1.10E+07	1.10E+07	1.10E+07	1.10E+07
10	10	1.10E+07	1.10E+07	1.10E+07	1.10E+07
10	7.86	1.10E+07	1.10E+07	1.10E+07	1.10E+07
10	8.04	1.10E+07	1.10E+07	1.10E+07	1.10E+07
