{
    "coSimulationDir": "C:\\cernbox\\COSIM\\RB\\Output\\",
    "coSimulationModelSolvers": [
        "PSPICE",
        "LEDET"
    ],
    "coSimulationModelDirs": [
        "C:\\cernbox\\SWAN_projects\\steam-notebooks\\steam-sing-input\\RB\\PSPICE\\",
        "C:\\cernbox\\SWAN_projects\\steam-notebooks\\steam-sing-input\\RB\\LEDET\\"
    ],
    "coSimulationModelConfigs": [
        "PSpiceConfig.json",
        "LedetConfig.json"
    ],
    "coSimulationPortDefinitions": [
        "PSpiceInputOutputPortDefinition.json",
        "LedetInputOutputPortDefinition.json"
    ],
    "convergenceVariables": [
        "I(x_mag_1.L_1)",
        "U_inductive_dynamic_CoilSections_1"
    ],
    "t_0": [
        0.0,
        0.02,
        0.1,
        0.2,
        0.5
    ],
    "t_end": [
        0.02,
        0.1,
        0.2,
        0.5,
        1.0
    ],
    "t_step_max": [
        [
            1e-05,
            1e-05,
            1e-05,
            0.0001,
            0.0001
        ],
        [
            2.5e-05,
            2.5e-05,
            2.5e-05,
            0.0005,
            0.001
        ]
    ],
    "relTolerance": [
        0.0008,
        null
    ],
    "absTolerance": [
        5,
        null
    ],
    "executionOrder": [
        1,
        2
    ],
    "executeCleanRun": [
        true,
        true
    ]
}