

* PSPICE Netlist Simulation File
* Generated on 2020/12/18 14:50:33 at CERN
* Authors: STEAM
.LIB "C:\GitLabRepository\steam-pspice-library\magnet_frequency\Items\MBX_groups.lib"
**** Global parameters ****
.PARAM
+ L_BUSBAR_1_MBX={1e-09} 
+ R_PARALLEL_1_MBX={1000000000.0} 
+ C_PARALLEL_1_MBX={1e-15} 
+ R_SERIES={100.0} 
+ F_SCALE_C_GROUND={1.3} 
+ F_SCALE_C_T2T={1.0} 
+ F_SCALE_L={1.0} 
+ F_SCALE_R={1.0} 
+ L_EDDY1={2.5e-05} 
+ R_EDDY1={0.075} 
+ K_EDDY1={0.492} 
+ L_EDDY2={2e-05} 
+ R_EDDY2={0.15} 
+ K_EDDY2={0.375} 
+ R_Par={10000.0} 

* Magnet types:
* ['MBX']
* .STEP PARAM R_Par 10k, 100k, 10k
* Circuit:
R_Series (0series_in 0series_out) {R_SERIES}
* Cell: 1
L_BUSBAR_1_MBX_N_1 (0series_out 1mid) {L_BUSBAR_1_MBX}
x_1_MBX_N_1 (1mid 1out 0) MBX_groups
+ PARAMS: F_SCALE_C_GROUND={F_SCALE_C_GROUND} F_SCALE_C_T2T={F_SCALE_C_T2T} 
+ F_SCALE_L={F_SCALE_L} F_SCALE_R={F_SCALE_R} 
+ L_EDDY1={L_EDDY1} R_EDDY1={R_EDDY1} K_EDDY1={K_EDDY1} 
+ L_EDDY2={L_EDDY2} R_EDDY2={R_EDDY2} K_EDDY2={K_EDDY2} 
+ R_Par={R_Par} 
R_PAR_1_MBX_N_1 (1mid 1out) {R_PARALLEL_1_MBX}
C_PAR_1_MBX_N_1 (1mid 1out) {C_PARALLEL_1_MBX}
*Last busbar
L_BUSBAR_END (1out 0) {L_BUSBAR_1_MBX}
* Voltage source
V_AC (0 0series_in) AC 1
* Voltage measurement
E_total_voltage (0 0total_voltage) VALUE = {V(0series_out)-V(1out)}
.OPTION
+ RELTOL=0.01
+ VNTOL=0.000001
+ ABSTOL=0.0000000001
+ CHGTOL=0.00000000000001
+ GMIN=0.0000000001
+ ITL1=400
+ ITL2=20
+ ITL4=400
+ TNOM=27
+ NUMDGT=8

.AUTOCONVERGE
+ RELTOL=0.05
+ VNTOL=0.001
+ ABSTOL=0.00001
+ ITL1=1000
+ ITL2=1000
+ ITL4=1000
+ PIVTOL=0.0000000001

.AC DEC 50 1Hz 200kHz

* Configuration file
.INC configurationFileFrequency.cir
.END

