         208
          10       10
       0 suppr
       1 h1r
       2 h2r
       3 suppl
       4 h1l
       5 h2l
       6 mscbl1
       7 mscbl2
       8 mscbr1
       9 mscbr2
area:       0       0   0.22600000   0.00000000    BHiron2  0 kpsupp_1r  0
area:       0       1   0.22598900   0.00223020    BHiron2  0 0  0
area:       0       2   0.22595599   0.00446019    BHiron2  0 0  0
area:       0       3   0.22590098   0.00668974    BHiron2  0 0  0
area:       0       4   0.22582395   0.00891864    BHiron2  0 0  0
area:       0       5   0.22572495   0.01114667    BHiron2  0 0  0
area:       0       6   0.22560397   0.01337361    BHiron2  0 0  0
area:       0       7   0.22546101   0.01559926    BHiron2  0 0  0
area:       0       8   0.22529610   0.01782338    BHiron2  0 0  0
area:       0       9   0.22510925   0.02004577    BHiron2  0 0  0
area:       0      10   0.22490047   0.02226621    BHiron2  0 0  0
area:       0      11   0.22466978   0.02448447    BHiron2  0 0  0
area:       0      12   0.22441724   0.02670036    BHiron2  0 0  0
area:       0      13   0.22414282   0.02891364    BHiron2  0 0  0
area:       0      14   0.22384658   0.03112411    BHiron2  0 0  0
area:       0      15   0.22352855   0.03333155    BHiron2  0 0  0
area:       0      16   0.22318874   0.03553574    BHiron2  0 0  0
area:       0      17   0.22282721   0.03773647    BHiron2  0 0  0
area:       0      18   0.22244397   0.03993352    BHiron2  0 0  0
area:       0      19   0.22203907   0.04212669    BHiron2  0 0  0
area:       0      20   0.22161254   0.04431576    BHiron2  0 0  0
area:       0      21   0.22116444   0.04650050    BHiron2  0 0  0
area:       0      22   0.22069480   0.04868072    BHiron2  0 0  0
area:       0      23   0.22020367   0.05085620    BHiron2  0 0  0
area:       0      24   0.21969108   0.05302672    BHiron2  0 0  0
area:       0      25   0.21915711   0.05519209    BHiron2  0 0  0
area:       0      26   0.21860179   0.05735208    BHiron2  0 0  0
area:       0      27   0.21802519   0.05950648    BHiron2  0 0  0
area:       0      28   0.21742736   0.06165509    BHiron2  0 0  0
area:       0      29   0.21680835   0.06379770    BHiron2  0 0  0
area:       0      30   0.21616822   0.06593409    BHiron2  0 0  0
area:       0      31   0.21550706   0.06806406    BHiron2  0 0  0
area:       0      32   0.21482490   0.07018740    BHiron2  0 0  0
area:       0      33   0.21412182   0.07230391    BHiron2  0 0  0
area:       0      34   0.21339789   0.07441337    BHiron2  0 0  0
area:       0      35   0.21265317   0.07651559    BHiron2  0 0  0
area:       0      36   0.21188776   0.07861036    BHiron2  0 0  0
area:       0      37   0.21110170   0.08069748    BHiron2  0 0  0
area:       0      38   0.21029508   0.08277673    BHiron2  0 0  0
area:       0      39   0.20946799   0.08484793    BHiron2  0 0  0
area:       0      40   0.20862050   0.08691086    BHiron2  0 0  0
area:       0      41   0.20775269   0.08896532    BHiron2  0 0  0
area:       0      42   0.20686466   0.09101112    BHiron2  0 0  0
area:       0      43   0.20595647   0.09304806    BHiron2  0 0  0
area:       0      44   0.20502824   0.09507594    BHiron2  0 0  0
area:       0      45   0.20408003   0.09709457    BHiron2  0 0  0
area:       0      46   0.20311195   0.09910373    BHiron2  0 0  0
area:       0      47   0.20212409   0.10110324    BHiron2  0 0  0
area:       0      48   0.20111655   0.10309291    BHiron2  0 0  0
area:       0      49   0.20008941   0.10507254    BHiron2  0 0  0
area:       0      50   0.19904280   0.10704193    BHiron2  0 0  0
area:       0      51   0.19797680   0.10900091    BHiron2  0 0  0
area:       0      52   0.19689153   0.11094927    BHiron2  0 0  0
area:       0      53   0.19578707   0.11288682    BHiron2  0 0  0
area:       0      54   0.19466355   0.11481337    BHiron2  0 0  0
area:       0      55   0.19352108   0.11672876    BHiron2  0 0  0
area:       0      56   0.19235976   0.11863277    BHiron2  0 0  0
area:       0      57   0.19117971   0.12052523    BHiron2  0 0  0
area:       0      58   0.18998104   0.12240595    BHiron2  0 0  0
area:       0      59   0.18876387   0.12427475    BHiron2  0 0  0
area:       0      60   0.18752831   0.12613146    BHiron2  0 0  0
area:       0      61   0.18627450   0.12797587    BHiron2  0 0  0
area:       0      62   0.18500255   0.12980781    BHiron2  0 0  0
area:       0      63   0.18371257   0.13162714    BHiron2  0 0  0
area:       0      64   0.18240471   0.13343363    BHiron2  0 0  0
area:       0      65   0.18107909   0.13522713    BHiron2  0 0  0
area:       0      66   0.17973582   0.13700746    BHiron2  0 0  0
area:       0      67   0.17837507   0.13877445    BHiron2  0 0  0
area:       0      68   0.17699695   0.14052792    BHiron2  0 0  0
area:       0      69   0.17560157   0.14226772    BHiron2  0 0  0
area:       0      70   0.17418911   0.14399366    BHiron2  0 0  0
area:       0      71   0.17275967   0.14570557    BHiron2  0 0  0
area:       0      72   0.17131341   0.14740330    BHiron2  0 0  0
area:       0      73   0.16985047   0.14908665    BHiron2  0 0  0
area:       0      74   0.16837099   0.15075551    BHiron2  0 0  0
area:       0      75   0.16687512   0.15240969    BHiron2  0 0  0
area:       0      76   0.16536300   0.15404899    BHiron2  0 kpsupp_2r  0
area:       0      77   0.16386040   0.15254639    BHiron2  0 0  0
area:       0      78   0.16235779   0.15104379    BHiron2  0 0  0
area:       0      79   0.16085519   0.14954118    BHiron2  0 0  0
area:       0      80   0.15935260   0.14803860    BHiron2  0 0  0
area:       0      81   0.15785000   0.14653599    BHiron2  0 0  0
area:       0      82   0.15634739   0.14503339    BHiron2  0 0  0
area:       0      83   0.15484479   0.14353079    BHiron2  0 0  0
area:       0      84   0.15334219   0.14202818    BHiron2  0 0  0
area:       0      85   0.15192793   0.14344244    BHiron2  0 0  0
area:       0      86   0.15051368   0.14485669    BHiron2  0 0  0
area:       0      87   0.14909944   0.14627093    BHiron2  0 0  0
area:       0      88   0.14768519   0.14768519    BHiron2  0 0  0
area:       0      89   0.14627093   0.14909944    BHiron2  0 0  0
area:       0      90   0.14485669   0.15051368    BHiron2  0 0  0
area:       0      91   0.14344244   0.15192793    BHiron2  0 0  0
area:       0      92   0.14202818   0.15334219    BHiron2  0 0  0
area:       0      93   0.14353079   0.15484479    BHiron2  0 0  0
area:       0      94   0.14503339   0.15634739    BHiron2  0 0  0
area:       0      95   0.14653599   0.15785000    BHiron2  0 0  0
area:       0      96   0.14803860   0.15935260    BHiron2  0 0  0
area:       0      97   0.14954118   0.16085519    BHiron2  0 0  0
area:       0      98   0.15104379   0.16235779    BHiron2  0 0  0
area:       0      99   0.15254639   0.16386040    BHiron2  0 0  0
area:       0     100   0.15404899   0.16536300    BHiron2  0 kpsupp_3r  0
area:       0     101   0.15263803   0.16666624    BHiron2  0 0  0
area:       0     102   0.15121606   0.16795744    BHiron2  0 0  0
area:       0     103   0.14978316   0.16923650    BHiron2  0 0  0
area:       0     104   0.14833945   0.17050335    BHiron2  0 0  0
area:       0     105   0.14688504   0.17175786    BHiron2  0 0  0
area:       0     106   0.14542000   0.17299999    BHiron2  0 kpsupp_4r  0
area:       0     107   0.14396143   0.17154142    BHiron2  0 0  0
area:       0     108   0.14250286   0.17008285    BHiron2  0 0  0
area:       0     109   0.14104429   0.16862428    BHiron2  0 0  0
area:       0     110   0.13958572   0.16716571    BHiron2  0 0  0
area:       0     111   0.13812715   0.16570714    BHiron2  0 0  0
area:       0     112   0.13666858   0.16424857    BHiron2  0 0  0
area:       0     113   0.13521001   0.16279000    BHiron2  0 0  0
area:       0     114   0.13375144   0.16133143    BHiron2  0 0  0
area:       0     115   0.13229287   0.15987286    BHiron2  0 0  0
area:       0     116   0.13083430   0.15841429    BHiron2  0 0  0
area:       0     117   0.12937573   0.15695572    BHiron2  0 0  0
area:       0     118   0.12791714   0.15549713    BHiron2  0 0  0
area:       0     119   0.12645857   0.15403856    BHiron2  0 0  0
area:       0     120   0.12500000   0.15257999    BHiron2  0 kpsupp_5r  0
area:       0     121   0.12500000   0.15082200    BHiron2  0 0  0
area:       0     122   0.12500000   0.14906400    BHiron2  0 0  0
area:       0     123   0.12500000   0.14730600    BHiron2  0 0  0
area:       0     124   0.12500000   0.14554800    BHiron2  0 0  0
area:       0     125   0.12500000   0.14379001    BHiron2  0 0  0
area:       0     126   0.12500000   0.14203201    BHiron2  0 0  0
area:       0     127   0.12500000   0.14027402    BHiron2  0 0  0
area:       0     128   0.12500000   0.13851601    BHiron2  0 0  0
area:       0     129   0.12500000   0.13675800    BHiron2  0 0  0
area:       0     130   0.12500000   0.13500001    BHiron2  0 kpsupp_6r  0
area:       0     131   0.12480786   0.13304910    BHiron2  0 0  0
area:       0     132   0.12423880   0.13117316    BHiron2  0 0  0
area:       0     133   0.12331470   0.12944430    BHiron2  0 0  0
area:       0     134   0.12207107   0.12792893    BHiron2  0 0  0
area:       0     135   0.12055571   0.12668529    BHiron2  0 0  0
area:       0     136   0.11882684   0.12576120    BHiron2  0 0  0
area:       0     137   0.11695091   0.12519214    BHiron2  0 0  0
area:       0     138   0.11500000   0.12500000    BHiron2  0 kpsupp_7r  0
area:       0     139   0.11278847   0.12500000    BHiron2  0 0  0
area:       0     140   0.11057693   0.12500000    BHiron2  0 0  0
area:       0     141   0.10836539   0.12500000    BHiron2  0 0  0
area:       0     142   0.10615385   0.12500000    BHiron2  0 0  0
area:       0     143   0.10394230   0.12500000    BHiron2  0 0  0
area:       0     144   0.10173077   0.12500000    BHiron2  0 0  0
area:       0     145   0.09951924   0.12500000    BHiron2  0 0  0
area:       0     146   0.09730770   0.12500000    BHiron2  0 0  0
area:       0     147   0.09509616   0.12500000    BHiron2  0 0  0
area:       0     148   0.09288462   0.12500000    BHiron2  0 0  0
area:       0     149   0.09067307   0.12500000    BHiron2  0 0  0
area:       0     150   0.08846154   0.12500000    BHiron2  0 0  0
area:       0     151   0.08625000   0.12500000    BHiron2  0 0  0
area:       0     152   0.08403846   0.12500000    BHiron2  0 0  0
area:       0     153   0.08182693   0.12500000    BHiron2  0 0  0
area:       0     154   0.07961538   0.12500000    BHiron2  0 0  0
area:       0     155   0.07740384   0.12500000    BHiron2  0 0  0
area:       0     156   0.07519231   0.12500000    BHiron2  0 0  0
area:       0     157   0.07298077   0.12500000    BHiron2  0 0  0
area:       0     158   0.07076923   0.12500000    BHiron2  0 0  0
area:       0     159   0.06855769   0.12500000    BHiron2  0 0  0
area:       0     160   0.06634615   0.12500000    BHiron2  0 0  0
area:       0     161   0.06413461   0.12500000    BHiron2  0 0  0
area:       0     162   0.06192308   0.12500000    BHiron2  0 0  0
area:       0     163   0.05971154   0.12500000    BHiron2  0 0  0
area:       0     164   0.05750000   0.12500000    BHiron2  0 0  0
area:       0     165   0.05528846   0.12500000    BHiron2  0 0  0
area:       0     166   0.05307692   0.12500000    BHiron2  0 0  0
area:       0     167   0.05086538   0.12500000    BHiron2  0 0  0
area:       0     168   0.04865385   0.12500000    BHiron2  0 0  0
area:       0     169   0.04644231   0.12500000    BHiron2  0 0  0
area:       0     170   0.04423077   0.12500000    BHiron2  0 0  0
area:       0     171   0.04201923   0.12500000    BHiron2  0 0  0
area:       0     172   0.03980770   0.12500000    BHiron2  0 0  0
area:       0     173   0.03759615   0.12500000    BHiron2  0 0  0
area:       0     174   0.03538461   0.12500000    BHiron2  0 0  0
area:       0     175   0.03317308   0.12500000    BHiron2  0 0  0
area:       0     176   0.03096154   0.12500000    BHiron2  0 0  0
area:       0     177   0.02875000   0.12500000    BHiron2  0 0  0
area:       0     178   0.02653846   0.12500000    BHiron2  0 0  0
area:       0     179   0.02432692   0.12500000    BHiron2  0 0  0
area:       0     180   0.02211539   0.12500000    BHiron2  0 0  0
area:       0     181   0.01990385   0.12500000    BHiron2  0 0  0
area:       0     182   0.01769231   0.12500000    BHiron2  0 0  0
area:       0     183   0.01548077   0.12500000    BHiron2  0 0  0
area:       0     184   0.01326923   0.12500000    BHiron2  0 0  0
area:       0     185   0.01105769   0.12500000    BHiron2  0 0  0
area:       0     186   0.00884615   0.12500000    BHiron2  0 0  0
area:       0     187   0.00663462   0.12500000    BHiron2  0 0  0
area:       0     188   0.00442308   0.12500000    BHiron2  0 0  0
area:       0     189   0.00221154   0.12500000    BHiron2  0 0  0
area:       0     190   0.00000000   0.12500000    BHiron2  0 kpsupp_8  0
area:       0     191   0.00000000   0.12209126    BHiron2  0 0  0
area:       0     192   0.00000000   0.11918253    BHiron2  0 0  0
area:       0     193   0.00000000   0.11633867    BHiron2  0 0  0
area:       0     194   0.00000000   0.11349481    BHiron2  0 0  0
area:       0     195   0.00000000   0.11071584    BHiron2  0 0  0
area:       0     196   0.00000000   0.10793685    BHiron2  0 0  0
area:       0     197   0.00000000   0.10522275    BHiron2  0 0  0
area:       0     198   0.00000000   0.10250865    BHiron2  0 0  0
area:       0     199   0.00000000   0.09985943    BHiron2  0 0  0
area:       0     200   0.00000000   0.09721021    BHiron2  0 0  0
area:       0     201   0.00000000   0.09462586    BHiron2  0 0  0
area:       0     202   0.00000000   0.09204152    BHiron2  0 0  0
area:       0     203   0.00000000   0.08952206    BHiron2  0 0  0
area:       0     204   0.00000000   0.08700260    BHiron2  0 0  0
area:       0     205   0.00000000   0.08454801    BHiron2  0 0  0
area:       0     206   0.00000000   0.08209343    BHiron2  0 0  0
area:       0     207   0.00000000   0.07970372    BHiron2  0 0  0
area:       0     208   0.00000000   0.07731401    BHiron2  0 0  0
area:       0     209   0.00000000   0.07498918    BHiron2  0 0  0
area:       0     210   0.00000000   0.07266436    BHiron2  0 0  0
area:       0     211   0.00000000   0.07040441    BHiron2  0 0  0
area:       0     212   0.00000000   0.06814446    BHiron2  0 0  0
area:       0     213   0.00000000   0.06594940    BHiron2  0 0  0
area:       0     214   0.00000000   0.06375433    BHiron2  0 0  0
area:       0     215   0.00000000   0.06162414    BHiron2  0 0  0
area:       0     216   0.00000000   0.05949395    BHiron2  0 0  0
area:       0     217   0.00000000   0.05742864    BHiron2  0 0  0
area:       0     218   0.00000000   0.05536332    BHiron2  0 0  0
area:       0     219   0.00000000   0.05336289    BHiron2  0 0  0
area:       0     220   0.00000000   0.05136246    BHiron2  0 0  0
area:       0     221   0.00000000   0.04942691    BHiron2  0 0  0
area:       0     222   0.00000000   0.04749135    BHiron2  0 0  0
area:       0     223   0.00000000   0.04562068    BHiron2  0 0  0
area:       0     224   0.00000000   0.04375000    BHiron2  0 0  0
area:       0     225   0.00000000   0.04194421    BHiron2  0 0  0
area:       0     226   0.00000000   0.04013841    BHiron2  0 0  0
area:       0     227   0.00000000   0.03839749    BHiron2  0 0  0
area:       0     228   0.00000000   0.03665658    BHiron2  0 0  0
area:       0     229   0.00000000   0.03498054    BHiron2  0 0  0
area:       0     230   0.00000000   0.03330450    BHiron2  0 0  0
area:       0     231   0.00000000   0.03169334    BHiron2  0 0  0
area:       0     232   0.00000000   0.03008218    BHiron2  0 0  0
area:       0     233   0.00000000   0.02853590    BHiron2  0 0  0
area:       0     234   0.00000000   0.02698962    BHiron2  0 0  0
area:       0     235   0.00000000   0.02550822    BHiron2  0 0  0
area:       0     236   0.00000000   0.02402682    BHiron2  0 0  0
area:       0     237   0.00000000   0.02261030    BHiron2  0 0  0
area:       0     238   0.00000000   0.02119377    BHiron2  0 0  0
area:       0     239   0.00000000   0.01984213    BHiron2  0 0  0
area:       0     240   0.00000000   0.01849049    BHiron2  0 0  0
area:       0     241   0.00000000   0.01720372    BHiron2  0 0  0
area:       0     242   0.00000000   0.01591696    BHiron2  0 0  0
area:       0     243   0.00000000   0.01469507    BHiron2  0 0  0
area:       0     244   0.00000000   0.01347319    BHiron2  0 0  0
area:       0     245   0.00000000   0.01231618    BHiron2  0 0  0
area:       0     246   0.00000000   0.01115917    BHiron2  0 0  0
area:       0     247   0.00000000   0.01006704    BHiron2  0 0  0
area:       0     248   0.00000000   0.00897492    BHiron2  0 0  0
area:       0     249   0.00000000   0.00794767    BHiron2  0 0  0
area:       0     250   0.00000000   0.00692042    BHiron2  0 0  0
area:       0     251   0.00000000   0.00595805    BHiron2  0 0  0
area:       0     252   0.00000000   0.00499568    BHiron2  0 0  0
area:       0     253   0.00000000   0.00409818    BHiron2  0 0  0
area:       0     254   0.00000000   0.00320069    BHiron2  0 0  0
area:       0     255   0.00000000   0.00236808    BHiron2  0 0  0
area:       0     256   0.00000000   0.00153547    BHiron2  0 0  0
area:       0     257   0.00000000   0.00076773    BHiron2  0 0  0
area:       0     258   0.00000000   0.00000000    BHiron2  0 kpsupp_9  0
area:       0     259   0.00110000   0.00000000    BHiron2  0 0  0
area:       0     260   0.00220000   0.00000000    BHiron2  0 kpbt6r  0
area:       0     261   0.00221406   0.00176220    BHiron2  0 0  0
area:       0     262   0.00226088   0.00352383    BHiron2  0 0  0
area:       0     263   0.00234044   0.00528429    BHiron2  0 0  0
area:       0     264   0.00245270   0.00704296    BHiron2  0 0  0
area:       0     265   0.00259764   0.00879924    BHiron2  0 0  0
area:       0     266   0.00277520   0.01055252    BHiron2  0 0  0
area:       0     267   0.00298532   0.01230220    BHiron2  0 0  0
area:       0     268   0.00322792   0.01404767    BHiron2  0 0  0
area:       0     269   0.00350293   0.01578834    BHiron2  0 0  0
area:       0     270   0.00381025   0.01752358    BHiron2  0 0  0
area:       0     271   0.00414977   0.01925282    BHiron2  0 0  0
area:       0     272   0.00452137   0.02097544    BHiron2  0 0  0
area:       0     273   0.00492493   0.02269086    BHiron2  0 0  0
area:       0     274   0.00536031   0.02439849    BHiron2  0 0  0
area:       0     275   0.00582736   0.02609772    BHiron2  0 0  0
area:       0     276   0.00632591   0.02778798    BHiron2  0 0  0
area:       0     277   0.00685579   0.02946868    BHiron2  0 0  0
area:       0     278   0.00741682   0.03113924    BHiron2  0 0  0
area:       0     279   0.00800881   0.03279908    BHiron2  0 0  0
area:       0     280   0.00863155   0.03444763    BHiron2  0 0  0
area:       0     281   0.00928483   0.03608432    BHiron2  0 0  0
area:       0     282   0.00996842   0.03770859    BHiron2  0 0  0
area:       0     283   0.01068208   0.03931987    BHiron2  0 0  0
area:       0     284   0.01142557   0.04091760    BHiron2  0 0  0
area:       0     285   0.01219863   0.04250124    BHiron2  0 0  0
area:       0     286   0.01300099   0.04407023    BHiron2  0 0  0
area:       0     287   0.01383238   0.04562404    BHiron2  0 0  0
area:       0     288   0.01469251   0.04716213    BHiron2  0 0  0
area:       0     289   0.01558108   0.04868396    BHiron2  0 0  0
area:       0     290   0.01649779   0.05018901    BHiron2  0 0  0
area:       0     291   0.01744231   0.05167676    BHiron2  0 0  0
area:       0     292   0.01841433   0.05314670    BHiron2  0 0  0
area:       0     293   0.01941350   0.05459831    BHiron2  0 0  0
area:       0     294   0.02043948   0.05603110    BHiron2  0 0  0
area:       0     295   0.02149192   0.05744458    BHiron2  0 0  0
area:       0     296   0.02257045   0.05883824    BHiron2  0 0  0
area:       0     297   0.02367470   0.06021161    BHiron2  0 0  0
area:       0     298   0.02480428   0.06156423    BHiron2  0 0  0
area:       0     299   0.02595882   0.06289561    BHiron2  0 0  0
area:       0     300   0.02713790   0.06420530    BHiron2  0 kpbt5r  0
area:       0     301   0.02590045   0.06544273    BHiron2  0 0  0
area:       0     302   0.02466300   0.06668015    BHiron2  0 0  0
area:       0     303   0.02342555   0.06791757    BHiron2  0 0  0
area:       0     304   0.02218811   0.06915500    BHiron2  0 0  0
area:       0     305   0.02501651   0.07198346    BHiron2  0 0  0
area:       0     306   0.02784491   0.07481191    BHiron2  0 0  0
area:       0     307   0.02908235   0.07357448    BHiron2  0 0  0
area:       0     308   0.03031980   0.07233705    BHiron2  0 0  0
area:       0     309   0.03155725   0.07109962    BHiron2  0 0  0
area:       0     310   0.03279470   0.06986220    BHiron2  0 kpbt4r  0
area:       0     311   0.03448709   0.07138299    BHiron2  0 0  0
area:       0     312   0.03621547   0.07286271    BHiron2  0 0  0
area:       0     313   0.03797888   0.07430054    BHiron2  0 0  0
area:       0     314   0.03977628   0.07569562    BHiron2  0 0  0
area:       0     315   0.04160664   0.07704716    BHiron2  0 0  0
area:       0     316   0.04346891   0.07835440    BHiron2  0 0  0
area:       0     317   0.04536203   0.07961655    BHiron2  0 0  0
area:       0     318   0.04728488   0.08083291    BHiron2  0 0  0
area:       0     319   0.04923637   0.08200278    BHiron2  0 0  0
area:       0     320   0.05121538   0.08312548    BHiron2  0 0  0
area:       0     321   0.05322076   0.08420035    BHiron2  0 0  0
area:       0     322   0.05525136   0.08522680    BHiron2  0 0  0
area:       0     323   0.05730601   0.08620421    BHiron2  0 0  0
area:       0     324   0.05938352   0.08713203    BHiron2  0 0  0
area:       0     325   0.06148270   0.08800972    BHiron2  0 0  0
area:       0     326   0.06360234   0.08883679    BHiron2  0 0  0
area:       0     327   0.06574122   0.08961274    BHiron2  0 0  0
area:       0     328   0.06789810   0.09033715    BHiron2  0 0  0
area:       0     329   0.07007176   0.09100958    BHiron2  0 0  0
area:       0     330   0.07226092   0.09162965    BHiron2  0 0  0
area:       0     331   0.07446433   0.09219700    BHiron2  0 0  0
area:       0     332   0.07668072   0.09271131    BHiron2  0 0  0
area:       0     333   0.07890882   0.09317228    BHiron2  0 0  0
area:       0     334   0.08114734   0.09357964    BHiron2  0 0  0
area:       0     335   0.08339498   0.09393317    BHiron2  0 0  0
area:       0     336   0.08565047   0.09423266    BHiron2  0 0  0
area:       0     337   0.08791250   0.09447792    BHiron2  0 0  0
area:       0     338   0.09017976   0.09466883    BHiron2  0 0  0
area:       0     339   0.09245095   0.09480527    BHiron2  0 0  0
area:       0     340   0.09472475   0.09488717    BHiron2  0 0  0
area:       0     341   0.09699987   0.09491447    BHiron2  0 0  0
area:       0     342   0.09927499   0.09488716    BHiron2  0 0  0
area:       0     343   0.10154880   0.09480526    BHiron2  0 0  0
area:       0     344   0.10381999   0.09466881    BHiron2  0 0  0
area:       0     345   0.10608725   0.09447790    BHiron2  0 0  0
area:       0     346   0.10834927   0.09423263    BHiron2  0 0  0
area:       0     347   0.11060476   0.09393315    BHiron2  0 0  0
area:       0     348   0.11285241   0.09357962    BHiron2  0 0  0
area:       0     349   0.11509092   0.09317224    BHiron2  0 0  0
area:       0     350   0.11731902   0.09271128    BHiron2  0 0  0
area:       0     351   0.11953542   0.09219696    BHiron2  0 0  0
area:       0     352   0.12173883   0.09162960    BHiron2  0 0  0
area:       0     353   0.12392798   0.09100953    BHiron2  0 0  0
area:       0     354   0.12610163   0.09033710    BHiron2  0 0  0
area:       0     355   0.12825851   0.08961269    BHiron2  0 0  0
area:       0     356   0.13039739   0.08883673    BHiron2  0 0  0
area:       0     357   0.13251702   0.08800966    BHiron2  0 0  0
area:       0     358   0.13461621   0.08713196    BHiron2  0 0  0
area:       0     359   0.13669372   0.08620414    BHiron2  0 0  0
area:       0     360   0.13874838   0.08522672    BHiron2  0 0  0
area:       0     361   0.14077896   0.08420028    BHiron2  0 0  0
area:       0     362   0.14278434   0.08312540    BHiron2  0 0  0
area:       0     363   0.14476335   0.08200270    BHiron2  0 0  0
area:       0     364   0.14671484   0.08083282    BHiron2  0 0  0
area:       0     365   0.14863770   0.07961646    BHiron2  0 0  0
area:       0     366   0.15053080   0.07835430    BHiron2  0 0  0
area:       0     367   0.15239307   0.07704706    BHiron2  0 0  0
area:       0     368   0.15422343   0.07569551    BHiron2  0 0  0
area:       0     369   0.15602084   0.07430042    BHiron2  0 0  0
area:       0     370   0.15778422   0.07286260    BHiron2  0 0  0
area:       0     371   0.15951261   0.07138288    BHiron2  0 0  0
area:       0     372   0.16120499   0.06986210    BHiron2  0 kpbt3r  0
area:       0     373   0.16244242   0.07109956    BHiron2  0 0  0
area:       0     374   0.16367982   0.07233702    BHiron2  0 0  0
area:       0     375   0.16491723   0.07357448    BHiron2  0 0  0
area:       0     376   0.16615465   0.07481194    BHiron2  0 0  0
area:       0     377   0.16898316   0.07198353    BHiron2  0 0  0
area:       0     378   0.17181166   0.06915513    BHiron2  0 0  0
area:       0     379   0.17057425   0.06791767    BHiron2  0 0  0
area:       0     380   0.16933683   0.06668022    BHiron2  0 0  0
area:       0     381   0.16809940   0.06544276    BHiron2  0 0  0
area:       0     382   0.16686200   0.06420530    BHiron2  0 kpbt2r  0
area:       0     383   0.16842867   0.06245420    BHiron2  0 0  0
area:       0     384   0.16995148   0.06066481    BHiron2  0 0  0
area:       0     385   0.17142947   0.05883824    BHiron2  0 0  0
area:       0     386   0.17286173   0.05697559    BHiron2  0 0  0
area:       0     387   0.17424740   0.05507803    BHiron2  0 0  0
area:       0     388   0.17558560   0.05314670    BHiron2  0 0  0
area:       0     389   0.17687553   0.05118280    BHiron2  0 0  0
area:       0     390   0.17811640   0.04918753    BHiron2  0 0  0
area:       0     391   0.17930743   0.04716213    BHiron2  0 0  0
area:       0     392   0.18044789   0.04510783    BHiron2  0 0  0
area:       0     393   0.18153711   0.04302589    BHiron2  0 0  0
area:       0     394   0.18257438   0.04091761    BHiron2  0 0  0
area:       0     395   0.18355909   0.03878425    BHiron2  0 0  0
area:       0     396   0.18449062   0.03662716    BHiron2  0 0  0
area:       0     397   0.18536840   0.03444764    BHiron2  0 0  0
area:       0     398   0.18619190   0.03224703    BHiron2  0 0  0
area:       0     399   0.18696062   0.03002669    BHiron2  0 0  0
area:       0     400   0.18767406   0.02778798    BHiron2  0 0  0
area:       0     401   0.18833181   0.02553228    BHiron2  0 0  0
area:       0     402   0.18893345   0.02326097    BHiron2  0 0  0
area:       0     403   0.18947861   0.02097544    BHiron2  0 0  0
area:       0     404   0.18996696   0.01867711    BHiron2  0 0  0
area:       0     405   0.19039820   0.01636738    BHiron2  0 0  0
area:       0     406   0.19077207   0.01404767    BHiron2  0 0  0
area:       0     407   0.19108833   0.01171941    BHiron2  0 0  0
area:       0     408   0.19134679   0.00938402    BHiron2  0 0  0
area:       0     409   0.19154729   0.00704295    BHiron2  0 0  0
area:       0     410   0.19168971   0.00469763    BHiron2  0 0  0
area:       0     411   0.19177397   0.00234950    BHiron2  0 0  0
area:       0     412   0.19180000   0.00000000    BHiron2  0 kpbt1r  0
area:       0     413   0.19393751   0.00000000    BHiron2  0 0  0
area:       0     414   0.19607501   0.00000000    BHiron2  0 0  0
area:       0     415   0.19821250   0.00000000    BHiron2  0 0  0
area:       0     416   0.20035000   0.00000000    BHiron2  0 0  0
area:       0     417   0.20248750   0.00000000    BHiron2  0 0  0
area:       0     418   0.20462501   0.00000000    BHiron2  0 0  0
area:       0     419   0.20676251   0.00000000    BHiron2  0 0  0
area:       0     420   0.20890000   0.00000000    BHiron2  0 0  0
area:       0     421   0.21103750   0.00000000    BHiron2  0 0  0
area:       0     422   0.21317500   0.00000000    BHiron2  0 0  0
area:       0     423   0.21531251   0.00000000    BHiron2  0 0  0
area:       0     424   0.21745001   0.00000000    BHiron2  0 0  0
area:       0     425   0.21958750   0.00000000    BHiron2  0 0  0
area:       0     426   0.22172500   0.00000000    BHiron2  0 0  0
area:       0     427   0.22386250   0.00000000    BHiron2  0 0  0
area:       1       0   0.11500000   0.10390000     BH_air  0 kph1_2r  0
area:       1       1   0.11635738   0.10405294     BH_air  0 0  0
area:       1       2   0.11764669   0.10450409     BH_air  0 0  0
area:       1       3   0.11880329   0.10523083     BH_air  0 0  0
area:       1       4   0.11976917   0.10619671     BH_air  0 0  0
area:       1       5   0.12049591   0.10735331     BH_air  0 0  0
area:       1       6   0.12094706   0.10864262     BH_air  0 0  0
area:       1       7   0.12110000   0.11000000     BH_air  0 0  0
area:       1       8   0.12094706   0.11135738     BH_air  0 0  0
area:       1       9   0.12049591   0.11264669     BH_air  0 0  0
area:       1      10   0.11976917   0.11380329     BH_air  0 0  0
area:       1      11   0.11880329   0.11476917     BH_air  0 0  0
area:       1      12   0.11764669   0.11549591     BH_air  0 0  0
area:       1      13   0.11635738   0.11594706     BH_air  0 0  0
area:       1      14   0.11500000   0.11610000     BH_air  0 kph1_1r  0
area:       1      15   0.11364263   0.11594706     BH_air  0 0  0
area:       1      16   0.11235331   0.11549591     BH_air  0 0  0
area:       1      17   0.11119671   0.11476917     BH_air  0 0  0
area:       1      18   0.11023083   0.11380329     BH_air  0 0  0
area:       1      19   0.10950410   0.11264669     BH_air  0 0  0
area:       1      20   0.10905294   0.11135738     BH_air  0 0  0
area:       1      21   0.10890000   0.11000000     BH_air  0 0  0
area:       1      22   0.10905294   0.10864262     BH_air  0 0  0
area:       1      23   0.10950410   0.10735331     BH_air  0 0  0
area:       1      24   0.11023083   0.10619671     BH_air  0 0  0
area:       1      25   0.11119671   0.10523083     BH_air  0 0  0
area:       1      26   0.11235331   0.10450409     BH_air  0 0  0
area:       1      27   0.11364263   0.10405294     BH_air  0 0  0
area:       2       0   0.18700001   0.06950000     BH_air  0 kph2_2r  0
area:       2       1   0.18933648   0.06976326     BH_air  0 0  0
area:       2       2   0.19155578   0.07053982     BH_air  0 0  0
area:       2       3   0.19354665   0.07179077     BH_air  0 0  0
area:       2       4   0.19520923   0.07345336     BH_air  0 0  0
area:       2       5   0.19646017   0.07544422     BH_air  0 0  0
area:       2       6   0.19723675   0.07766353     BH_air  0 0  0
area:       2       7   0.19750001   0.08000000     BH_air  0 0  0
area:       2       8   0.19723675   0.08233647     BH_air  0 0  0
area:       2       9   0.19646017   0.08455577     BH_air  0 0  0
area:       2      10   0.19520923   0.08654664     BH_air  0 0  0
area:       2      11   0.19354665   0.08820923     BH_air  0 0  0
area:       2      12   0.19155578   0.08946017     BH_air  0 0  0
area:       2      13   0.18933648   0.09023674     BH_air  0 0  0
area:       2      14   0.18700001   0.09050000     BH_air  0 kph2_1r  0
area:       2      15   0.18466353   0.09023674     BH_air  0 0  0
area:       2      16   0.18244423   0.08946017     BH_air  0 0  0
area:       2      17   0.18045336   0.08820923     BH_air  0 0  0
area:       2      18   0.17879078   0.08654664     BH_air  0 0  0
area:       2      19   0.17753984   0.08455577     BH_air  0 0  0
area:       2      20   0.17676327   0.08233647     BH_air  0 0  0
area:       2      21   0.17650001   0.08000000     BH_air  0 0  0
area:       2      22   0.17676327   0.07766353     BH_air  0 0  0
area:       2      23   0.17753984   0.07544422     BH_air  0 0  0
area:       2      24   0.17879078   0.07345336     BH_air  0 0  0
area:       2      25   0.18045336   0.07179077     BH_air  0 0  0
area:       2      26   0.18244423   0.07053982     BH_air  0 0  0
area:       2      27   0.18466353   0.06976326     BH_air  0 0  0
area:       3       0  -0.22600000   0.00000000    BHiron2  0 kpsupp_1l  0
area:       3       1  -0.22386250   0.00000000    BHiron2  0 0  0
area:       3       2  -0.22172500   0.00000000    BHiron2  0 0  0
area:       3       3  -0.21958750   0.00000000    BHiron2  0 0  0
area:       3       4  -0.21745001   0.00000000    BHiron2  0 0  0
area:       3       5  -0.21531251   0.00000000    BHiron2  0 0  0
area:       3       6  -0.21317500   0.00000000    BHiron2  0 0  0
area:       3       7  -0.21103750   0.00000000    BHiron2  0 0  0
area:       3       8  -0.20890000   0.00000000    BHiron2  0 0  0
area:       3       9  -0.20676251   0.00000000    BHiron2  0 0  0
area:       3      10  -0.20462501   0.00000000    BHiron2  0 0  0
area:       3      11  -0.20248750   0.00000000    BHiron2  0 0  0
area:       3      12  -0.20035000   0.00000000    BHiron2  0 0  0
area:       3      13  -0.19821250   0.00000000    BHiron2  0 0  0
area:       3      14  -0.19607501   0.00000000    BHiron2  0 0  0
area:       3      15  -0.19393751   0.00000000    BHiron2  0 0  0
area:       3      16  -0.19180000   0.00000000    BHiron2  0 kpbt1l  0
area:       3      17  -0.19177397   0.00234951    BHiron2  0 0  0
area:       3      18  -0.19168971   0.00469764    BHiron2  0 0  0
area:       3      19  -0.19154729   0.00704296    BHiron2  0 0  0
area:       3      20  -0.19134679   0.00938403    BHiron2  0 0  0
area:       3      21  -0.19108833   0.01171942    BHiron2  0 0  0
area:       3      22  -0.19077207   0.01404768    BHiron2  0 0  0
area:       3      23  -0.19039820   0.01636739    BHiron2  0 0  0
area:       3      24  -0.18996696   0.01867712    BHiron2  0 0  0
area:       3      25  -0.18947861   0.02097545    BHiron2  0 0  0
area:       3      26  -0.18893345   0.02326098    BHiron2  0 0  0
area:       3      27  -0.18833180   0.02553229    BHiron2  0 0  0
area:       3      28  -0.18767406   0.02778799    BHiron2  0 0  0
area:       3      29  -0.18696061   0.03002670    BHiron2  0 0  0
area:       3      30  -0.18619190   0.03224704    BHiron2  0 0  0
area:       3      31  -0.18536840   0.03444765    BHiron2  0 0  0
area:       3      32  -0.18449062   0.03662717    BHiron2  0 0  0
area:       3      33  -0.18355909   0.03878427    BHiron2  0 0  0
area:       3      34  -0.18257438   0.04091761    BHiron2  0 0  0
area:       3      35  -0.18153711   0.04302590    BHiron2  0 0  0
area:       3      36  -0.18044789   0.04510784    BHiron2  0 0  0
area:       3      37  -0.17930742   0.04716214    BHiron2  0 0  0
area:       3      38  -0.17811640   0.04918754    BHiron2  0 0  0
area:       3      39  -0.17687553   0.05118281    BHiron2  0 0  0
area:       3      40  -0.17558560   0.05314671    BHiron2  0 0  0
area:       3      41  -0.17424738   0.05507803    BHiron2  0 0  0
area:       3      42  -0.17286173   0.05697560    BHiron2  0 0  0
area:       3      43  -0.17142946   0.05883824    BHiron2  0 0  0
area:       3      44  -0.16995147   0.06066482    BHiron2  0 0  0
area:       3      45  -0.16842867   0.06245421    BHiron2  0 0  0
area:       3      46  -0.16686200   0.06420530    BHiron2  0 kpbt2l  0
area:       3      47  -0.16809940   0.06544276    BHiron2  0 0  0
area:       3      48  -0.16933683   0.06668022    BHiron2  0 0  0
area:       3      49  -0.17057425   0.06791767    BHiron2  0 0  0
area:       3      50  -0.17181166   0.06915513    BHiron2  0 0  0
area:       3      51  -0.16898316   0.07198353    BHiron2  0 0  0
area:       3      52  -0.16615465   0.07481194    BHiron2  0 0  0
area:       3      53  -0.16491723   0.07357448    BHiron2  0 0  0
area:       3      54  -0.16367982   0.07233702    BHiron2  0 0  0
area:       3      55  -0.16244242   0.07109956    BHiron2  0 0  0
area:       3      56  -0.16120499   0.06986210    BHiron2  0 kpbt3l  0
area:       3      57  -0.15951262   0.07138287    BHiron2  0 0  0
area:       3      58  -0.15778424   0.07286260    BHiron2  0 0  0
area:       3      59  -0.15602084   0.07430042    BHiron2  0 0  0
area:       3      60  -0.15422344   0.07569551    BHiron2  0 0  0
area:       3      61  -0.15239307   0.07704706    BHiron2  0 0  0
area:       3      62  -0.15053080   0.07835429    BHiron2  0 0  0
area:       3      63  -0.14863770   0.07961646    BHiron2  0 0  0
area:       3      64  -0.14671485   0.08083282    BHiron2  0 0  0
area:       3      65  -0.14476335   0.08200269    BHiron2  0 0  0
area:       3      66  -0.14278434   0.08312539    BHiron2  0 0  0
area:       3      67  -0.14077897   0.08420028    BHiron2  0 0  0
area:       3      68  -0.13874838   0.08522672    BHiron2  0 0  0
area:       3      69  -0.13669373   0.08620413    BHiron2  0 0  0
area:       3      70  -0.13461621   0.08713196    BHiron2  0 0  0
area:       3      71  -0.13251704   0.08800966    BHiron2  0 0  0
area:       3      72  -0.13039739   0.08883673    BHiron2  0 0  0
area:       3      73  -0.12825851   0.08961269    BHiron2  0 0  0
area:       3      74  -0.12610163   0.09033709    BHiron2  0 0  0
area:       3      75  -0.12392799   0.09100953    BHiron2  0 0  0
area:       3      76  -0.12173883   0.09162960    BHiron2  0 0  0
area:       3      77  -0.11953542   0.09219696    BHiron2  0 0  0
area:       3      78  -0.11731903   0.09271127    BHiron2  0 0  0
area:       3      79  -0.11509093   0.09317224    BHiron2  0 0  0
area:       3      80  -0.11285241   0.09357962    BHiron2  0 0  0
area:       3      81  -0.11060476   0.09393315    BHiron2  0 0  0
area:       3      82  -0.10834927   0.09423263    BHiron2  0 0  0
area:       3      83  -0.10608725   0.09447790    BHiron2  0 0  0
area:       3      84  -0.10381999   0.09466881    BHiron2  0 0  0
area:       3      85  -0.10154880   0.09480526    BHiron2  0 0  0
area:       3      86  -0.09927499   0.09488716    BHiron2  0 0  0
area:       3      87  -0.09699987   0.09491447    BHiron2  0 0  0
area:       3      88  -0.09472475   0.09488717    BHiron2  0 0  0
area:       3      89  -0.09245094   0.09480527    BHiron2  0 0  0
area:       3      90  -0.09017975   0.09466883    BHiron2  0 0  0
area:       3      91  -0.08791249   0.09447792    BHiron2  0 0  0
area:       3      92  -0.08565047   0.09423266    BHiron2  0 0  0
area:       3      93  -0.08339498   0.09393317    BHiron2  0 0  0
area:       3      94  -0.08114733   0.09357964    BHiron2  0 0  0
area:       3      95  -0.07890881   0.09317228    BHiron2  0 0  0
area:       3      96  -0.07668072   0.09271131    BHiron2  0 0  0
area:       3      97  -0.07446432   0.09219700    BHiron2  0 0  0
area:       3      98  -0.07226091   0.09162965    BHiron2  0 0  0
area:       3      99  -0.07007175   0.09100957    BHiron2  0 0  0
area:       3     100  -0.06789810   0.09033715    BHiron2  0 0  0
area:       3     101  -0.06574121   0.08961274    BHiron2  0 0  0
area:       3     102  -0.06360234   0.08883679    BHiron2  0 0  0
area:       3     103  -0.06148269   0.08800972    BHiron2  0 0  0
area:       3     104  -0.05938352   0.08713203    BHiron2  0 0  0
area:       3     105  -0.05730600   0.08620421    BHiron2  0 0  0
area:       3     106  -0.05525135   0.08522679    BHiron2  0 0  0
area:       3     107  -0.05322075   0.08420035    BHiron2  0 0  0
area:       3     108  -0.05121537   0.08312547    BHiron2  0 0  0
area:       3     109  -0.04923636   0.08200278    BHiron2  0 0  0
area:       3     110  -0.04728487   0.08083291    BHiron2  0 0  0
area:       3     111  -0.04536202   0.07961655    BHiron2  0 0  0
area:       3     112  -0.04346891   0.07835439    BHiron2  0 0  0
area:       3     113  -0.04160663   0.07704715    BHiron2  0 0  0
area:       3     114  -0.03977627   0.07569561    BHiron2  0 0  0
area:       3     115  -0.03797887   0.07430053    BHiron2  0 0  0
area:       3     116  -0.03621547   0.07286271    BHiron2  0 0  0
area:       3     117  -0.03448708   0.07138298    BHiron2  0 0  0
area:       3     118  -0.03279470   0.06986220    BHiron2  0 kpbt4l  0
area:       3     119  -0.03155725   0.07109962    BHiron2  0 0  0
area:       3     120  -0.03031980   0.07233705    BHiron2  0 0  0
area:       3     121  -0.02908235   0.07357448    BHiron2  0 0  0
area:       3     122  -0.02784491   0.07481191    BHiron2  0 0  0
area:       3     123  -0.02501651   0.07198346    BHiron2  0 0  0
area:       3     124  -0.02218811   0.06915500    BHiron2  0 0  0
area:       3     125  -0.02342555   0.06791757    BHiron2  0 0  0
area:       3     126  -0.02466300   0.06668015    BHiron2  0 0  0
area:       3     127  -0.02590045   0.06544273    BHiron2  0 0  0
area:       3     128  -0.02713790   0.06420530    BHiron2  0 kpbt5l  0
area:       3     129  -0.02595882   0.06289561    BHiron2  0 0  0
area:       3     130  -0.02480428   0.06156423    BHiron2  0 0  0
area:       3     131  -0.02367469   0.06021161    BHiron2  0 0  0
area:       3     132  -0.02257045   0.05883824    BHiron2  0 0  0
area:       3     133  -0.02149192   0.05744457    BHiron2  0 0  0
area:       3     134  -0.02043948   0.05603110    BHiron2  0 0  0
area:       3     135  -0.01941350   0.05459831    BHiron2  0 0  0
area:       3     136  -0.01841433   0.05314669    BHiron2  0 0  0
area:       3     137  -0.01744231   0.05167676    BHiron2  0 0  0
area:       3     138  -0.01649779   0.05018900    BHiron2  0 0  0
area:       3     139  -0.01558108   0.04868395    BHiron2  0 0  0
area:       3     140  -0.01469251   0.04716212    BHiron2  0 0  0
area:       3     141  -0.01383238   0.04562404    BHiron2  0 0  0
area:       3     142  -0.01300099   0.04407023    BHiron2  0 0  0
area:       3     143  -0.01219863   0.04250123    BHiron2  0 0  0
area:       3     144  -0.01142557   0.04091760    BHiron2  0 0  0
area:       3     145  -0.01068208   0.03931986    BHiron2  0 0  0
area:       3     146  -0.00996842   0.03770858    BHiron2  0 0  0
area:       3     147  -0.00928483   0.03608432    BHiron2  0 0  0
area:       3     148  -0.00863155   0.03444763    BHiron2  0 0  0
area:       3     149  -0.00800881   0.03279908    BHiron2  0 0  0
area:       3     150  -0.00741682   0.03113923    BHiron2  0 0  0
area:       3     151  -0.00685579   0.02946867    BHiron2  0 0  0
area:       3     152  -0.00632591   0.02778797    BHiron2  0 0  0
area:       3     153  -0.00582736   0.02609771    BHiron2  0 0  0
area:       3     154  -0.00536031   0.02439848    BHiron2  0 0  0
area:       3     155  -0.00492493   0.02269086    BHiron2  0 0  0
area:       3     156  -0.00452137   0.02097544    BHiron2  0 0  0
area:       3     157  -0.00414977   0.01925281    BHiron2  0 0  0
area:       3     158  -0.00381025   0.01752358    BHiron2  0 0  0
area:       3     159  -0.00350293   0.01578833    BHiron2  0 0  0
area:       3     160  -0.00322792   0.01404767    BHiron2  0 0  0
area:       3     161  -0.00298531   0.01230219    BHiron2  0 0  0
area:       3     162  -0.00277520   0.01055251    BHiron2  0 0  0
area:       3     163  -0.00259764   0.00879923    BHiron2  0 0  0
area:       3     164  -0.00245270   0.00704295    BHiron2  0 0  0
area:       3     165  -0.00234044   0.00528428    BHiron2  0 0  0
area:       3     166  -0.00226088   0.00352383    BHiron2  0 0  0
area:       3     167  -0.00221406   0.00176220    BHiron2  0 0  0
area:       3     168  -0.00220000   0.00000000    BHiron2  0 kpbt6l  0
area:       3     169  -0.00110000   0.00000000    BHiron2  0 0  0
area:       3     170   0.00000000   0.00000000    BHiron2  0 kpsupp_9  0
area:       3     171   0.00000000   0.00076773    BHiron2  0 0  0
area:       3     172   0.00000000   0.00153547    BHiron2  0 0  0
area:       3     173   0.00000000   0.00236808    BHiron2  0 0  0
area:       3     174   0.00000000   0.00320069    BHiron2  0 0  0
area:       3     175   0.00000000   0.00409818    BHiron2  0 0  0
area:       3     176   0.00000000   0.00499568    BHiron2  0 0  0
area:       3     177   0.00000000   0.00595805    BHiron2  0 0  0
area:       3     178   0.00000000   0.00692042    BHiron2  0 0  0
area:       3     179   0.00000000   0.00794767    BHiron2  0 0  0
area:       3     180   0.00000000   0.00897492    BHiron2  0 0  0
area:       3     181   0.00000000   0.01006704    BHiron2  0 0  0
area:       3     182   0.00000000   0.01115917    BHiron2  0 0  0
area:       3     183   0.00000000   0.01231618    BHiron2  0 0  0
area:       3     184   0.00000000   0.01347319    BHiron2  0 0  0
area:       3     185   0.00000000   0.01469507    BHiron2  0 0  0
area:       3     186   0.00000000   0.01591696    BHiron2  0 0  0
area:       3     187   0.00000000   0.01720372    BHiron2  0 0  0
area:       3     188   0.00000000   0.01849049    BHiron2  0 0  0
area:       3     189   0.00000000   0.01984213    BHiron2  0 0  0
area:       3     190   0.00000000   0.02119377    BHiron2  0 0  0
area:       3     191   0.00000000   0.02261030    BHiron2  0 0  0
area:       3     192   0.00000000   0.02402682    BHiron2  0 0  0
area:       3     193   0.00000000   0.02550822    BHiron2  0 0  0
area:       3     194   0.00000000   0.02698962    BHiron2  0 0  0
area:       3     195   0.00000000   0.02853590    BHiron2  0 0  0
area:       3     196   0.00000000   0.03008218    BHiron2  0 0  0
area:       3     197   0.00000000   0.03169334    BHiron2  0 0  0
area:       3     198   0.00000000   0.03330450    BHiron2  0 0  0
area:       3     199   0.00000000   0.03498054    BHiron2  0 0  0
area:       3     200   0.00000000   0.03665658    BHiron2  0 0  0
area:       3     201   0.00000000   0.03839749    BHiron2  0 0  0
area:       3     202   0.00000000   0.04013841    BHiron2  0 0  0
area:       3     203   0.00000000   0.04194421    BHiron2  0 0  0
area:       3     204   0.00000000   0.04375000    BHiron2  0 0  0
area:       3     205   0.00000000   0.04562068    BHiron2  0 0  0
area:       3     206   0.00000000   0.04749136    BHiron2  0 0  0
area:       3     207   0.00000000   0.04942691    BHiron2  0 0  0
area:       3     208   0.00000000   0.05136246    BHiron2  0 0  0
area:       3     209   0.00000000   0.05336289    BHiron2  0 0  0
area:       3     210   0.00000000   0.05536333    BHiron2  0 0  0
area:       3     211   0.00000000   0.05742864    BHiron2  0 0  0
area:       3     212   0.00000000   0.05949395    BHiron2  0 0  0
area:       3     213   0.00000000   0.06162414    BHiron2  0 0  0
area:       3     214   0.00000000   0.06375433    BHiron2  0 0  0
area:       3     215   0.00000000   0.06594940    BHiron2  0 0  0
area:       3     216   0.00000000   0.06814446    BHiron2  0 0  0
area:       3     217   0.00000000   0.07040441    BHiron2  0 0  0
area:       3     218   0.00000000   0.07266437    BHiron2  0 0  0
area:       3     219   0.00000000   0.07498918    BHiron2  0 0  0
area:       3     220   0.00000000   0.07731401    BHiron2  0 0  0
area:       3     221   0.00000000   0.07970372    BHiron2  0 0  0
area:       3     222   0.00000000   0.08209343    BHiron2  0 0  0
area:       3     223   0.00000000   0.08454801    BHiron2  0 0  0
area:       3     224   0.00000000   0.08700260    BHiron2  0 0  0
area:       3     225   0.00000000   0.08952206    BHiron2  0 0  0
area:       3     226   0.00000000   0.09204153    BHiron2  0 0  0
area:       3     227   0.00000000   0.09462587    BHiron2  0 0  0
area:       3     228   0.00000000   0.09721021    BHiron2  0 0  0
area:       3     229   0.00000000   0.09985943    BHiron2  0 0  0
area:       3     230   0.00000000   0.10250866    BHiron2  0 0  0
area:       3     231   0.00000000   0.10522275    BHiron2  0 0  0
area:       3     232   0.00000000   0.10793684    BHiron2  0 0  0
area:       3     233   0.00000000   0.11071583    BHiron2  0 0  0
area:       3     234   0.00000000   0.11349481    BHiron2  0 0  0
area:       3     235   0.00000000   0.11633867    BHiron2  0 0  0
area:       3     236   0.00000000   0.11918252    BHiron2  0 0  0
area:       3     237   0.00000000   0.12209126    BHiron2  0 0  0
area:       3     238   0.00000000   0.12500000    BHiron2  0 kpsupp_8  0
area:       3     239  -0.00221154   0.12500000    BHiron2  0 0  0
area:       3     240  -0.00442308   0.12500000    BHiron2  0 0  0
area:       3     241  -0.00663462   0.12500000    BHiron2  0 0  0
area:       3     242  -0.00884615   0.12500000    BHiron2  0 0  0
area:       3     243  -0.01105769   0.12500000    BHiron2  0 0  0
area:       3     244  -0.01326923   0.12500000    BHiron2  0 0  0
area:       3     245  -0.01548077   0.12500000    BHiron2  0 0  0
area:       3     246  -0.01769231   0.12500000    BHiron2  0 0  0
area:       3     247  -0.01990385   0.12500000    BHiron2  0 0  0
area:       3     248  -0.02211539   0.12500000    BHiron2  0 0  0
area:       3     249  -0.02432692   0.12500000    BHiron2  0 0  0
area:       3     250  -0.02653846   0.12500000    BHiron2  0 0  0
area:       3     251  -0.02875000   0.12500000    BHiron2  0 0  0
area:       3     252  -0.03096154   0.12500000    BHiron2  0 0  0
area:       3     253  -0.03317308   0.12500000    BHiron2  0 0  0
area:       3     254  -0.03538462   0.12500000    BHiron2  0 0  0
area:       3     255  -0.03759616   0.12500000    BHiron2  0 0  0
area:       3     256  -0.03980770   0.12500000    BHiron2  0 0  0
area:       3     257  -0.04201923   0.12500000    BHiron2  0 0  0
area:       3     258  -0.04423077   0.12500000    BHiron2  0 0  0
area:       3     259  -0.04644231   0.12500000    BHiron2  0 0  0
area:       3     260  -0.04865385   0.12500000    BHiron2  0 0  0
area:       3     261  -0.05086539   0.12500000    BHiron2  0 0  0
area:       3     262  -0.05307692   0.12500000    BHiron2  0 0  0
area:       3     263  -0.05528846   0.12500000    BHiron2  0 0  0
area:       3     264  -0.05750000   0.12500000    BHiron2  0 0  0
area:       3     265  -0.05971154   0.12500000    BHiron2  0 0  0
area:       3     266  -0.06192308   0.12500000    BHiron2  0 0  0
area:       3     267  -0.06413462   0.12500000    BHiron2  0 0  0
area:       3     268  -0.06634615   0.12500000    BHiron2  0 0  0
area:       3     269  -0.06855769   0.12500000    BHiron2  0 0  0
area:       3     270  -0.07076924   0.12500000    BHiron2  0 0  0
area:       3     271  -0.07298078   0.12500000    BHiron2  0 0  0
area:       3     272  -0.07519231   0.12500000    BHiron2  0 0  0
area:       3     273  -0.07740385   0.12500000    BHiron2  0 0  0
area:       3     274  -0.07961539   0.12500000    BHiron2  0 0  0
area:       3     275  -0.08182693   0.12500000    BHiron2  0 0  0
area:       3     276  -0.08403846   0.12500000    BHiron2  0 0  0
area:       3     277  -0.08625000   0.12500000    BHiron2  0 0  0
area:       3     278  -0.08846154   0.12500000    BHiron2  0 0  0
area:       3     279  -0.09067307   0.12500000    BHiron2  0 0  0
area:       3     280  -0.09288462   0.12500000    BHiron2  0 0  0
area:       3     281  -0.09509616   0.12500000    BHiron2  0 0  0
area:       3     282  -0.09730770   0.12500000    BHiron2  0 0  0
area:       3     283  -0.09951924   0.12500000    BHiron2  0 0  0
area:       3     284  -0.10173077   0.12500000    BHiron2  0 0  0
area:       3     285  -0.10394230   0.12500000    BHiron2  0 0  0
area:       3     286  -0.10615385   0.12500000    BHiron2  0 0  0
area:       3     287  -0.10836539   0.12500000    BHiron2  0 0  0
area:       3     288  -0.11057692   0.12500000    BHiron2  0 0  0
area:       3     289  -0.11278846   0.12500000    BHiron2  0 0  0
area:       3     290  -0.11500000   0.12500000    BHiron2  0 kpsupp_7l  0
area:       3     291  -0.11695091   0.12519214    BHiron2  0 0  0
area:       3     292  -0.11882684   0.12576120    BHiron2  0 0  0
area:       3     293  -0.12055571   0.12668529    BHiron2  0 0  0
area:       3     294  -0.12207107   0.12792893    BHiron2  0 0  0
area:       3     295  -0.12331470   0.12944430    BHiron2  0 0  0
area:       3     296  -0.12423880   0.13117316    BHiron2  0 0  0
area:       3     297  -0.12480786   0.13304910    BHiron2  0 0  0
area:       3     298  -0.12500000   0.13500001    BHiron2  0 kpsupp_6l  0
area:       3     299  -0.12500000   0.13675800    BHiron2  0 0  0
area:       3     300  -0.12500000   0.13851601    BHiron2  0 0  0
area:       3     301  -0.12500000   0.14027402    BHiron2  0 0  0
area:       3     302  -0.12500000   0.14203201    BHiron2  0 0  0
area:       3     303  -0.12500000   0.14379001    BHiron2  0 0  0
area:       3     304  -0.12500000   0.14554800    BHiron2  0 0  0
area:       3     305  -0.12500000   0.14730600    BHiron2  0 0  0
area:       3     306  -0.12500000   0.14906400    BHiron2  0 0  0
area:       3     307  -0.12500000   0.15082200    BHiron2  0 0  0
area:       3     308  -0.12500000   0.15257999    BHiron2  0 kpsupp_5l  0
area:       3     309  -0.12645857   0.15403856    BHiron2  0 0  0
area:       3     310  -0.12791714   0.15549713    BHiron2  0 0  0
area:       3     311  -0.12937573   0.15695572    BHiron2  0 0  0
area:       3     312  -0.13083430   0.15841429    BHiron2  0 0  0
area:       3     313  -0.13229287   0.15987286    BHiron2  0 0  0
area:       3     314  -0.13375144   0.16133143    BHiron2  0 0  0
area:       3     315  -0.13521001   0.16279000    BHiron2  0 0  0
area:       3     316  -0.13666858   0.16424857    BHiron2  0 0  0
area:       3     317  -0.13812715   0.16570714    BHiron2  0 0  0
area:       3     318  -0.13958572   0.16716571    BHiron2  0 0  0
area:       3     319  -0.14104429   0.16862428    BHiron2  0 0  0
area:       3     320  -0.14250286   0.17008285    BHiron2  0 0  0
area:       3     321  -0.14396143   0.17154142    BHiron2  0 0  0
area:       3     322  -0.14542000   0.17299999    BHiron2  0 kpsupp_4l  0
area:       3     323  -0.14688504   0.17175786    BHiron2  0 0  0
area:       3     324  -0.14833947   0.17050333    BHiron2  0 0  0
area:       3     325  -0.14978318   0.16923650    BHiron2  0 0  0
area:       3     326  -0.15121607   0.16795743    BHiron2  0 0  0
area:       3     327  -0.15263805   0.16666622    BHiron2  0 0  0
area:       3     328  -0.15404899   0.16536300    BHiron2  0 kpsupp_3l  0
area:       3     329  -0.15254639   0.16386040    BHiron2  0 0  0
area:       3     330  -0.15104379   0.16235779    BHiron2  0 0  0
area:       3     331  -0.14954118   0.16085519    BHiron2  0 0  0
area:       3     332  -0.14803860   0.15935260    BHiron2  0 0  0
area:       3     333  -0.14653599   0.15785000    BHiron2  0 0  0
area:       3     334  -0.14503339   0.15634739    BHiron2  0 0  0
area:       3     335  -0.14353079   0.15484479    BHiron2  0 0  0
area:       3     336  -0.14202818   0.15334219    BHiron2  0 0  0
area:       3     337  -0.14344244   0.15192793    BHiron2  0 0  0
area:       3     338  -0.14485669   0.15051368    BHiron2  0 0  0
area:       3     339  -0.14627093   0.14909944    BHiron2  0 0  0
area:       3     340  -0.14768519   0.14768519    BHiron2  0 0  0
area:       3     341  -0.14909944   0.14627093    BHiron2  0 0  0
area:       3     342  -0.15051368   0.14485669    BHiron2  0 0  0
area:       3     343  -0.15192793   0.14344244    BHiron2  0 0  0
area:       3     344  -0.15334219   0.14202818    BHiron2  0 0  0
area:       3     345  -0.15484479   0.14353079    BHiron2  0 0  0
area:       3     346  -0.15634739   0.14503339    BHiron2  0 0  0
area:       3     347  -0.15785000   0.14653599    BHiron2  0 0  0
area:       3     348  -0.15935260   0.14803860    BHiron2  0 0  0
area:       3     349  -0.16085519   0.14954118    BHiron2  0 0  0
area:       3     350  -0.16235779   0.15104379    BHiron2  0 0  0
area:       3     351  -0.16386040   0.15254639    BHiron2  0 0  0
area:       3     352  -0.16536300   0.15404899    BHiron2  0 kpsupp_2l  0
area:       3     353  -0.16687512   0.15240969    BHiron2  0 0  0
area:       3     354  -0.16837099   0.15075551    BHiron2  0 0  0
area:       3     355  -0.16985047   0.14908667    BHiron2  0 0  0
area:       3     356  -0.17131341   0.14740328    BHiron2  0 0  0
area:       3     357  -0.17275967   0.14570557    BHiron2  0 0  0
area:       3     358  -0.17418911   0.14399366    BHiron2  0 0  0
area:       3     359  -0.17560157   0.14226772    BHiron2  0 0  0
area:       3     360  -0.17699695   0.14052793    BHiron2  0 0  0
area:       3     361  -0.17837508   0.13877445    BHiron2  0 0  0
area:       3     362  -0.17973584   0.13700746    BHiron2  0 0  0
area:       3     363  -0.18107909   0.13522713    BHiron2  0 0  0
area:       3     364  -0.18240471   0.13343363    BHiron2  0 0  0
area:       3     365  -0.18371257   0.13162714    BHiron2  0 0  0
area:       3     366  -0.18500255   0.12980781    BHiron2  0 0  0
area:       3     367  -0.18627450   0.12797587    BHiron2  0 0  0
area:       3     368  -0.18752833   0.12613145    BHiron2  0 0  0
area:       3     369  -0.18876387   0.12427475    BHiron2  0 0  0
area:       3     370  -0.18998104   0.12240595    BHiron2  0 0  0
area:       3     371  -0.19117972   0.12052523    BHiron2  0 0  0
area:       3     372  -0.19235976   0.11863276    BHiron2  0 0  0
area:       3     373  -0.19352108   0.11672875    BHiron2  0 0  0
area:       3     374  -0.19466355   0.11481337    BHiron2  0 0  0
area:       3     375  -0.19578707   0.11288682    BHiron2  0 0  0
area:       3     376  -0.19689153   0.11094926    BHiron2  0 0  0
area:       3     377  -0.19797681   0.10900091    BHiron2  0 0  0
area:       3     378  -0.19904280   0.10704193    BHiron2  0 0  0
area:       3     379  -0.20008941   0.10507254    BHiron2  0 0  0
area:       3     380  -0.20111655   0.10309290    BHiron2  0 0  0
area:       3     381  -0.20212409   0.10110323    BHiron2  0 0  0
area:       3     382  -0.20311195   0.09910372    BHiron2  0 0  0
area:       3     383  -0.20408003   0.09709455    BHiron2  0 0  0
area:       3     384  -0.20502824   0.09507594    BHiron2  0 0  0
area:       3     385  -0.20595647   0.09304806    BHiron2  0 0  0
area:       3     386  -0.20686466   0.09101111    BHiron2  0 0  0
area:       3     387  -0.20775270   0.08896531    BHiron2  0 0  0
area:       3     388  -0.20862050   0.08691084    BHiron2  0 0  0
area:       3     389  -0.20946799   0.08484791    BHiron2  0 0  0
area:       3     390  -0.21029510   0.08277672    BHiron2  0 0  0
area:       3     391  -0.21110171   0.08069746    BHiron2  0 0  0
area:       3     392  -0.21188776   0.07861035    BHiron2  0 0  0
area:       3     393  -0.21265317   0.07651559    BHiron2  0 0  0
area:       3     394  -0.21339789   0.07441337    BHiron2  0 0  0
area:       3     395  -0.21412182   0.07230390    BHiron2  0 0  0
area:       3     396  -0.21482490   0.07018739    BHiron2  0 0  0
area:       3     397  -0.21550706   0.06806404    BHiron2  0 0  0
area:       3     398  -0.21616824   0.06593407    BHiron2  0 0  0
area:       3     399  -0.21680836   0.06379768    BHiron2  0 0  0
area:       3     400  -0.21742736   0.06165508    BHiron2  0 0  0
area:       3     401  -0.21802521   0.05950647    BHiron2  0 0  0
area:       3     402  -0.21860181   0.05735207    BHiron2  0 0  0
area:       3     403  -0.21915711   0.05519208    BHiron2  0 0  0
area:       3     404  -0.21969110   0.05302671    BHiron2  0 0  0
area:       3     405  -0.22020367   0.05085619    BHiron2  0 0  0
area:       3     406  -0.22069480   0.04868071    BHiron2  0 0  0
area:       3     407  -0.22116445   0.04650049    BHiron2  0 0  0
area:       3     408  -0.22161254   0.04431574    BHiron2  0 0  0
area:       3     409  -0.22203907   0.04212667    BHiron2  0 0  0
area:       3     410  -0.22244397   0.03993350    BHiron2  0 0  0
area:       3     411  -0.22282721   0.03773645    BHiron2  0 0  0
area:       3     412  -0.22318876   0.03553571    BHiron2  0 0  0
area:       3     413  -0.22352855   0.03333152    BHiron2  0 0  0
area:       3     414  -0.22384658   0.03112409    BHiron2  0 0  0
area:       3     415  -0.22414283   0.02891362    BHiron2  0 0  0
area:       3     416  -0.22441724   0.02670034    BHiron2  0 0  0
area:       3     417  -0.22466980   0.02448445    BHiron2  0 0  0
area:       3     418  -0.22490047   0.02226618    BHiron2  0 0  0
area:       3     419  -0.22510925   0.02004575    BHiron2  0 0  0
area:       3     420  -0.22529610   0.01782336    BHiron2  0 0  0
area:       3     421  -0.22546101   0.01559924    BHiron2  0 0  0
area:       3     422  -0.22560397   0.01337359    BHiron2  0 0  0
area:       3     423  -0.22572495   0.01114664    BHiron2  0 0  0
area:       3     424  -0.22582397   0.00891861    BHiron2  0 0  0
area:       3     425  -0.22590098   0.00668971    BHiron2  0 0  0
area:       3     426  -0.22595599   0.00446017    BHiron2  0 0  0
area:       3     427  -0.22598900   0.00223018    BHiron2  0 0  0
area:       4       0  -0.11500000   0.10390000     BH_air  0 kph1_2l  0
area:       4       1  -0.11364263   0.10405294     BH_air  0 0  0
area:       4       2  -0.11235331   0.10450409     BH_air  0 0  0
area:       4       3  -0.11119671   0.10523083     BH_air  0 0  0
area:       4       4  -0.11023083   0.10619671     BH_air  0 0  0
area:       4       5  -0.10950410   0.10735331     BH_air  0 0  0
area:       4       6  -0.10905294   0.10864262     BH_air  0 0  0
area:       4       7  -0.10890000   0.11000000     BH_air  0 0  0
area:       4       8  -0.10905294   0.11135738     BH_air  0 0  0
area:       4       9  -0.10950410   0.11264669     BH_air  0 0  0
area:       4      10  -0.11023083   0.11380329     BH_air  0 0  0
area:       4      11  -0.11119671   0.11476917     BH_air  0 0  0
area:       4      12  -0.11235331   0.11549591     BH_air  0 0  0
area:       4      13  -0.11364263   0.11594706     BH_air  0 0  0
area:       4      14  -0.11500000   0.11610000     BH_air  0 kph1_1l  0
area:       4      15  -0.11635738   0.11594706     BH_air  0 0  0
area:       4      16  -0.11764669   0.11549591     BH_air  0 0  0
area:       4      17  -0.11880329   0.11476917     BH_air  0 0  0
area:       4      18  -0.11976917   0.11380329     BH_air  0 0  0
area:       4      19  -0.12049591   0.11264669     BH_air  0 0  0
area:       4      20  -0.12094706   0.11135738     BH_air  0 0  0
area:       4      21  -0.12110000   0.11000000     BH_air  0 0  0
area:       4      22  -0.12094706   0.10864262     BH_air  0 0  0
area:       4      23  -0.12049591   0.10735331     BH_air  0 0  0
area:       4      24  -0.11976917   0.10619671     BH_air  0 0  0
area:       4      25  -0.11880329   0.10523083     BH_air  0 0  0
area:       4      26  -0.11764669   0.10450409     BH_air  0 0  0
area:       4      27  -0.11635738   0.10405294     BH_air  0 0  0
area:       5       0  -0.18700001   0.06950000     BH_air  0 kph2_2l  0
area:       5       1  -0.18466353   0.06976326     BH_air  0 0  0
area:       5       2  -0.18244423   0.07053982     BH_air  0 0  0
area:       5       3  -0.18045336   0.07179077     BH_air  0 0  0
area:       5       4  -0.17879078   0.07345336     BH_air  0 0  0
area:       5       5  -0.17753984   0.07544422     BH_air  0 0  0
area:       5       6  -0.17676327   0.07766353     BH_air  0 0  0
area:       5       7  -0.17650001   0.08000000     BH_air  0 0  0
area:       5       8  -0.17676327   0.08233647     BH_air  0 0  0
area:       5       9  -0.17753984   0.08455577     BH_air  0 0  0
area:       5      10  -0.17879078   0.08654664     BH_air  0 0  0
area:       5      11  -0.18045336   0.08820923     BH_air  0 0  0
area:       5      12  -0.18244423   0.08946017     BH_air  0 0  0
area:       5      13  -0.18466353   0.09023674     BH_air  0 0  0
area:       5      14  -0.18700001   0.09050000     BH_air  0 kph2_1l  0
area:       5      15  -0.18933648   0.09023674     BH_air  0 0  0
area:       5      16  -0.19155578   0.08946017     BH_air  0 0  0
area:       5      17  -0.19354665   0.08820923     BH_air  0 0  0
area:       5      18  -0.19520923   0.08654664     BH_air  0 0  0
area:       5      19  -0.19646017   0.08455577     BH_air  0 0  0
area:       5      20  -0.19723675   0.08233647     BH_air  0 0  0
area:       5      21  -0.19750001   0.08000000     BH_air  0 0  0
area:       5      22  -0.19723675   0.07766353     BH_air  0 0  0
area:       5      23  -0.19646017   0.07544422     BH_air  0 0  0
area:       5      24  -0.19520923   0.07345336     BH_air  0 0  0
area:       5      25  -0.19354665   0.07179077     BH_air  0 0  0
area:       5      26  -0.19155578   0.07053982     BH_air  0 0  0
area:       5      27  -0.18933648   0.06976326     BH_air  0 0  0
area:       6       0  -0.17690000   0.00000000    BHiron2  0 kpmscbl2  0
area:       6       1  -0.17418182   0.00000000    BHiron2  0 0  0
area:       6       2  -0.17146362   0.00000000    BHiron2  0 0  0
area:       6       3  -0.16884081   0.00000000    BHiron2  0 0  0
area:       6       4  -0.16621800   0.00000000    BHiron2  0 0  0
area:       6       5  -0.16369057   0.00000000    BHiron2  0 0  0
area:       6       6  -0.16116312   0.00000000    BHiron2  0 0  0
area:       6       7  -0.15873106   0.00000000    BHiron2  0 0  0
area:       6       8  -0.15629900   0.00000000    BHiron2  0 0  0
area:       6       9  -0.15396231   0.00000000    BHiron2  0 0  0
area:       6      10  -0.15162562   0.00000000    BHiron2  0 0  0
area:       6      11  -0.14938430   0.00000000    BHiron2  0 0  0
area:       6      12  -0.14714299   0.00000000    BHiron2  0 0  0
area:       6      13  -0.14499706   0.00000000    BHiron2  0 0  0
area:       6      14  -0.14285113   0.00000000    BHiron2  0 0  0
area:       6      15  -0.14080057   0.00000000    BHiron2  0 0  0
area:       6      16  -0.13875000   0.00000000    BHiron2  0 kpmscbl4  0
area:       6      17  -0.13871026   0.00182111    BHiron2  0 0  0
area:       6      18  -0.13859113   0.00363875    BHiron2  0 0  0
area:       6      19  -0.13839282   0.00544947    BHiron2  0 0  0
area:       6      20  -0.13811572   0.00724981    BHiron2  0 0  0
area:       6      21  -0.13776036   0.00903635    BHiron2  0 0  0
area:       6      22  -0.13732740   0.01080569    BHiron2  0 0  0
area:       6      23  -0.13681768   0.01255446    BHiron2  0 0  0
area:       6      24  -0.13623217   0.01427934    BHiron2  0 0  0
area:       6      25  -0.13557197   0.01597703    BHiron2  0 0  0
area:       6      26  -0.13483836   0.01764431    BHiron2  0 0  0
area:       6      27  -0.13403271   0.01927800    BHiron2  0 0  0
area:       6      28  -0.13315657   0.02087500    BHiron2  0 0  0
area:       6      29  -0.13221160   0.02243226    BHiron2  0 0  0
area:       6      30  -0.13119960   0.02394681    BHiron2  0 0  0
area:       6      31  -0.13012251   0.02541579    BHiron2  0 0  0
area:       6      32  -0.12898237   0.02683638    BHiron2  0 0  0
area:       6      33  -0.12778133   0.02820589    BHiron2  0 0  0
area:       6      34  -0.12652171   0.02952171    BHiron2  0 0  0
area:       6      35  -0.12520589   0.03078133    BHiron2  0 0  0
area:       6      36  -0.12383638   0.03198235    BHiron2  0 0  0
area:       6      37  -0.12241580   0.03312250    BHiron2  0 0  0
area:       6      38  -0.12094682   0.03419960    BHiron2  0 0  0
area:       6      39  -0.11943226   0.03521159    BHiron2  0 0  0
area:       6      40  -0.11787500   0.03615656    BHiron2  0 0  0
area:       6      41  -0.11627801   0.03703270    BHiron2  0 0  0
area:       6      42  -0.11464432   0.03783835    BHiron2  0 0  0
area:       6      43  -0.11297704   0.03857197    BHiron2  0 0  0
area:       6      44  -0.11127935   0.03923216    BHiron2  0 0  0
area:       6      45  -0.10955447   0.03981768    BHiron2  0 0  0
area:       6      46  -0.10780570   0.04032740    BHiron2  0 0  0
area:       6      47  -0.10603636   0.04076036    BHiron2  0 0  0
area:       6      48  -0.10424981   0.04111572    BHiron2  0 0  0
area:       6      49  -0.10244948   0.04139282    BHiron2  0 0  0
area:       6      50  -0.10063876   0.04159113    BHiron2  0 0  0
area:       6      51  -0.09882112   0.04171026    BHiron2  0 0  0
area:       6      52  -0.09700000   0.04175000    BHiron2  0 kpmscbl6  0
area:       6      53  -0.09700000   0.04380056    BHiron2  0 0  0
area:       6      54  -0.09700000   0.04585112    BHiron2  0 0  0
area:       6      55  -0.09700000   0.04799706    BHiron2  0 0  0
area:       6      56  -0.09700000   0.05014300    BHiron2  0 0  0
area:       6      57  -0.09700000   0.05238431    BHiron2  0 0  0
area:       6      58  -0.09700000   0.05462562    BHiron2  0 0  0
area:       6      59  -0.09700000   0.05696231    BHiron2  0 0  0
area:       6      60  -0.09700000   0.05929900    BHiron2  0 0  0
area:       6      61  -0.09700000   0.06173106    BHiron2  0 0  0
area:       6      62  -0.09700000   0.06416313    BHiron2  0 0  0
area:       6      63  -0.09700000   0.06669056    BHiron2  0 0  0
area:       6      64  -0.09700000   0.06921799    BHiron2  0 0  0
area:       6      65  -0.09700000   0.07184081    BHiron2  0 0  0
area:       6      66  -0.09700000   0.07446362    BHiron2  0 0  0
area:       6      67  -0.09700000   0.07718181    BHiron2  0 0  0
area:       6      68  -0.09700000   0.07990000    BHiron2  0 kpmscbl5  0
area:       6      69  -0.10048520   0.07982395    BHiron2  0 0  0
area:       6      70  -0.10396375   0.07959595    BHiron2  0 0  0
area:       6      71  -0.10742905   0.07921644    BHiron2  0 0  0
area:       6      72  -0.11087450   0.07868613    BHiron2  0 0  0
area:       6      73  -0.11429353   0.07800605    BHiron2  0 0  0
area:       6      74  -0.11767965   0.07717747    BHiron2  0 0  0
area:       6      75  -0.12102640   0.07620198    BHiron2  0 0  0
area:       6      76  -0.12432741   0.07508144    BHiron2  0 0  0
area:       6      77  -0.12757641   0.07381797    BHiron2  0 0  0
area:       6      78  -0.13076721   0.07241399    BHiron2  0 0  0
area:       6      79  -0.13389371   0.07087216    BHiron2  0 0  0
area:       6      80  -0.13695000   0.06919543    BHiron2  0 0  0
area:       6      81  -0.13993025   0.06738697    BHiron2  0 0  0
area:       6      82  -0.14282876   0.06545024    BHiron2  0 0  0
area:       6      83  -0.14564005   0.06338893    BHiron2  0 0  0
area:       6      84  -0.14835873   0.06120695    BHiron2  0 0  0
area:       6      85  -0.15097967   0.05890846    BHiron2  0 0  0
area:       6      86  -0.15349783   0.05649783    BHiron2  0 0  0
area:       6      87  -0.15590847   0.05397965    BHiron2  0 0  0
area:       6      88  -0.15820695   0.05135872    BHiron2  0 0  0
area:       6      89  -0.16038893   0.04864003    BHiron2  0 0  0
area:       6      90  -0.16245025   0.04582875    BHiron2  0 0  0
area:       6      91  -0.16438697   0.04293023    BHiron2  0 0  0
area:       6      92  -0.16619544   0.03994999    BHiron2  0 0  0
area:       6      93  -0.16787218   0.03689371    BHiron2  0 0  0
area:       6      94  -0.16941400   0.03376719    BHiron2  0 0  0
area:       6      95  -0.17081797   0.03057640    BHiron2  0 0  0
area:       6      96  -0.17208144   0.02732740    BHiron2  0 0  0
area:       6      97  -0.17320199   0.02402639    BHiron2  0 0  0
area:       6      98  -0.17417747   0.02067964    BHiron2  0 0  0
area:       6      99  -0.17500605   0.01729352    BHiron2  0 0  0
area:       6     100  -0.17568614   0.01387448    BHiron2  0 0  0
area:       6     101  -0.17621644   0.01042904    BHiron2  0 0  0
area:       6     102  -0.17659596   0.00696374    BHiron2  0 0  0
area:       6     103  -0.17682396   0.00348519    BHiron2  0 0  0
area:       7       0  -0.05525000   0.00000000    BHiron2  0 kpmscbl3  0
area:       7       1  -0.05319944   0.00000000    BHiron2  0 0  0
area:       7       2  -0.05114888   0.00000000    BHiron2  0 0  0
area:       7       3  -0.04900294   0.00000000    BHiron2  0 0  0
area:       7       4  -0.04685700   0.00000000    BHiron2  0 0  0
area:       7       5  -0.04461569   0.00000000    BHiron2  0 0  0
area:       7       6  -0.04237438   0.00000000    BHiron2  0 0  0
area:       7       7  -0.04003769   0.00000000    BHiron2  0 0  0
area:       7       8  -0.03770100   0.00000000    BHiron2  0 0  0
area:       7       9  -0.03526894   0.00000000    BHiron2  0 0  0
area:       7      10  -0.03283688   0.00000000    BHiron2  0 0  0
area:       7      11  -0.03030944   0.00000000    BHiron2  0 0  0
area:       7      12  -0.02778200   0.00000000    BHiron2  0 0  0
area:       7      13  -0.02515919   0.00000000    BHiron2  0 0  0
area:       7      14  -0.02253638   0.00000000    BHiron2  0 0  0
area:       7      15  -0.01981819   0.00000000    BHiron2  0 0  0
area:       7      16  -0.01710000   0.00000000    BHiron2  0 kpmscbl1  0
area:       7      17  -0.01717605   0.00348519    BHiron2  0 0  0
area:       7      18  -0.01740404   0.00696374    BHiron2  0 0  0
area:       7      19  -0.01778355   0.01042904    BHiron2  0 0  0
area:       7      20  -0.01831386   0.01387449    BHiron2  0 0  0
area:       7      21  -0.01899395   0.01729353    BHiron2  0 0  0
area:       7      22  -0.01982252   0.02067964    BHiron2  0 0  0
area:       7      23  -0.02079801   0.02402639    BHiron2  0 0  0
area:       7      24  -0.02191856   0.02732741    BHiron2  0 0  0
area:       7      25  -0.02318202   0.03057641    BHiron2  0 0  0
area:       7      26  -0.02458601   0.03376720    BHiron2  0 0  0
area:       7      27  -0.02612783   0.03689371    BHiron2  0 0  0
area:       7      28  -0.02780457   0.03995000    BHiron2  0 0  0
area:       7      29  -0.02961302   0.04293024    BHiron2  0 0  0
area:       7      30  -0.03154975   0.04582876    BHiron2  0 0  0
area:       7      31  -0.03361107   0.04864004    BHiron2  0 0  0
area:       7      32  -0.03579305   0.05135873    BHiron2  0 0  0
area:       7      33  -0.03809154   0.05397966    BHiron2  0 0  0
area:       7      34  -0.04050216   0.05649783    BHiron2  0 0  0
area:       7      35  -0.04302034   0.05890846    BHiron2  0 0  0
area:       7      36  -0.04564127   0.06120695    BHiron2  0 0  0
area:       7      37  -0.04835996   0.06338893    BHiron2  0 0  0
area:       7      38  -0.05117124   0.06545024    BHiron2  0 0  0
area:       7      39  -0.05406976   0.06738698    BHiron2  0 0  0
area:       7      40  -0.05705000   0.06919543    BHiron2  0 0  0
area:       7      41  -0.06010628   0.07087217    BHiron2  0 0  0
area:       7      42  -0.06323279   0.07241399    BHiron2  0 0  0
area:       7      43  -0.06642359   0.07381798    BHiron2  0 0  0
area:       7      44  -0.06967259   0.07508144    BHiron2  0 0  0
area:       7      45  -0.07297360   0.07620198    BHiron2  0 0  0
area:       7      46  -0.07632035   0.07717747    BHiron2  0 0  0
area:       7      47  -0.07970648   0.07800605    BHiron2  0 0  0
area:       7      48  -0.08312551   0.07868614    BHiron2  0 0  0
area:       7      49  -0.08657096   0.07921644    BHiron2  0 0  0
area:       7      50  -0.09003625   0.07959595    BHiron2  0 0  0
area:       7      51  -0.09351481   0.07982395    BHiron2  0 0  0
area:       7      52  -0.09700000   0.07990000    BHiron2  0 kpmscbl5  0
area:       7      53  -0.09700000   0.07718181    BHiron2  0 0  0
area:       7      54  -0.09700000   0.07446362    BHiron2  0 0  0
area:       7      55  -0.09700000   0.07184081    BHiron2  0 0  0
area:       7      56  -0.09700000   0.06921799    BHiron2  0 0  0
area:       7      57  -0.09700000   0.06669056    BHiron2  0 0  0
area:       7      58  -0.09700000   0.06416313    BHiron2  0 0  0
area:       7      59  -0.09700000   0.06173106    BHiron2  0 0  0
area:       7      60  -0.09700000   0.05929900    BHiron2  0 0  0
area:       7      61  -0.09700000   0.05696231    BHiron2  0 0  0
area:       7      62  -0.09700000   0.05462562    BHiron2  0 0  0
area:       7      63  -0.09700000   0.05238431    BHiron2  0 0  0
area:       7      64  -0.09700000   0.05014300    BHiron2  0 0  0
area:       7      65  -0.09700000   0.04799706    BHiron2  0 0  0
area:       7      66  -0.09700000   0.04585112    BHiron2  0 0  0
area:       7      67  -0.09700000   0.04380056    BHiron2  0 0  0
area:       7      68  -0.09700000   0.04175000    BHiron2  0 kpmscbl6  0
area:       7      69  -0.09517889   0.04171026    BHiron2  0 0  0
area:       7      70  -0.09336125   0.04159113    BHiron2  0 0  0
area:       7      71  -0.09155054   0.04139282    BHiron2  0 0  0
area:       7      72  -0.08975019   0.04111572    BHiron2  0 0  0
area:       7      73  -0.08796365   0.04076036    BHiron2  0 0  0
area:       7      74  -0.08619431   0.04032740    BHiron2  0 0  0
area:       7      75  -0.08444554   0.03981768    BHiron2  0 0  0
area:       7      76  -0.08272067   0.03923216    BHiron2  0 0  0
area:       7      77  -0.08102297   0.03857197    BHiron2  0 0  0
area:       7      78  -0.07935569   0.03783835    BHiron2  0 0  0
area:       7      79  -0.07772200   0.03703270    BHiron2  0 0  0
area:       7      80  -0.07612500   0.03615656    BHiron2  0 0  0
area:       7      81  -0.07456774   0.03521159    BHiron2  0 0  0
area:       7      82  -0.07305319   0.03419960    BHiron2  0 0  0
area:       7      83  -0.07158422   0.03312250    BHiron2  0 0  0
area:       7      84  -0.07016362   0.03198235    BHiron2  0 0  0
area:       7      85  -0.06879412   0.03078133    BHiron2  0 0  0
area:       7      86  -0.06747830   0.02952171    BHiron2  0 0  0
area:       7      87  -0.06621867   0.02820589    BHiron2  0 0  0
area:       7      88  -0.06501765   0.02683638    BHiron2  0 0  0
area:       7      89  -0.06387750   0.02541579    BHiron2  0 0  0
area:       7      90  -0.06280041   0.02394682    BHiron2  0 0  0
area:       7      91  -0.06178841   0.02243226    BHiron2  0 0  0
area:       7      92  -0.06084344   0.02087500    BHiron2  0 0  0
area:       7      93  -0.05996730   0.01927800    BHiron2  0 0  0
area:       7      94  -0.05916166   0.01764431    BHiron2  0 0  0
area:       7      95  -0.05842803   0.01597703    BHiron2  0 0  0
area:       7      96  -0.05776784   0.01427934    BHiron2  0 0  0
area:       7      97  -0.05718232   0.01255447    BHiron2  0 0  0
area:       7      98  -0.05667260   0.01080570    BHiron2  0 0  0
area:       7      99  -0.05623965   0.00903635    BHiron2  0 0  0
area:       7     100  -0.05588428   0.00724981    BHiron2  0 0  0
area:       7     101  -0.05560718   0.00544947    BHiron2  0 0  0
area:       7     102  -0.05540888   0.00363875    BHiron2  0 0  0
area:       7     103  -0.05528974   0.00182111    BHiron2  0 0  0
area:       8       0   0.01710000   0.00000000    BHiron2  0 kpmscbr2  0
area:       8       1   0.01981819   0.00000000    BHiron2  0 0  0
area:       8       2   0.02253638   0.00000000    BHiron2  0 0  0
area:       8       3   0.02515919   0.00000000    BHiron2  0 0  0
area:       8       4   0.02778200   0.00000000    BHiron2  0 0  0
area:       8       5   0.03030944   0.00000000    BHiron2  0 0  0
area:       8       6   0.03283688   0.00000000    BHiron2  0 0  0
area:       8       7   0.03526894   0.00000000    BHiron2  0 0  0
area:       8       8   0.03770100   0.00000000    BHiron2  0 0  0
area:       8       9   0.04003769   0.00000000    BHiron2  0 0  0
area:       8      10   0.04237438   0.00000000    BHiron2  0 0  0
area:       8      11   0.04461569   0.00000000    BHiron2  0 0  0
area:       8      12   0.04685700   0.00000000    BHiron2  0 0  0
area:       8      13   0.04900294   0.00000000    BHiron2  0 0  0
area:       8      14   0.05114887   0.00000000    BHiron2  0 0  0
area:       8      15   0.05319944   0.00000000    BHiron2  0 0  0
area:       8      16   0.05525000   0.00000000    BHiron2  0 kpmscbr4  0
area:       8      17   0.05528974   0.00182111    BHiron2  0 0  0
area:       8      18   0.05540888   0.00363875    BHiron2  0 0  0
area:       8      19   0.05560718   0.00544947    BHiron2  0 0  0
area:       8      20   0.05588428   0.00724981    BHiron2  0 0  0
area:       8      21   0.05623965   0.00903635    BHiron2  0 0  0
area:       8      22   0.05667260   0.01080569    BHiron2  0 0  0
area:       8      23   0.05718232   0.01255446    BHiron2  0 0  0
area:       8      24   0.05776783   0.01427934    BHiron2  0 0  0
area:       8      25   0.05842803   0.01597703    BHiron2  0 0  0
area:       8      26   0.05916165   0.01764431    BHiron2  0 0  0
area:       8      27   0.05996730   0.01927800    BHiron2  0 0  0
area:       8      28   0.06084344   0.02087500    BHiron2  0 0  0
area:       8      29   0.06178841   0.02243226    BHiron2  0 0  0
area:       8      30   0.06280041   0.02394681    BHiron2  0 0  0
area:       8      31   0.06387750   0.02541579    BHiron2  0 0  0
area:       8      32   0.06501765   0.02683638    BHiron2  0 0  0
area:       8      33   0.06621867   0.02820589    BHiron2  0 0  0
area:       8      34   0.06747829   0.02952171    BHiron2  0 0  0
area:       8      35   0.06879411   0.03078133    BHiron2  0 0  0
area:       8      36   0.07016362   0.03198235    BHiron2  0 0  0
area:       8      37   0.07158421   0.03312250    BHiron2  0 0  0
area:       8      38   0.07305318   0.03419960    BHiron2  0 0  0
area:       8      39   0.07456774   0.03521159    BHiron2  0 0  0
area:       8      40   0.07612500   0.03615656    BHiron2  0 0  0
area:       8      41   0.07772200   0.03703270    BHiron2  0 0  0
area:       8      42   0.07935569   0.03783835    BHiron2  0 0  0
area:       8      43   0.08102297   0.03857197    BHiron2  0 0  0
area:       8      44   0.08272066   0.03923216    BHiron2  0 0  0
area:       8      45   0.08444554   0.03981768    BHiron2  0 0  0
area:       8      46   0.08619431   0.04032740    BHiron2  0 0  0
area:       8      47   0.08796365   0.04076036    BHiron2  0 0  0
area:       8      48   0.08975019   0.04111572    BHiron2  0 0  0
area:       8      49   0.09155053   0.04139282    BHiron2  0 0  0
area:       8      50   0.09336124   0.04159113    BHiron2  0 0  0
area:       8      51   0.09517889   0.04171026    BHiron2  0 0  0
area:       8      52   0.09700000   0.04175000    BHiron2  0 kpmscbr6  0
area:       8      53   0.09700000   0.04380056    BHiron2  0 0  0
area:       8      54   0.09700000   0.04585112    BHiron2  0 0  0
area:       8      55   0.09700000   0.04799706    BHiron2  0 0  0
area:       8      56   0.09700000   0.05014300    BHiron2  0 0  0
area:       8      57   0.09700000   0.05238431    BHiron2  0 0  0
area:       8      58   0.09700000   0.05462562    BHiron2  0 0  0
area:       8      59   0.09700000   0.05696231    BHiron2  0 0  0
area:       8      60   0.09700000   0.05929900    BHiron2  0 0  0
area:       8      61   0.09700000   0.06173106    BHiron2  0 0  0
area:       8      62   0.09700000   0.06416313    BHiron2  0 0  0
area:       8      63   0.09700000   0.06669056    BHiron2  0 0  0
area:       8      64   0.09700000   0.06921799    BHiron2  0 0  0
area:       8      65   0.09700000   0.07184081    BHiron2  0 0  0
area:       8      66   0.09700000   0.07446362    BHiron2  0 0  0
area:       8      67   0.09700000   0.07718181    BHiron2  0 0  0
area:       8      68   0.09700000   0.07990000    BHiron2  0 kpmscbr5  0
area:       8      69   0.09351481   0.07982395    BHiron2  0 0  0
area:       8      70   0.09003626   0.07959595    BHiron2  0 0  0
area:       8      71   0.08657096   0.07921644    BHiron2  0 0  0
area:       8      72   0.08312551   0.07868614    BHiron2  0 0  0
area:       8      73   0.07970648   0.07800605    BHiron2  0 0  0
area:       8      74   0.07632036   0.07717747    BHiron2  0 0  0
area:       8      75   0.07297361   0.07620198    BHiron2  0 0  0
area:       8      76   0.06967259   0.07508144    BHiron2  0 0  0
area:       8      77   0.06642359   0.07381798    BHiron2  0 0  0
area:       8      78   0.06323280   0.07241399    BHiron2  0 0  0
area:       8      79   0.06010628   0.07087217    BHiron2  0 0  0
area:       8      80   0.05705000   0.06919543    BHiron2  0 0  0
area:       8      81   0.05406976   0.06738698    BHiron2  0 0  0
area:       8      82   0.05117124   0.06545024    BHiron2  0 0  0
area:       8      83   0.04835996   0.06338893    BHiron2  0 0  0
area:       8      84   0.04564127   0.06120695    BHiron2  0 0  0
area:       8      85   0.04302034   0.05890846    BHiron2  0 0  0
area:       8      86   0.04050216   0.05649783    BHiron2  0 0  0
area:       8      87   0.03809154   0.05397965    BHiron2  0 0  0
area:       8      88   0.03579304   0.05135873    BHiron2  0 0  0
area:       8      89   0.03361106   0.04864004    BHiron2  0 0  0
area:       8      90   0.03154975   0.04582876    BHiron2  0 0  0
area:       8      91   0.02961302   0.04293023    BHiron2  0 0  0
area:       8      92   0.02780457   0.03994999    BHiron2  0 0  0
area:       8      93   0.02612783   0.03689371    BHiron2  0 0  0
area:       8      94   0.02458601   0.03376720    BHiron2  0 0  0
area:       8      95   0.02318202   0.03057640    BHiron2  0 0  0
area:       8      96   0.02191856   0.02732740    BHiron2  0 0  0
area:       8      97   0.02079801   0.02402639    BHiron2  0 0  0
area:       8      98   0.01982252   0.02067964    BHiron2  0 0  0
area:       8      99   0.01899395   0.01729352    BHiron2  0 0  0
area:       8     100   0.01831386   0.01387448    BHiron2  0 0  0
area:       8     101   0.01778355   0.01042904    BHiron2  0 0  0
area:       8     102   0.01740404   0.00696374    BHiron2  0 0  0
area:       8     103   0.01717605   0.00348519    BHiron2  0 0  0
area:       9       0   0.13875000   0.00000000    BHiron2  0 kpmscbr3  0
area:       9       1   0.14080057   0.00000000    BHiron2  0 0  0
area:       9       2   0.14285113   0.00000000    BHiron2  0 0  0
area:       9       3   0.14499706   0.00000000    BHiron2  0 0  0
area:       9       4   0.14714299   0.00000000    BHiron2  0 0  0
area:       9       5   0.14938430   0.00000000    BHiron2  0 0  0
area:       9       6   0.15162562   0.00000000    BHiron2  0 0  0
area:       9       7   0.15396231   0.00000000    BHiron2  0 0  0
area:       9       8   0.15629900   0.00000000    BHiron2  0 0  0
area:       9       9   0.15873106   0.00000000    BHiron2  0 0  0
area:       9      10   0.16116312   0.00000000    BHiron2  0 0  0
area:       9      11   0.16369057   0.00000000    BHiron2  0 0  0
area:       9      12   0.16621800   0.00000000    BHiron2  0 0  0
area:       9      13   0.16884081   0.00000000    BHiron2  0 0  0
area:       9      14   0.17146362   0.00000000    BHiron2  0 0  0
area:       9      15   0.17418182   0.00000000    BHiron2  0 0  0
area:       9      16   0.17690000   0.00000000    BHiron2  0 kpmscbr1  0
area:       9      17   0.17682396   0.00348519    BHiron2  0 0  0
area:       9      18   0.17659596   0.00696374    BHiron2  0 0  0
area:       9      19   0.17621644   0.01042904    BHiron2  0 0  0
area:       9      20   0.17568614   0.01387449    BHiron2  0 0  0
area:       9      21   0.17500605   0.01729353    BHiron2  0 0  0
area:       9      22   0.17417747   0.02067964    BHiron2  0 0  0
area:       9      23   0.17320198   0.02402639    BHiron2  0 0  0
area:       9      24   0.17208144   0.02732741    BHiron2  0 0  0
area:       9      25   0.17081797   0.03057641    BHiron2  0 0  0
area:       9      26   0.16941400   0.03376720    BHiron2  0 0  0
area:       9      27   0.16787216   0.03689371    BHiron2  0 0  0
area:       9      28   0.16619542   0.03995000    BHiron2  0 0  0
area:       9      29   0.16438697   0.04293024    BHiron2  0 0  0
area:       9      30   0.16245025   0.04582876    BHiron2  0 0  0
area:       9      31   0.16038893   0.04864004    BHiron2  0 0  0
area:       9      32   0.15820695   0.05135873    BHiron2  0 0  0
area:       9      33   0.15590847   0.05397966    BHiron2  0 0  0
area:       9      34   0.15349783   0.05649783    BHiron2  0 0  0
area:       9      35   0.15097965   0.05890846    BHiron2  0 0  0
area:       9      36   0.14835873   0.06120695    BHiron2  0 0  0
area:       9      37   0.14564003   0.06338893    BHiron2  0 0  0
area:       9      38   0.14282876   0.06545024    BHiron2  0 0  0
area:       9      39   0.13993023   0.06738698    BHiron2  0 0  0
area:       9      40   0.13695000   0.06919543    BHiron2  0 0  0
area:       9      41   0.13389371   0.07087217    BHiron2  0 0  0
area:       9      42   0.13076720   0.07241399    BHiron2  0 0  0
area:       9      43   0.12757641   0.07381798    BHiron2  0 0  0
area:       9      44   0.12432741   0.07508144    BHiron2  0 0  0
area:       9      45   0.12102640   0.07620198    BHiron2  0 0  0
area:       9      46   0.11767965   0.07717747    BHiron2  0 0  0
area:       9      47   0.11429352   0.07800605    BHiron2  0 0  0
area:       9      48   0.11087449   0.07868614    BHiron2  0 0  0
area:       9      49   0.10742904   0.07921644    BHiron2  0 0  0
area:       9      50   0.10396375   0.07959595    BHiron2  0 0  0
area:       9      51   0.10048519   0.07982395    BHiron2  0 0  0
area:       9      52   0.09700000   0.07990000    BHiron2  0 kpmscbr5  0
area:       9      53   0.09700000   0.07718181    BHiron2  0 0  0
area:       9      54   0.09700000   0.07446362    BHiron2  0 0  0
area:       9      55   0.09700000   0.07184081    BHiron2  0 0  0
area:       9      56   0.09700000   0.06921799    BHiron2  0 0  0
area:       9      57   0.09700000   0.06669056    BHiron2  0 0  0
area:       9      58   0.09700000   0.06416313    BHiron2  0 0  0
area:       9      59   0.09700000   0.06173106    BHiron2  0 0  0
area:       9      60   0.09700000   0.05929900    BHiron2  0 0  0
area:       9      61   0.09700000   0.05696231    BHiron2  0 0  0
area:       9      62   0.09700000   0.05462562    BHiron2  0 0  0
area:       9      63   0.09700000   0.05238431    BHiron2  0 0  0
area:       9      64   0.09700000   0.05014300    BHiron2  0 0  0
area:       9      65   0.09700000   0.04799706    BHiron2  0 0  0
area:       9      66   0.09700000   0.04585112    BHiron2  0 0  0
area:       9      67   0.09700000   0.04380056    BHiron2  0 0  0
area:       9      68   0.09700000   0.04175000    BHiron2  0 kpmscbr6  0
area:       9      69   0.09882111   0.04171026    BHiron2  0 0  0
area:       9      70   0.10063875   0.04159113    BHiron2  0 0  0
area:       9      71   0.10244947   0.04139282    BHiron2  0 0  0
area:       9      72   0.10424981   0.04111572    BHiron2  0 0  0
area:       9      73   0.10603636   0.04076036    BHiron2  0 0  0
area:       9      74   0.10780570   0.04032740    BHiron2  0 0  0
area:       9      75   0.10955447   0.03981768    BHiron2  0 0  0
area:       9      76   0.11127934   0.03923216    BHiron2  0 0  0
area:       9      77   0.11297704   0.03857197    BHiron2  0 0  0
area:       9      78   0.11464431   0.03783835    BHiron2  0 0  0
area:       9      79   0.11627801   0.03703270    BHiron2  0 0  0
area:       9      80   0.11787500   0.03615656    BHiron2  0 0  0
area:       9      81   0.11943226   0.03521159    BHiron2  0 0  0
area:       9      82   0.12094682   0.03419960    BHiron2  0 0  0
area:       9      83   0.12241579   0.03312250    BHiron2  0 0  0
area:       9      84   0.12383638   0.03198235    BHiron2  0 0  0
area:       9      85   0.12520589   0.03078133    BHiron2  0 0  0
area:       9      86   0.12652171   0.02952171    BHiron2  0 0  0
area:       9      87   0.12778133   0.02820589    BHiron2  0 0  0
area:       9      88   0.12898237   0.02683638    BHiron2  0 0  0
area:       9      89   0.13012250   0.02541579    BHiron2  0 0  0
area:       9      90   0.13119960   0.02394682    BHiron2  0 0  0
area:       9      91   0.13221160   0.02243226    BHiron2  0 0  0
area:       9      92   0.13315657   0.02087500    BHiron2  0 0  0
area:       9      93   0.13403271   0.01927800    BHiron2  0 0  0
area:       9      94   0.13483836   0.01764431    BHiron2  0 0  0
area:       9      95   0.13557197   0.01597703    BHiron2  0 0  0
area:       9      96   0.13623217   0.01427934    BHiron2  0 0  0
area:       9      97   0.13681768   0.01255447    BHiron2  0 0  0
area:       9      98   0.13732740   0.01080570    BHiron2  0 0  0
area:       9      99   0.13776036   0.00903635    BHiron2  0 0  0
area:       9     100   0.13811572   0.00724981    BHiron2  0 0  0
area:       9     101   0.13839282   0.00544947    BHiron2  0 0  0
area:       9     102   0.13859113   0.00363875    BHiron2  0 0  0
area:       9     103   0.13871026   0.00182111    BHiron2  0 0  0
