BHiron1     
44 0.98
0 0
0.00712	7.941831506
0.0167	15.88366301
0.02925	23.82549452
0.04522	31.76732602
0.08891	47.53162283
0.15434	63.36753936
0.24066	79.21937139
0.76507	158.8127569
1.29683	317.649387
1.45217	475.1809466
1.52043	633.6276471
1.55841	792.1061786
1.60954	1192.094374
1.63892	1589.758907
1.66055	1987.081257
1.67826	2386.281635
1.69427	2782.290957
1.70828	3179.493941
1.72175	3577.039107
1.73414	3971.377302
1.75706	4765.210312
1.77805	5559.099026
1.79764	6354.069994
1.81567	7149.486595
1.8333	7944.083548
1.85	10590
1.9	13160
2	21170
2.1	33760
2.2	66000
2.28	120960
2.3443	169600
2.3996	212170
2.4905	283130
2.5627	339890
2.6706	425040
2.8498	566950
3.2074	850760
4.2782	1702300
4.8134	2128000
5.7052	2837700
6.4186	3405100
7.4887	4256700          MQXA iron data_yoke-main-body
BHiron2    
5 0.8
0.000 0.000
0.00712	7.941831506
0.0167	15.88366301
0.02925	23.82549452
7.4887	4256700          MQXA iron data_yoke-main-body
BHiron3   
4 0.8
0.00712	7.941831506
0.0167	15.88366301
0.02925	23.82549452
7.4887	4256700          MQXA iron data_yoke-main-body
BHmqxa1
44 1.0
0.000000 0.000000
0.095020 79.577469
0.297930 159.154938
0.488595 238.732422
0.671925 318.309875
0.856185 397.887360
1.014155 477.464844
1.141650 557.042297
1.246650 636.619751
1.330250 716.197266
1.390100 795.774719
1.537200 1193.662109
1.582050 1591.549438
1.613450 1989.436768
1.636550 2387.324219
1.671950 3183.098877
1.701000 3978.873535
1.725500 4774.648437
1.747600 5570.422852
1.767900 6366.197754
1.787200 7161.972656
1.804250 7957.747070
1.850000 10590.000000
1.900000 13160.000000
2.000000 21170.000000
2.050000 26750.000000
2.100000 33760.000000
2.150000 43800.000000
2.200000 66000.000000
2.250000 99740.000000
2.280000 120960.000000
2.300000 141210.000000
2.344300 169600.000000
2.399600 212170.000000
2.490500 283130.000000
2.562700 339890.000000
2.670600 425040.000000
2.849800 566950.000000
3.207400 850760.000000
4.278200 1702300.000000
4.813400 2128000.000000
5.705200 2837700.000000
6.418600 3405100.000000
7.488700 4256700.000000       LHC-MQXA
BHmqxa100
44 1.0
0.000000 0.000000
0.095020 79.577469
0.297930 159.154938
0.488595 238.732422
0.671925 318.309875
0.856185 397.887360
1.014155 477.464844
1.141650 557.042297
1.246650 636.619751
1.330250 716.197266
1.390100 795.774719
1.537200 1193.662109
1.582050 1591.549438
1.613450 1989.436768
1.636550 2387.324219
1.671950 3183.098877
1.701000 3978.873535
1.725500 4774.648437
1.747600 5570.422852
1.767900 6366.197754
1.787200 7161.972656
1.804250 7957.747070
1.850000 10590.000000
1.900000 13160.000000
2.000000 21170.000000
2.050000 26750.000000
2.100000 33760.000000
2.150000 43800.000000
2.200000 66000.000000
2.250000 99740.000000
2.280000 120960.000000
2.300000 141210.000000
2.344300 169600.000000
2.399600 212170.000000
2.490500 283130.000000
2.562700 339890.000000
2.670600 425040.000000
2.849800 566950.000000
3.207400 850760.000000
4.278200 1702300.000000
4.813400 2128000.000000
5.705200 2837700.000000
6.418600 3405100.000000
7.488700 4256700.000000
BHmqxa98
44 0.98
0.000000 0.000000
0.095020 79.577469
0.297930 159.154938
0.488595 238.732422
0.671925 318.309875
0.856185 397.887360
1.014155 477.464844
1.141650 557.042297
1.246650 636.619751
1.330250 716.197266
1.390100 795.774719
1.537200 1193.662109
1.582050 1591.549438
1.613450 1989.436768
1.636550 2387.324219
1.671950 3183.098877
1.701000 3978.873535
1.725500 4774.648437
1.747600 5570.422852
1.767900 6366.197754
1.787200 7161.972656
1.804250 7957.747070
1.850000 10590.000000
1.900000 13160.000000
2.000000 21170.000000
2.050000 26750.000000
2.100000 33760.000000
2.150000 43800.000000
2.200000 66000.000000
2.250000 99740.000000
2.280000 120960.000000
2.300000 141210.000000
2.344300 169600.000000
2.399600 212170.000000
2.490500 283130.000000
2.562700 339890.000000
2.670600 425040.000000
2.849800 566950.000000
3.207400 850760.000000
4.278200 1702300.000000
4.813400 2128000.000000
5.705200 2837700.000000
6.418600 3405100.000000
7.488700 4256700.000000
BHmqxa2
32 0.983
0.000000 0.000000
0.095020 79.577469
0.297930 159.154938
0.488595 238.732422
0.671925 318.309875
0.856185 397.887360
1.014155 477.464844
1.141650 557.042297
1.246650 636.619751
1.330250 716.197266
1.390100 795.774719
1.537200 1193.662109
1.636550 2387.324219
1.747600 5570.422852
1.850000 10590.000000
1.900000 13160.000000
2.000000 21170.000000
2.100000 33760.000000
2.200000 66000.000000
2.280000 120960.000000
2.344300 169600.000000
2.399600 212170.000000
2.490500 283130.000000
2.562700 339890.000000
2.670600 425040.000000
2.849800 566950.000000
3.207400 850760.000000
4.278200 1702300.000000
4.813400 2128000.000000
5.705200 2837700.000000
6.418600 3405100.000000
7.488700 4256700.000000       LHC-MQXA
BHmqxa3
44 0.01
0.000000 0.000000
0.095020 79.577469
0.297930 159.154938
0.488595 238.732422
0.671925 318.309875
0.856185 397.887360
1.014155 477.464844
1.141650 557.042297
1.246650 636.619751
1.330250 716.197266
1.390100 795.774719
1.537200 1193.662109
1.582050 1591.549438
1.613450 1989.436768
1.636550 2387.324219
1.671950 3183.098877
1.701000 3978.873535
1.725500 4774.648437
1.747600 5570.422852
1.767900 6366.197754
1.787200 7161.972656
1.804250 7957.747070
1.850000 10590.000000
1.900000 13160.000000
2.000000 21170.000000
2.050000 26750.000000
2.100000 33760.000000
2.150000 43800.000000
2.200000 66000.000000
2.250000 99740.000000
2.280000 120960.000000
2.300000 141210.000000
2.344300 169600.000000
2.399600 212170.000000
2.490500 283130.000000
2.562700 339890.000000
2.670600 425040.000000
2.849800 566950.000000
3.207400 850760.000000
4.278200 1702300.000000
4.813400 2128000.000000
5.705200 2837700.000000
6.418600 3405100.000000
7.488700 4256700.000000       LHC-MQXA
BHiron9
3 1.0
0.000    0.000 
0.9 7.0E+05
1.8 1.4E+06       permanent magnet material
BH_SIGMA
33 1.0
0.000000	0.000000
0.800000	159.200000
1.200000	294.400000
1.400000	501.300000
1.500000	795.800000
1.550000	1154.000000
1.600000	1795.000000
1.650000	2862.000000
1.700000	4383.000000
1.750000	6044.000000
1.800000	8122.000000
1.850000	10590.000000
1.900000	13160.000000
2.000000	21170.000000
2.050000	26750.000000
2.100000	33760.000000
2.150000	43800.000000
2.200000	66000.000000
2.249000	99740.000000
2.275000	120960.000000
2.300000	141210.000000
2.344300	169600.000000
2.399600	212170.000000
2.490500	283130.000000
2.562700	339890.000000
2.670600	425040.000000
2.849800	566950.000000
3.207400	850760.000000
4.278200	1702300.000000
4.813400	2128000.000000
5.705200	2837700.000000
6.418600	3405100.000000
7.488700	4256700.000000
BH_air
30 1.0
0.000000	0.000000
0.800000	159.200000
1.200000	294.400000
1.600000	1795.000000
1.650000	2862.000000
1.700000	4383.000000
1.750000	6044.000000
1.800000	8122.000000
1.850000	10590.000000
1.900000	13160.000000
2.000000	21170.000000
2.050000	26750.000000
2.100000	33760.000000
2.150000	43800.000000
2.200000	66000.000000
2.249000	99740.000000
2.275000	120960.000000
2.300000	141210.000000
2.344300	169600.000000
2.399600	212170.000000
2.490500	283130.000000
2.562700	339890.000000
2.670600	425040.000000
2.849800	566950.000000
3.207400	850760.000000
4.278200	1702300.000000
4.813400	2128000.000000
5.705200	2837700.000000
6.418600	3405100.000000
7.488700	4256700.000000