

* PSPICE Netlist Simulation File
* Generated on 2021/08/31 15:54:38 at CERN
* Authors: STEAM
.LIB C:\cernbox\steam-pspice-library\diodes\Items\600A_Diodes.lib
.LIB C:\cernbox\steam-pspice-library\earth\Items\600A_Earth.lib
.LIB C:\cernbox\steam-pspice-library\energy_extraction\Items\600A_EE.lib
.LIB C:\cernbox\steam-pspice-library\magnet\Items\magnets_cosimulation.lib
**** Global parameters ****
.PARAM
+ NumberOfMagnets={77} 
+ L_magnet={0.00027828} 
+ C_ground_magnet={1.29E-08} 
+ R_parallel={1000000000} 
+ R_circuit={0.026286} 
+ R_crowbar={0.08} 
+ t_Start={0} 
+ t_PC={0.2} 
+ flag_EE={0} 
+ t_EE={0} 
+ R_EE={0} 
+ C_snubber={0} 
+ R_snubber={0} 
+ R_Branch={0} 
+ L_Branch={0} 
+ Length_Busbar={5300} 

**** Main circuit ****
****RCO.A12B1 circuit ****
* Power supply
I_PC_600A (0A 1) STIMULUS = I_FPA_120
*
* Power-supply crowbar
x_Crowbar (0A 1) Crowbar_600A
+ PARAMS: R_crowbar={R_crowbar} t_PC={t_PC} 
*
* Warm lead between power-supply positive side and first magnet
R_WARM_1 (1 2) {0.013143}
*
* Busbar Inductance of the circuit
L_Busbar (2 3) {0.000954}
*
* Warm lead between energy-extraction and power-supply negative side (ground)
R_WARM_2 (80 0A) {0.013143}
*
* Earthing circuit
x_EC (0A 0) earthingCircuit
+ PARAMS: R_fuse={1.000} 
*
*** Chain of magnets ***
* Quenched Magnet 
**MCO-Magnet 1 **
x_mag_1 (3 4 0A 0A) MAGNET_EQ_1_RCpar_Quench
+ PARAMS: L_1={L_magnet} C_ground_magnet={C_ground_magnet} R_parallel={R_parallel} k_I={1.0} R_par={1000} 
* Magnets connected in series
**MCO-Magnet 2 **
x_mag_2 (4 5 0A 0A) MAGNET_EQ_1_RCpar
+ PARAMS: L_1={L_magnet} C_ground_magnet={C_ground_magnet} R_parallel={R_parallel} k_I={1.0} R_par={1000} 
**MCO-Magnet 3 **
x_mag_3 (5 6 0A 0A) MAGNET_EQ_1_RCpar
+ PARAMS: L_1={L_magnet} C_ground_magnet={C_ground_magnet} R_parallel={R_parallel} k_I={1.0} R_par={1000} 
**MCO-Magnet 4 **
x_mag_4 (6 7 0A 0A) MAGNET_EQ_1_RCpar
+ PARAMS: L_1={L_magnet} C_ground_magnet={C_ground_magnet} R_parallel={R_parallel} k_I={1.0} R_par={1000} 
**MCO-Magnet 5 **
x_mag_5 (7 8 0A 0A) MAGNET_EQ_1_RCpar
+ PARAMS: L_1={L_magnet} C_ground_magnet={C_ground_magnet} R_parallel={R_parallel} k_I={1.0} R_par={1000} 
**MCO-Magnet 6 **
x_mag_6 (8 9 0A 0A) MAGNET_EQ_1_RCpar
+ PARAMS: L_1={L_magnet} C_ground_magnet={C_ground_magnet} R_parallel={R_parallel} k_I={1.0} R_par={1000} 
**MCO-Magnet 7 **
x_mag_7 (9 10 0A 0A) MAGNET_EQ_1_RCpar
+ PARAMS: L_1={L_magnet} C_ground_magnet={C_ground_magnet} R_parallel={R_parallel} k_I={1.0} R_par={1000} 
**MCO-Magnet 8 **
x_mag_8 (10 11 0A 0A) MAGNET_EQ_1_RCpar
+ PARAMS: L_1={L_magnet} C_ground_magnet={C_ground_magnet} R_parallel={R_parallel} k_I={1.0} R_par={1000} 
**MCO-Magnet 9 **
x_mag_9 (11 12 0A 0A) MAGNET_EQ_1_RCpar
+ PARAMS: L_1={L_magnet} C_ground_magnet={C_ground_magnet} R_parallel={R_parallel} k_I={1.0} R_par={1000} 
**MCO-Magnet 10 **
x_mag_10 (12 13 0A 0A) MAGNET_EQ_1_RCpar
+ PARAMS: L_1={L_magnet} C_ground_magnet={C_ground_magnet} R_parallel={R_parallel} k_I={1.0} R_par={1000} 
**MCO-Magnet 11 **
x_mag_11 (13 14 0A 0A) MAGNET_EQ_1_RCpar
+ PARAMS: L_1={L_magnet} C_ground_magnet={C_ground_magnet} R_parallel={R_parallel} k_I={1.0} R_par={1000} 
**MCO-Magnet 12 **
x_mag_12 (14 15 0A 0A) MAGNET_EQ_1_RCpar
+ PARAMS: L_1={L_magnet} C_ground_magnet={C_ground_magnet} R_parallel={R_parallel} k_I={1.0} R_par={1000} 
**MCO-Magnet 13 **
x_mag_13 (15 16 0A 0A) MAGNET_EQ_1_RCpar
+ PARAMS: L_1={L_magnet} C_ground_magnet={C_ground_magnet} R_parallel={R_parallel} k_I={1.0} R_par={1000} 
**MCO-Magnet 14 **
x_mag_14 (16 17 0A 0A) MAGNET_EQ_1_RCpar
+ PARAMS: L_1={L_magnet} C_ground_magnet={C_ground_magnet} R_parallel={R_parallel} k_I={1.0} R_par={1000} 
**MCO-Magnet 15 **
x_mag_15 (17 18 0A 0A) MAGNET_EQ_1_RCpar
+ PARAMS: L_1={L_magnet} C_ground_magnet={C_ground_magnet} R_parallel={R_parallel} k_I={1.0} R_par={1000} 
**MCO-Magnet 16 **
x_mag_16 (18 19 0A 0A) MAGNET_EQ_1_RCpar
+ PARAMS: L_1={L_magnet} C_ground_magnet={C_ground_magnet} R_parallel={R_parallel} k_I={1.0} R_par={1000} 
**MCO-Magnet 17 **
x_mag_17 (19 20 0A 0A) MAGNET_EQ_1_RCpar
+ PARAMS: L_1={L_magnet} C_ground_magnet={C_ground_magnet} R_parallel={R_parallel} k_I={1.0} R_par={1000} 
**MCO-Magnet 18 **
x_mag_18 (20 21 0A 0A) MAGNET_EQ_1_RCpar
+ PARAMS: L_1={L_magnet} C_ground_magnet={C_ground_magnet} R_parallel={R_parallel} k_I={1.0} R_par={1000} 
**MCO-Magnet 19 **
x_mag_19 (21 22 0A 0A) MAGNET_EQ_1_RCpar
+ PARAMS: L_1={L_magnet} C_ground_magnet={C_ground_magnet} R_parallel={R_parallel} k_I={1.0} R_par={1000} 
**MCO-Magnet 20 **
x_mag_20 (22 23 0A 0A) MAGNET_EQ_1_RCpar
+ PARAMS: L_1={L_magnet} C_ground_magnet={C_ground_magnet} R_parallel={R_parallel} k_I={1.0} R_par={1000} 
**MCO-Magnet 21 **
x_mag_21 (23 24 0A 0A) MAGNET_EQ_1_RCpar
+ PARAMS: L_1={L_magnet} C_ground_magnet={C_ground_magnet} R_parallel={R_parallel} k_I={1.0} R_par={1000} 
**MCO-Magnet 22 **
x_mag_22 (24 25 0A 0A) MAGNET_EQ_1_RCpar
+ PARAMS: L_1={L_magnet} C_ground_magnet={C_ground_magnet} R_parallel={R_parallel} k_I={1.0} R_par={1000} 
**MCO-Magnet 23 **
x_mag_23 (25 26 0A 0A) MAGNET_EQ_1_RCpar
+ PARAMS: L_1={L_magnet} C_ground_magnet={C_ground_magnet} R_parallel={R_parallel} k_I={1.0} R_par={1000} 
**MCO-Magnet 24 **
x_mag_24 (26 27 0A 0A) MAGNET_EQ_1_RCpar
+ PARAMS: L_1={L_magnet} C_ground_magnet={C_ground_magnet} R_parallel={R_parallel} k_I={1.0} R_par={1000} 
**MCO-Magnet 25 **
x_mag_25 (27 28 0A 0A) MAGNET_EQ_1_RCpar
+ PARAMS: L_1={L_magnet} C_ground_magnet={C_ground_magnet} R_parallel={R_parallel} k_I={1.0} R_par={1000} 
**MCO-Magnet 26 **
x_mag_26 (28 29 0A 0A) MAGNET_EQ_1_RCpar
+ PARAMS: L_1={L_magnet} C_ground_magnet={C_ground_magnet} R_parallel={R_parallel} k_I={1.0} R_par={1000} 
**MCO-Magnet 27 **
x_mag_27 (29 30 0A 0A) MAGNET_EQ_1_RCpar
+ PARAMS: L_1={L_magnet} C_ground_magnet={C_ground_magnet} R_parallel={R_parallel} k_I={1.0} R_par={1000} 
**MCO-Magnet 28 **
x_mag_28 (30 31 0A 0A) MAGNET_EQ_1_RCpar
+ PARAMS: L_1={L_magnet} C_ground_magnet={C_ground_magnet} R_parallel={R_parallel} k_I={1.0} R_par={1000} 
**MCO-Magnet 29 **
x_mag_29 (31 32 0A 0A) MAGNET_EQ_1_RCpar
+ PARAMS: L_1={L_magnet} C_ground_magnet={C_ground_magnet} R_parallel={R_parallel} k_I={1.0} R_par={1000} 
**MCO-Magnet 30 **
x_mag_30 (32 33 0A 0A) MAGNET_EQ_1_RCpar
+ PARAMS: L_1={L_magnet} C_ground_magnet={C_ground_magnet} R_parallel={R_parallel} k_I={1.0} R_par={1000} 
**MCO-Magnet 31 **
x_mag_31 (33 34 0A 0A) MAGNET_EQ_1_RCpar
+ PARAMS: L_1={L_magnet} C_ground_magnet={C_ground_magnet} R_parallel={R_parallel} k_I={1.0} R_par={1000} 
**MCO-Magnet 32 **
x_mag_32 (34 35 0A 0A) MAGNET_EQ_1_RCpar
+ PARAMS: L_1={L_magnet} C_ground_magnet={C_ground_magnet} R_parallel={R_parallel} k_I={1.0} R_par={1000} 
**MCO-Magnet 33 **
x_mag_33 (35 36 0A 0A) MAGNET_EQ_1_RCpar
+ PARAMS: L_1={L_magnet} C_ground_magnet={C_ground_magnet} R_parallel={R_parallel} k_I={1.0} R_par={1000} 
**MCO-Magnet 34 **
x_mag_34 (36 37 0A 0A) MAGNET_EQ_1_RCpar
+ PARAMS: L_1={L_magnet} C_ground_magnet={C_ground_magnet} R_parallel={R_parallel} k_I={1.0} R_par={1000} 
**MCO-Magnet 35 **
x_mag_35 (37 38 0A 0A) MAGNET_EQ_1_RCpar
+ PARAMS: L_1={L_magnet} C_ground_magnet={C_ground_magnet} R_parallel={R_parallel} k_I={1.0} R_par={1000} 
**MCO-Magnet 36 **
x_mag_36 (38 39 0A 0A) MAGNET_EQ_1_RCpar
+ PARAMS: L_1={L_magnet} C_ground_magnet={C_ground_magnet} R_parallel={R_parallel} k_I={1.0} R_par={1000} 
**MCO-Magnet 37 **
x_mag_37 (39 40 0A 0A) MAGNET_EQ_1_RCpar
+ PARAMS: L_1={L_magnet} C_ground_magnet={C_ground_magnet} R_parallel={R_parallel} k_I={1.0} R_par={1000} 
**MCO-Magnet 38 **
x_mag_38 (40 41 0A 0A) MAGNET_EQ_1_RCpar
+ PARAMS: L_1={L_magnet} C_ground_magnet={C_ground_magnet} R_parallel={R_parallel} k_I={1.0} R_par={1000} 
**MCO-Magnet 39 **
x_mag_39 (41 42 0A 0A) MAGNET_EQ_1_RCpar
+ PARAMS: L_1={L_magnet} C_ground_magnet={C_ground_magnet} R_parallel={R_parallel} k_I={1.0} R_par={1000} 
**MCO-Magnet 40 **
x_mag_40 (42 43 0A 0A) MAGNET_EQ_1_RCpar
+ PARAMS: L_1={L_magnet} C_ground_magnet={C_ground_magnet} R_parallel={R_parallel} k_I={1.0} R_par={1000} 
**MCO-Magnet 41 **
x_mag_41 (43 44 0A 0A) MAGNET_EQ_1_RCpar
+ PARAMS: L_1={L_magnet} C_ground_magnet={C_ground_magnet} R_parallel={R_parallel} k_I={1.0} R_par={1000} 
**MCO-Magnet 42 **
x_mag_42 (44 45 0A 0A) MAGNET_EQ_1_RCpar
+ PARAMS: L_1={L_magnet} C_ground_magnet={C_ground_magnet} R_parallel={R_parallel} k_I={1.0} R_par={1000} 
**MCO-Magnet 43 **
x_mag_43 (45 46 0A 0A) MAGNET_EQ_1_RCpar
+ PARAMS: L_1={L_magnet} C_ground_magnet={C_ground_magnet} R_parallel={R_parallel} k_I={1.0} R_par={1000} 
**MCO-Magnet 44 **
x_mag_44 (46 47 0A 0A) MAGNET_EQ_1_RCpar
+ PARAMS: L_1={L_magnet} C_ground_magnet={C_ground_magnet} R_parallel={R_parallel} k_I={1.0} R_par={1000} 
**MCO-Magnet 45 **
x_mag_45 (47 48 0A 0A) MAGNET_EQ_1_RCpar
+ PARAMS: L_1={L_magnet} C_ground_magnet={C_ground_magnet} R_parallel={R_parallel} k_I={1.0} R_par={1000} 
**MCO-Magnet 46 **
x_mag_46 (48 49 0A 0A) MAGNET_EQ_1_RCpar
+ PARAMS: L_1={L_magnet} C_ground_magnet={C_ground_magnet} R_parallel={R_parallel} k_I={1.0} R_par={1000} 
**MCO-Magnet 47 **
x_mag_47 (49 50 0A 0A) MAGNET_EQ_1_RCpar
+ PARAMS: L_1={L_magnet} C_ground_magnet={C_ground_magnet} R_parallel={R_parallel} k_I={1.0} R_par={1000} 
**MCO-Magnet 48 **
x_mag_48 (50 51 0A 0A) MAGNET_EQ_1_RCpar
+ PARAMS: L_1={L_magnet} C_ground_magnet={C_ground_magnet} R_parallel={R_parallel} k_I={1.0} R_par={1000} 
**MCO-Magnet 49 **
x_mag_49 (51 52 0A 0A) MAGNET_EQ_1_RCpar
+ PARAMS: L_1={L_magnet} C_ground_magnet={C_ground_magnet} R_parallel={R_parallel} k_I={1.0} R_par={1000} 
**MCO-Magnet 50 **
x_mag_50 (52 53 0A 0A) MAGNET_EQ_1_RCpar
+ PARAMS: L_1={L_magnet} C_ground_magnet={C_ground_magnet} R_parallel={R_parallel} k_I={1.0} R_par={1000} 
**MCO-Magnet 51 **
x_mag_51 (53 54 0A 0A) MAGNET_EQ_1_RCpar
+ PARAMS: L_1={L_magnet} C_ground_magnet={C_ground_magnet} R_parallel={R_parallel} k_I={1.0} R_par={1000} 
**MCO-Magnet 52 **
x_mag_52 (54 55 0A 0A) MAGNET_EQ_1_RCpar
+ PARAMS: L_1={L_magnet} C_ground_magnet={C_ground_magnet} R_parallel={R_parallel} k_I={1.0} R_par={1000} 
**MCO-Magnet 53 **
x_mag_53 (55 56 0A 0A) MAGNET_EQ_1_RCpar
+ PARAMS: L_1={L_magnet} C_ground_magnet={C_ground_magnet} R_parallel={R_parallel} k_I={1.0} R_par={1000} 
**MCO-Magnet 54 **
x_mag_54 (56 57 0A 0A) MAGNET_EQ_1_RCpar
+ PARAMS: L_1={L_magnet} C_ground_magnet={C_ground_magnet} R_parallel={R_parallel} k_I={1.0} R_par={1000} 
**MCO-Magnet 55 **
x_mag_55 (57 58 0A 0A) MAGNET_EQ_1_RCpar
+ PARAMS: L_1={L_magnet} C_ground_magnet={C_ground_magnet} R_parallel={R_parallel} k_I={1.0} R_par={1000} 
**MCO-Magnet 56 **
x_mag_56 (58 59 0A 0A) MAGNET_EQ_1_RCpar
+ PARAMS: L_1={L_magnet} C_ground_magnet={C_ground_magnet} R_parallel={R_parallel} k_I={1.0} R_par={1000} 
**MCO-Magnet 57 **
x_mag_57 (59 60 0A 0A) MAGNET_EQ_1_RCpar
+ PARAMS: L_1={L_magnet} C_ground_magnet={C_ground_magnet} R_parallel={R_parallel} k_I={1.0} R_par={1000} 
**MCO-Magnet 58 **
x_mag_58 (60 61 0A 0A) MAGNET_EQ_1_RCpar
+ PARAMS: L_1={L_magnet} C_ground_magnet={C_ground_magnet} R_parallel={R_parallel} k_I={1.0} R_par={1000} 
**MCO-Magnet 59 **
x_mag_59 (61 62 0A 0A) MAGNET_EQ_1_RCpar
+ PARAMS: L_1={L_magnet} C_ground_magnet={C_ground_magnet} R_parallel={R_parallel} k_I={1.0} R_par={1000} 
**MCO-Magnet 60 **
x_mag_60 (62 63 0A 0A) MAGNET_EQ_1_RCpar
+ PARAMS: L_1={L_magnet} C_ground_magnet={C_ground_magnet} R_parallel={R_parallel} k_I={1.0} R_par={1000} 
**MCO-Magnet 61 **
x_mag_61 (63 64 0A 0A) MAGNET_EQ_1_RCpar
+ PARAMS: L_1={L_magnet} C_ground_magnet={C_ground_magnet} R_parallel={R_parallel} k_I={1.0} R_par={1000} 
**MCO-Magnet 62 **
x_mag_62 (64 65 0A 0A) MAGNET_EQ_1_RCpar
+ PARAMS: L_1={L_magnet} C_ground_magnet={C_ground_magnet} R_parallel={R_parallel} k_I={1.0} R_par={1000} 
**MCO-Magnet 63 **
x_mag_63 (65 66 0A 0A) MAGNET_EQ_1_RCpar
+ PARAMS: L_1={L_magnet} C_ground_magnet={C_ground_magnet} R_parallel={R_parallel} k_I={1.0} R_par={1000} 
**MCO-Magnet 64 **
x_mag_64 (66 67 0A 0A) MAGNET_EQ_1_RCpar
+ PARAMS: L_1={L_magnet} C_ground_magnet={C_ground_magnet} R_parallel={R_parallel} k_I={1.0} R_par={1000} 
**MCO-Magnet 65 **
x_mag_65 (67 68 0A 0A) MAGNET_EQ_1_RCpar
+ PARAMS: L_1={L_magnet} C_ground_magnet={C_ground_magnet} R_parallel={R_parallel} k_I={1.0} R_par={1000} 
**MCO-Magnet 66 **
x_mag_66 (68 69 0A 0A) MAGNET_EQ_1_RCpar
+ PARAMS: L_1={L_magnet} C_ground_magnet={C_ground_magnet} R_parallel={R_parallel} k_I={1.0} R_par={1000} 
**MCO-Magnet 67 **
x_mag_67 (69 70 0A 0A) MAGNET_EQ_1_RCpar
+ PARAMS: L_1={L_magnet} C_ground_magnet={C_ground_magnet} R_parallel={R_parallel} k_I={1.0} R_par={1000} 
**MCO-Magnet 68 **
x_mag_68 (70 71 0A 0A) MAGNET_EQ_1_RCpar
+ PARAMS: L_1={L_magnet} C_ground_magnet={C_ground_magnet} R_parallel={R_parallel} k_I={1.0} R_par={1000} 
**MCO-Magnet 69 **
x_mag_69 (71 72 0A 0A) MAGNET_EQ_1_RCpar
+ PARAMS: L_1={L_magnet} C_ground_magnet={C_ground_magnet} R_parallel={R_parallel} k_I={1.0} R_par={1000} 
**MCO-Magnet 70 **
x_mag_70 (72 73 0A 0A) MAGNET_EQ_1_RCpar
+ PARAMS: L_1={L_magnet} C_ground_magnet={C_ground_magnet} R_parallel={R_parallel} k_I={1.0} R_par={1000} 
**MCO-Magnet 71 **
x_mag_71 (73 74 0A 0A) MAGNET_EQ_1_RCpar
+ PARAMS: L_1={L_magnet} C_ground_magnet={C_ground_magnet} R_parallel={R_parallel} k_I={1.0} R_par={1000} 
**MCO-Magnet 72 **
x_mag_72 (74 75 0A 0A) MAGNET_EQ_1_RCpar
+ PARAMS: L_1={L_magnet} C_ground_magnet={C_ground_magnet} R_parallel={R_parallel} k_I={1.0} R_par={1000} 
**MCO-Magnet 73 **
x_mag_73 (75 76 0A 0A) MAGNET_EQ_1_RCpar
+ PARAMS: L_1={L_magnet} C_ground_magnet={C_ground_magnet} R_parallel={R_parallel} k_I={1.0} R_par={1000} 
**MCO-Magnet 74 **
x_mag_74 (76 77 0A 0A) MAGNET_EQ_1_RCpar
+ PARAMS: L_1={L_magnet} C_ground_magnet={C_ground_magnet} R_parallel={R_parallel} k_I={1.0} R_par={1000} 
**MCO-Magnet 75 **
x_mag_75 (77 78 0A 0A) MAGNET_EQ_1_RCpar
+ PARAMS: L_1={L_magnet} C_ground_magnet={C_ground_magnet} R_parallel={R_parallel} k_I={1.0} R_par={1000} 
**MCO-Magnet 76 **
x_mag_76 (78 79 0A 0A) MAGNET_EQ_1_RCpar
+ PARAMS: L_1={L_magnet} C_ground_magnet={C_ground_magnet} R_parallel={R_parallel} k_I={1.0} R_par={1000} 
**MCO-Magnet 77 **
x_mag_77 (79 80 0A 0A) MAGNET_EQ_1_RCpar
+ PARAMS: L_1={L_magnet} C_ground_magnet={C_ground_magnet} R_parallel={R_parallel} k_I={1.0} R_par={1000} 
*
* Simulation options
*.OPTION
*+ RELTOL=0.0001
*+ VNTOL=0.00001
*+ ABSTOL=0.0001
*+ CHGTOL=0.000000000000001
*+ GMIN=0.000000000001
*+ ITL1=150
*+ ITL2=20
*+ ITL4=10
*+ TNOM=27
*+ NUMDGT=8
*.AUTOCONVERGE
*+ RELTOL=0.005
*+ VNTOL=0.0001
*+ ABSTOL=0.0001
*+ ITL1=1000
*+ ITL2=1000
*+ ITL4=1000
*+ PIVTOL=0.0000000001
* Configuration file
.INC Conf.cir
.END

