

* PSPICE Netlist Simulation File
* Generated on 2021/03/17 10:08:10 at CERN
* Authors: STEAM
.LIB C:\cernbox\steam-pspice-library\diodes\Items\600A_Diodes.lib
.LIB C:\cernbox\steam-pspice-library\earth\Items\600A_Earth.lib
.LIB C:\cernbox\steam-pspice-library\energy_extraction\Items\600A_EE.lib
.LIB C:\cernbox\steam-pspice-library\magnet\Items\magnets_cosimulation.lib
**** Global parameters ****
.PARAM
+ NumberOfMagnets={13} 
+ L_magnet={0.001577298} 
+ C_ground_magnet={3.00E-08} 
+ R_parallel={1000000000} 
+ R_circuit={0.003399909} 
+ R_crowbar={0.05} 
+ t_PC={0.2} 
+ flag_EE={1} 
+ t_EE={0.22} 
+ R_EE={0.7} 
+ C_snubber={0.0008} 
+ R_snubber={1} 
+ R_Branch={0.00044} 
+ L_Branch={1.00E-06} 
+ Length_Busbar={4118.3114} 
+ L_Busbar_per_m={8.00E-07} 
+ L_Busbar_Total={3.29E-03} 

**** Main circuit ****
****ROF.A56B2 circuit ****
* Power supply
I_PC_600A (0A 1) STIMULUS = I_FPA_450
*
* Power-supply crowbar
x_Crowbar (0A 1) Crowbar_600A
+ PARAMS: R_crowbar={R_crowbar} t_PC={t_PC} 
*
* Warm lead between power-supply positive side and first magnet
R_circuit_1 (1 2) {R_circuit/2}
*
* Busbar Inductance of the circuit
L_Busbar (2 3) {L_Busbar_Total}
*
* Energy-extraction system
x_R_EE (16 17 16_mid) EE_600A
+ PARAMS: R_EE={R_EE} t_EE={t_EE} C_snubber={C_snubber} R_snubber={R_snubber} R_Branch={R_Branch} L_Branch={L_Branch} 
*
* Warm lead between energy-extraction and power-supply negative side (ground)
R_circuit_2 (17 0A) {R_circuit/2}
*
* Earthing circuit
x_EC (0A 0) earthingCircuit
+ PARAMS: R_fuse={1.000} 
*
*** Chain of magnets ***
* Quenched Magnet 
**MO_1AP-Magnet 1 **
x_mag_1 (3 4 0A 0A) MAGNET_EQ_1_RCpar_Quench
+ PARAMS: L_1={L_magnet} C_ground_magnet={C_ground_magnet} R_parallel={R_parallel} k_I={1.0} R_par={1000} 
* Magnets connected in series
**MO_1AP-Magnet 2 **
x_mag_2 (4 5 0A 0A) MAGNET_EQ_1_RCpar
+ PARAMS: L_1={L_magnet} C_ground_magnet={C_ground_magnet} R_parallel={R_parallel} k_I={1.0} R_par={1000} 
**MO_1AP-Magnet 3 **
x_mag_3 (5 6 0A 0A) MAGNET_EQ_1_RCpar
+ PARAMS: L_1={L_magnet} C_ground_magnet={C_ground_magnet} R_parallel={R_parallel} k_I={1.0} R_par={1000} 
**MO_1AP-Magnet 4 **
x_mag_4 (6 7 0A 0A) MAGNET_EQ_1_RCpar
+ PARAMS: L_1={L_magnet} C_ground_magnet={C_ground_magnet} R_parallel={R_parallel} k_I={1.0} R_par={1000} 
**MO_1AP-Magnet 5 **
x_mag_5 (7 8 0A 0A) MAGNET_EQ_1_RCpar
+ PARAMS: L_1={L_magnet} C_ground_magnet={C_ground_magnet} R_parallel={R_parallel} k_I={1.0} R_par={1000} 
**MO_1AP-Magnet 6 **
x_mag_6 (8 9 0A 0A) MAGNET_EQ_1_RCpar
+ PARAMS: L_1={L_magnet} C_ground_magnet={C_ground_magnet} R_parallel={R_parallel} k_I={1.0} R_par={1000} 
**MO_1AP-Magnet 7 **
x_mag_7 (9 10 0A 0A) MAGNET_EQ_1_RCpar
+ PARAMS: L_1={L_magnet} C_ground_magnet={C_ground_magnet} R_parallel={R_parallel} k_I={1.0} R_par={1000} 
**MO_1AP-Magnet 8 **
x_mag_8 (10 11 0A 0A) MAGNET_EQ_1_RCpar
+ PARAMS: L_1={L_magnet} C_ground_magnet={C_ground_magnet} R_parallel={R_parallel} k_I={1.0} R_par={1000} 
**MO_1AP-Magnet 9 **
x_mag_9 (11 12 0A 0A) MAGNET_EQ_1_RCpar
+ PARAMS: L_1={L_magnet} C_ground_magnet={C_ground_magnet} R_parallel={R_parallel} k_I={1.0} R_par={1000} 
**MO_1AP-Magnet 10 **
x_mag_10 (12 13 0A 0A) MAGNET_EQ_1_RCpar
+ PARAMS: L_1={L_magnet} C_ground_magnet={C_ground_magnet} R_parallel={R_parallel} k_I={1.0} R_par={1000} 
**MO_1AP-Magnet 11 **
x_mag_11 (13 14 0A 0A) MAGNET_EQ_1_RCpar
+ PARAMS: L_1={L_magnet} C_ground_magnet={C_ground_magnet} R_parallel={R_parallel} k_I={1.0} R_par={1000} 
**MO_1AP-Magnet 12 **
x_mag_12 (14 15 0A 0A) MAGNET_EQ_1_RCpar
+ PARAMS: L_1={L_magnet} C_ground_magnet={C_ground_magnet} R_parallel={R_parallel} k_I={1.0} R_par={1000} 
**MO_1AP-Magnet 13 **
x_mag_13 (15 16 0A 0A) MAGNET_EQ_1_RCpar
+ PARAMS: L_1={L_magnet} C_ground_magnet={C_ground_magnet} R_parallel={R_parallel} k_I={1.0} R_par={1000} 
*
* Simulation options
*.OPTION
*+ RELTOL=0.0001
*+ VNTOL=0.00001
*+ ABSTOL=0.0001
*+ CHGTOL=0.000000000000001
*+ GMIN=0.000000000001
*+ ITL1=150
*+ ITL2=20
*+ ITL4=10
*+ TNOM=27
*+ NUMDGT=8
*.AUTOCONVERGE
*+ RELTOL=0.005
*+ VNTOL=0.0001
*+ ABSTOL=0.0001
*+ ITL1=1000
*+ ITL2=1000
*+ ITL4=1000
*+ PIVTOL=0.0000000001
* Configuration file
.INC Conf.cir
.END

