

* PSPICE Netlist Simulation File
* Generated on 2021/08/31 15:26:01 at CERN
* Authors: STEAM
.LIB C:\cernbox\steam-pspice-library\diodes\Items\600A_Diodes.lib
.LIB C:\cernbox\steam-pspice-library\earth\Items\600A_Earth.lib
.LIB C:\cernbox\steam-pspice-library\energy_extraction\Items\600A_EE.lib
.LIB C:\cernbox\steam-pspice-library\magnet\Items\magnets_cosimulation.lib
**** Global parameters ****
.PARAM
+ flag_COSIM={1} 
+ CoilSections={[[1]]} 
+ NumberOfMagnets={6} 
+ L_magnet={0.0883} 
+ C_ground_magnet={8.10E-09} 
+ R_parallel={0.2} 
+ R_circuit={0.00399} 
+ R_crowbar={0.05} 
+ t_Start={0} 
+ t_PC={0.2} 
+ flag_EE={1} 
+ t_EE={0.208} 
+ R_EE={0.675} 
+ C_snubber={0.0008} 
+ R_snubber={1} 
+ R_Branch={0.00044} 
+ L_Branch={1.00E-06} 
+ Length_Busbar={0} 
+ L_Busbar_per_m={0} 
+ L_Busbar_Total={0} 
+ RRR_Cu_inGroup={115} 
+ f_ro_eff_inGroup={1} 
+ Quench={1.00E+00} 
+ t_Q={0.1} 
+ i_qT={841} 
+ flag_HeCooling={0} 

**** Main circuit ****
****RQ6.L7B1 circuit ****
* Power supply
I_PC_600A (0A 1) STIMULUS = I_FPA_400
*
* Power-supply crowbar
x_Crowbar (0A 1) Crowbar_600A
+ PARAMS: R_crowbar={R_crowbar} t_PC={t_PC} 
*
* Warm lead between power-supply positive side and first magnet
R_WARM_1 (1 2) {R_warm/2}
*
* Busbar Inductance of the circuit
L_Busbar (2 3) {L_Busbar_Total}
*
* Warm lead between energy-extraction and power-supply negative side (ground)
R_WARM_2 (4 0A) {R_warm/2}
*
* Earthing circuit
x_EC (0A 0) earthingCircuit
+ PARAMS: R_fuse={1.000} 
*
*** Chain of magnets ***
* Quenched Magnet 
**MQTLH_1AP-Magnet 1 **
x_mag_1 (3 4 0A 0A) MAGNET_EQ_1_RCpar_Quench
+ PARAMS: L_1={L_magnet} C_ground_magnet={C_ground_magnet} R_parallel={R_parallel} k_I={1.0} R_par={1000} 
* Magnets connected in series
*
.AUTOCONVERGE
+ RELTOL=0.005
+ VNTOL=0.0001
+ ABSTOL=0.0001
+ ITL1=1000
+ ITL2=1000
+ ITL4=1000
+ PIVTOL=0.0000000001
* Configuration file
.INC Conf.cir
.END

