

* PSPICE Netlist Simulation File
* Generated on 2020/12/18 13:35:43 at CERN
* Authors: STEAM
**** Global parameters ****
.PARAM
+ F_SCALE_C_GROUND={1.0} 
+ F_SCALE_C_T2T={1.0} 
+ F_SCALE_L={1.0} 
+ F_SCALE_R={1.0} 

* .STEP PARAM R_Par 10k, 100k, 10k
* Cell 1
L_6 (1mid 1in) {0.0007753186400985768*F_SCALE_L}
R_6 (1out 1mid) {2.079707674452343*F_SCALE_R}
* Cell 2
L_5 (2mid 1out) {0.0007599679678432028*F_SCALE_L}
R_5 (2out 2mid) {2.079707674452343*F_SCALE_R}
* Cell 3
L_4 (3mid 2out) {0.0007438378785345092*F_SCALE_L}
R_4 (3out 3mid) {2.079707674452343*F_SCALE_R}
* Cell 4
L_3 (4mid 3out) {0.0007268384103347322*F_SCALE_L}
R_3 (4out 4mid) {2.079707674452343*F_SCALE_R}
* Cell 5
L_2 (5mid 4out) {0.0007088664541783048*F_SCALE_L}
R_2 (5out 5mid) {2.079707674452343*F_SCALE_R}
* Cell 6
L_1 (6mid 5out) {0.0006897903665891406*F_SCALE_L}
R_1 (6out 6mid) {2.079707674452343*F_SCALE_R}
* Cell 7
L_24 (7mid 6out) {0.000775318640098577*F_SCALE_L}
R_24 (7out 7mid) {2.079707674452343*F_SCALE_R}
* Cell 8
L_23 (8mid 7out) {0.0007599679678432028*F_SCALE_L}
R_23 (8out 8mid) {2.079707674452343*F_SCALE_R}
* Cell 9
L_22 (9mid 8out) {0.0007438378785345092*F_SCALE_L}
R_22 (9out 9mid) {2.079707674452343*F_SCALE_R}
* Cell 10
L_21 (10mid 9out) {0.0007268384103347322*F_SCALE_L}
R_21 (10out 10mid) {2.079707674452343*F_SCALE_R}
* Cell 11
L_20 (11mid 10out) {0.0007088664541783048*F_SCALE_L}
R_20 (11out 11mid) {2.079707674452343*F_SCALE_R}
* Cell 12
L_19 (12mid 11out) {0.0006897903665891408*F_SCALE_L}
R_19 (12out 12mid) {2.079707674452343*F_SCALE_R}
* Cell 13
L_18 (13mid 12out) {0.000775318640098577*F_SCALE_L}
R_18 (13out 13mid) {2.079707674452343*F_SCALE_R}
* Cell 14
L_17 (14mid 13out) {0.0007599679678432028*F_SCALE_L}
R_17 (14out 14mid) {2.079707674452343*F_SCALE_R}
* Cell 15
L_16 (15mid 14out) {0.0007438378785345089*F_SCALE_L}
R_16 (15out 15mid) {2.079707674452343*F_SCALE_R}
* Cell 16
L_15 (16mid 15out) {0.0007268384103347324*F_SCALE_L}
R_15 (16out 16mid) {2.079707674452343*F_SCALE_R}
* Cell 17
L_14 (17mid 16out) {0.0007088664541783048*F_SCALE_L}
R_14 (17out 17mid) {2.079707674452343*F_SCALE_R}
* Cell 18
L_13 (18mid 17out) {0.0006897903665891408*F_SCALE_L}
R_13 (18out 18mid) {2.079707674452343*F_SCALE_R}
* Cell 19
L_12 (19mid 18out) {0.000775318640098577*F_SCALE_L}
R_12 (19out 19mid) {2.079707674452343*F_SCALE_R}
* Cell 20
L_11 (20mid 19out) {0.0007599679678432028*F_SCALE_L}
R_11 (20out 20mid) {2.079707674452343*F_SCALE_R}
* Cell 21
L_10 (21mid 20out) {0.0007438378785345089*F_SCALE_L}
R_10 (21out 21mid) {2.079707674452343*F_SCALE_R}
* Cell 22
L_9 (22mid 21out) {0.0007268384103347324*F_SCALE_L}
R_9 (22out 22mid) {2.079707674452343*F_SCALE_R}
* Cell 23
L_8 (23mid 22out) {0.0007088664541783048*F_SCALE_L}
R_8 (23out 23mid) {2.079707674452343*F_SCALE_R}
* Cell 24
L_7 (24mid 23out) {0.0006897903665891408*F_SCALE_L}
R_7 (24out 24mid) {2.079707674452343*F_SCALE_R}
* Capacitance to ground
C_1 (00_mGND 5out) {2.059973041527324e-09*F_SCALE_C_GROUND}
C_7 (00_mGND 23out) {2.059973041527324e-09*F_SCALE_C_GROUND}
C_13 (00_mGND 17out) {2.059973041527324e-09*F_SCALE_C_GROUND}
C_19 (00_mGND 11out) {2.059973041527324e-09*F_SCALE_C_GROUND}
C_6 (00_mGND 1in) {2.059973041527324e-09*F_SCALE_C_GROUND}
C_12 (00_mGND 18out) {2.059973041527324e-09*F_SCALE_C_GROUND}
C_18 (00_mGND 12out) {2.059973041527324e-09*F_SCALE_C_GROUND}
C_24 (00_mGND 6out) {2.059973041527324e-09*F_SCALE_C_GROUND}
C_2 (00_mGND 4out) {1.9335726360613695e-11*F_SCALE_C_GROUND}
C_3 (00_mGND 3out) {1.9335726360613695e-11*F_SCALE_C_GROUND}
C_4 (00_mGND 2out) {1.9335726360613695e-11*F_SCALE_C_GROUND}
C_5 (00_mGND 1out) {1.9335726360613695e-11*F_SCALE_C_GROUND}
C_8 (00_mGND 22out) {1.9335726360613695e-11*F_SCALE_C_GROUND}
C_9 (00_mGND 21out) {1.9335726360613695e-11*F_SCALE_C_GROUND}
C_10 (00_mGND 20out) {1.9335726360613695e-11*F_SCALE_C_GROUND}
C_11 (00_mGND 19out) {1.9335726360613695e-11*F_SCALE_C_GROUND}
C_14 (00_mGND 16out) {1.9335726360613695e-11*F_SCALE_C_GROUND}
C_15 (00_mGND 15out) {1.9335726360613695e-11*F_SCALE_C_GROUND}
C_16 (00_mGND 14out) {1.9335726360613695e-11*F_SCALE_C_GROUND}
C_17 (00_mGND 13out) {1.9335726360613695e-11*F_SCALE_C_GROUND}
C_20 (00_mGND 10out) {1.9335726360613695e-11*F_SCALE_C_GROUND}
C_21 (00_mGND 9out) {1.9335726360613695e-11*F_SCALE_C_GROUND}
C_22 (00_mGND 8out) {1.9335726360613695e-11*F_SCALE_C_GROUND}
C_23 (00_mGND 7out) {1.9335726360613695e-11*F_SCALE_C_GROUND}
* Group to Group Capacitance
C_T2T_1_2 (4out 5out) {1.8431562846667057e-09*F_SCALE_C_T2T}
C_T2T_2_3 (3out 4out) {1.8431562846667057e-09*F_SCALE_C_T2T}
C_T2T_3_4 (2out 3out) {1.8431562846667057e-09*F_SCALE_C_T2T}
C_T2T_4_5 (1out 2out) {1.8431562846667057e-09*F_SCALE_C_T2T}
C_T2T_5_6 (1in 1out) {1.8431562846667057e-09*F_SCALE_C_T2T}
C_T2T_7_8 (22out 23out) {1.8431562846667057e-09*F_SCALE_C_T2T}
C_T2T_8_9 (21out 22out) {1.8431562846667057e-09*F_SCALE_C_T2T}
C_T2T_9_10 (20out 21out) {1.8431562846667057e-09*F_SCALE_C_T2T}
C_T2T_10_11 (19out 20out) {1.8431562846667057e-09*F_SCALE_C_T2T}
C_T2T_11_12 (18out 19out) {1.8431562846667057e-09*F_SCALE_C_T2T}
C_T2T_13_14 (16out 17out) {1.8431562846667057e-09*F_SCALE_C_T2T}
C_T2T_14_15 (15out 16out) {1.8431562846667057e-09*F_SCALE_C_T2T}
C_T2T_15_16 (14out 15out) {1.8431562846667057e-09*F_SCALE_C_T2T}
C_T2T_16_17 (13out 14out) {1.8431562846667057e-09*F_SCALE_C_T2T}
C_T2T_17_18 (12out 13out) {1.8431562846667057e-09*F_SCALE_C_T2T}
C_T2T_19_20 (10out 11out) {1.8431562846667057e-09*F_SCALE_C_T2T}
C_T2T_20_21 (9out 10out) {1.8431562846667057e-09*F_SCALE_C_T2T}
C_T2T_21_22 (8out 9out) {1.8431562846667057e-09*F_SCALE_C_T2T}
C_T2T_22_23 (7out 8out) {1.8431562846667057e-09*F_SCALE_C_T2T}
C_T2T_23_24 (6out 7out) {1.8431562846667057e-09*F_SCALE_C_T2T}
* Mutual coupling between cells
K_1_2 (L_1 L_2) 0.9203705109267114
K_1_3 (L_1 L_3) 0.8278527668680661
K_1_4 (L_1 L_4) 0.750145147520817
K_1_5 (L_1 L_5) 0.6839684247807545
K_1_6 (L_1 L_6) 0.6270352484713252
K_1_7 (L_1 L_7) 0.18007562914792338
K_1_8 (L_1 L_8) 0.178187566321133
K_1_9 (L_1 L_9) 0.17417546787859545
K_1_10 (L_1 L_10) 0.16893494399723175
K_1_11 (L_1 L_11) 0.16300114041806554
K_1_12 (L_1 L_12) 0.1567098567186361
K_1_13 (L_1 L_13) -0.06809333916798271
K_1_14 (L_1 L_14) -0.06795621056988647
K_1_15 (L_1 L_15) -0.0677542569376514
K_1_16 (L_1 L_16) -0.06749489519358849
K_1_17 (L_1 L_17) -0.06718465621650314
K_1_18 (L_1 L_18) -0.06683030133192494
K_1_19 (L_1 L_19) 0.18007562914792336
K_1_20 (L_1 L_20) 0.178187566321133
K_1_21 (L_1 L_21) 0.17417546787859556
K_1_22 (L_1 L_22) 0.1689349439972317
K_1_23 (L_1 L_23) 0.16300114041806557
K_1_24 (L_1 L_24) 0.1567098567186361
K_2_3 (L_2 L_3) 0.9222456928574461
K_2_4 (L_2 L_4) 0.8317212537108304
K_2_5 (L_2 L_5) 0.7554851032053849
K_2_6 (L_2 L_6) 0.6903772322910267
K_2_7 (L_2 L_7) 0.17818756632113297
K_2_8 (L_2 L_8) 0.17928685059927216
K_2_9 (L_2 L_9) 0.17763517546874186
K_2_10 (L_2 L_10) 0.17401079669162986
K_2_11 (L_2 L_11) 0.16916953251701383
K_2_12 (L_2 L_12) 0.1636087598547699
K_2_13 (L_2 L_13) -0.06795621056988645
K_2_14 (L_2 L_14) -0.0678917792846211
K_2_15 (L_2 L_15) -0.06775937415595144
K_2_16 (L_2 L_16) -0.06756638940806658
K_2_17 (L_2 L_17) -0.06731935065296979
K_2_18 (L_2 L_18) -0.06702505718725381
K_2_19 (L_2 L_19) 0.17818756632113292
K_2_20 (L_2 L_20) 0.1792868505992721
K_2_21 (L_2 L_21) 0.17763517546874188
K_2_22 (L_2 L_22) 0.17401079669162983
K_2_23 (L_2 L_23) 0.1691695325170139
K_2_24 (L_2 L_24) 0.16360875985476991
K_3_4 (L_3 L_4) 0.9239333951409389
K_3_5 (L_3 L_5) 0.8352406198570551
K_3_6 (L_3 L_6) 0.7603613834354651
K_3_7 (L_3 L_7) 0.17417546787859553
K_3_8 (L_3 L_8) 0.17763517546874197
K_3_9 (L_3 L_9) 0.17861166045713375
K_3_10 (L_3 L_10) 0.17714506951149783
K_3_11 (L_3 L_11) 0.1738472496651966
K_3_12 (L_3 L_12) 0.16936028373750034
K_3_13 (L_3 L_13) -0.06775425693765141
K_3_14 (L_3 L_14) -0.06775937415595146
K_3_15 (L_3 L_15) -0.0676938025690534
K_3_16 (L_3 L_16) -0.06756487955137104
K_3_17 (L_3 L_17) -0.06737909317019364
K_3_18 (L_3 L_18) -0.06714324803948814
K_3_19 (L_3 L_19) 0.17417546787859545
K_3_20 (L_3 L_20) 0.17763517546874197
K_3_21 (L_3 L_21) 0.17861166045713378
K_3_22 (L_3 L_22) 0.17714506951149783
K_3_23 (L_3 L_23) 0.17384724966519666
K_3_24 (L_3 L_24) 0.16936028373750048
K_4_5 (L_4 L_5) 0.9254805017034504
K_4_6 (L_4 L_6) 0.8384609992301928
K_4_7 (L_4 L_7) 0.16893494399723172
K_4_8 (L_4 L_8) 0.17401079669162992
K_4_9 (L_4 L_9) 0.17714506951149778
K_4_10 (L_4 L_10) 0.17802073108767152
K_4_11 (L_4 L_11) 0.17670149925632928
K_4_12 (L_4 L_12) 0.17368349299326866
K_4_13 (L_4 L_13) -0.06749489519358848
K_4_14 (L_4 L_14) -0.06756638940806654
K_4_15 (L_4 L_15) -0.06756487955137098
K_4_16 (L_4 L_16) -0.06749761753629638
K_4_17 (L_4 L_17) -0.06737102652221438
K_4_18 (L_4 L_18) -0.06719188822277392
K_4_19 (L_4 L_19) 0.16893494399723166
K_4_20 (L_4 L_20) 0.17401079669162983
K_4_21 (L_4 L_21) 0.17714506951149783
K_4_22 (L_4 L_22) 0.1780207310876715
K_4_23 (L_4 L_23) 0.1767014992563293
K_4_24 (L_4 L_24) 0.17368349299326866
K_5_6 (L_5 L_6) 0.9268884797568289
K_5_7 (L_5 L_7) 0.16300114041806557
K_5_8 (L_5 L_8) 0.16916953251701392
K_5_9 (L_5 L_9) 0.17384724966519657
K_5_10 (L_5 L_10) 0.17670149925632936
K_5_11 (L_5 L_11) 0.1774905336716945
K_5_12 (L_5 L_12) 0.1762932972977761
K_5_13 (L_5 L_13) -0.06718465621650317
K_5_14 (L_5 L_14) -0.06731935065296978
K_5_15 (L_5 L_15) -0.06737909317019365
K_5_16 (L_5 L_16) -0.06737102652221444
K_5_17 (L_5 L_17) -0.0673014860011675
K_5_18 (L_5 L_18) -0.0671772062203531
K_5_19 (L_5 L_19) 0.16300114041806552
K_5_20 (L_5 L_20) 0.1691695325170138
K_5_21 (L_5 L_21) 0.17384724966519668
K_5_22 (L_5 L_22) 0.1767014992563293
K_5_23 (L_5 L_23) 0.1774905336716945
K_5_24 (L_5 L_24) 0.176293297297776
K_6_7 (L_6 L_7) 0.15670985671863613
K_6_8 (L_6 L_8) 0.16360875985477003
K_6_9 (L_6 L_9) 0.16936028373750034
K_6_10 (L_6 L_10) 0.17368349299326868
K_6_11 (L_6 L_11) 0.17629329729777604
K_6_12 (L_6 L_12) 0.17700997068637658
K_6_13 (L_6 L_13) -0.06683030133192491
K_6_14 (L_6 L_14) -0.06702505718725384
K_6_15 (L_6 L_15) -0.06714324803948811
K_6_16 (L_6 L_16) -0.06719188822277394
K_6_17 (L_6 L_17) -0.0671772062203531
K_6_18 (L_6 L_18) -0.06710586907971519
K_6_19 (L_6 L_19) 0.15670985671863608
K_6_20 (L_6 L_20) 0.16360875985477003
K_6_21 (L_6 L_21) 0.16936028373750048
K_6_22 (L_6 L_22) 0.17368349299326868
K_6_23 (L_6 L_23) 0.17629329729777604
K_6_24 (L_6 L_24) 0.1770099706863766
K_7_8 (L_7 L_8) 0.9203705109267113
K_7_9 (L_7 L_9) 0.8278527668680657
K_7_10 (L_7 L_10) 0.750145147520817
K_7_11 (L_7 L_11) 0.6839684247807541
K_7_12 (L_7 L_12) 0.6270352484713251
K_7_13 (L_7 L_13) 0.18007562914792327
K_7_14 (L_7 L_14) 0.17818756632113297
K_7_15 (L_7 L_15) 0.17417546787859542
K_7_16 (L_7 L_16) 0.16893494399723175
K_7_17 (L_7 L_17) 0.16300114041806552
K_7_18 (L_7 L_18) 0.15670985671863605
K_7_19 (L_7 L_19) -0.0680933391679827
K_7_20 (L_7 L_20) -0.06795621056988647
K_7_21 (L_7 L_21) -0.0677542569376514
K_7_22 (L_7 L_22) -0.06749489519358848
K_7_23 (L_7 L_23) -0.06718465621650316
K_7_24 (L_7 L_24) -0.0668303013319249
K_8_9 (L_8 L_9) 0.922245692857446
K_8_10 (L_8 L_10) 0.8317212537108305
K_8_11 (L_8 L_11) 0.7554851032053845
K_8_12 (L_8 L_12) 0.6903772322910265
K_8_13 (L_8 L_13) 0.17818756632113297
K_8_14 (L_8 L_14) 0.17928685059927213
K_8_15 (L_8 L_15) 0.17763517546874194
K_8_16 (L_8 L_16) 0.17401079669162983
K_8_17 (L_8 L_17) 0.16916953251701383
K_8_18 (L_8 L_18) 0.16360875985476991
K_8_19 (L_8 L_19) -0.06795621056988647
K_8_20 (L_8 L_20) -0.0678917792846211
K_8_21 (L_8 L_21) -0.06775937415595149
K_8_22 (L_8 L_22) -0.06756638940806654
K_8_23 (L_8 L_23) -0.06731935065296979
K_8_24 (L_8 L_24) -0.06702505718725381
K_9_10 (L_9 L_10) 0.9239333951409389
K_9_11 (L_9 L_11) 0.835240619857055
K_9_12 (L_9 L_12) 0.7603613834354649
K_9_13 (L_9 L_13) 0.1741754678785955
K_9_14 (L_9 L_14) 0.1776351754687419
K_9_15 (L_9 L_15) 0.17861166045713373
K_9_16 (L_9 L_16) 0.17714506951149783
K_9_17 (L_9 L_17) 0.17384724966519657
K_9_18 (L_9 L_18) 0.1693602837375004
K_9_19 (L_9 L_19) -0.06775425693765141
K_9_20 (L_9 L_20) -0.06775937415595149
K_9_21 (L_9 L_21) -0.0676938025690534
K_9_22 (L_9 L_22) -0.06756487955137104
K_9_23 (L_9 L_23) -0.0673790931701936
K_9_24 (L_9 L_24) -0.06714324803948811
K_10_11 (L_10 L_11) 0.9254805017034501
K_10_12 (L_10 L_12) 0.8384609992301928
K_10_13 (L_10 L_13) 0.16893494399723172
K_10_14 (L_10 L_14) 0.17401079669162992
K_10_15 (L_10 L_15) 0.17714506951149783
K_10_16 (L_10 L_16) 0.17802073108767155
K_10_17 (L_10 L_17) 0.17670149925632928
K_10_18 (L_10 L_18) 0.1736834929932686
K_10_19 (L_10 L_19) -0.06749489519358848
K_10_20 (L_10 L_20) -0.06756638940806654
K_10_21 (L_10 L_21) -0.06756487955137101
K_10_22 (L_10 L_22) -0.06749761753629642
K_10_23 (L_10 L_23) -0.06737102652221444
K_10_24 (L_10 L_24) -0.06719188822277393
K_11_12 (L_11 L_12) 0.9268884797568286
K_11_13 (L_11 L_13) 0.1630011404180656
K_11_14 (L_11 L_14) 0.16916953251701383
K_11_15 (L_11 L_15) 0.17384724966519652
K_11_16 (L_11 L_16) 0.1767014992563293
K_11_17 (L_11 L_17) 0.1774905336716945
K_11_18 (L_11 L_18) 0.176293297297776
K_11_19 (L_11 L_19) -0.06718465621650316
K_11_20 (L_11 L_20) -0.06731935065296979
K_11_21 (L_11 L_21) -0.06737909317019371
K_11_22 (L_11 L_22) -0.06737102652221443
K_11_23 (L_11 L_23) -0.06730148600116752
K_11_24 (L_11 L_24) -0.0671772062203531
K_12_13 (L_12 L_13) 0.15670985671863605
K_12_14 (L_12 L_14) 0.16360875985477
K_12_15 (L_12 L_15) 0.16936028373750037
K_12_16 (L_12 L_16) 0.17368349299326868
K_12_17 (L_12 L_17) 0.176293297297776
K_12_18 (L_12 L_18) 0.17700997068637658
K_12_19 (L_12 L_19) -0.0668303013319249
K_12_20 (L_12 L_20) -0.06702505718725381
K_12_21 (L_12 L_21) -0.06714324803948814
K_12_22 (L_12 L_22) -0.06719188822277389
K_12_23 (L_12 L_23) -0.0671772062203531
K_12_24 (L_12 L_24) -0.0671058690797152
K_13_14 (L_13 L_14) 0.9203705109267113
K_13_15 (L_13 L_15) 0.8278527668680657
K_13_16 (L_13 L_16) 0.750145147520817
K_13_17 (L_13 L_17) 0.6839684247807543
K_13_18 (L_13 L_18) 0.627035248471325
K_13_19 (L_13 L_19) 0.18007562914792327
K_13_20 (L_13 L_20) 0.17818756632113297
K_13_21 (L_13 L_21) 0.17417546787859545
K_13_22 (L_13 L_22) 0.16893494399723172
K_13_23 (L_13 L_23) 0.1630011404180655
K_13_24 (L_13 L_24) 0.15670985671863602
K_14_15 (L_14 L_15) 0.922245692857446
K_14_16 (L_14 L_16) 0.8317212537108305
K_14_17 (L_14 L_17) 0.7554851032053845
K_14_18 (L_14 L_18) 0.6903772322910265
K_14_19 (L_14 L_19) 0.178187566321133
K_14_20 (L_14 L_20) 0.17928685059927216
K_14_21 (L_14 L_21) 0.177635175468742
K_14_22 (L_14 L_22) 0.1740107966916298
K_14_23 (L_14 L_23) 0.16916953251701383
K_14_24 (L_14 L_24) 0.1636087598547699
K_15_16 (L_15 L_16) 0.9239333951409391
K_15_17 (L_15 L_17) 0.835240619857055
K_15_18 (L_15 L_18) 0.7603613834354649
K_15_19 (L_15 L_19) 0.17417546787859542
K_15_20 (L_15 L_20) 0.1776351754687419
K_15_21 (L_15 L_21) 0.17861166045713384
K_15_22 (L_15 L_22) 0.17714506951149775
K_15_23 (L_15 L_23) 0.17384724966519652
K_15_24 (L_15 L_24) 0.1693602837375004
K_16_17 (L_16 L_17) 0.9254805017034504
K_16_18 (L_16 L_18) 0.8384609992301928
K_16_19 (L_16 L_19) 0.1689349439972317
K_16_20 (L_16 L_20) 0.17401079669162986
K_16_21 (L_16 L_21) 0.1771450695114979
K_16_22 (L_16 L_22) 0.17802073108767158
K_16_23 (L_16 L_23) 0.1767014992563293
K_16_24 (L_16 L_24) 0.17368349299326868
K_17_18 (L_17 L_18) 0.9268884797568286
K_17_19 (L_17 L_19) 0.16300114041806552
K_17_20 (L_17 L_20) 0.16916953251701383
K_17_21 (L_17 L_21) 0.1738472496651966
K_17_22 (L_17 L_22) 0.17670149925632928
K_17_23 (L_17 L_23) 0.1774905336716945
K_17_24 (L_17 L_24) 0.176293297297776
K_18_19 (L_18 L_19) 0.15670985671863602
K_18_20 (L_18 L_20) 0.16360875985476994
K_18_21 (L_18 L_21) 0.16936028373750034
K_18_22 (L_18 L_22) 0.1736834929932686
K_18_23 (L_18 L_23) 0.176293297297776
K_18_24 (L_18 L_24) 0.17700997068637656
K_19_20 (L_19 L_20) 0.9203705109267113
K_19_21 (L_19 L_21) 0.8278527668680659
K_19_22 (L_19 L_22) 0.7501451475208168
K_19_23 (L_19 L_23) 0.6839684247807541
K_19_24 (L_19 L_24) 0.627035248471325
K_20_21 (L_20 L_21) 0.9222456928574458
K_20_22 (L_20 L_22) 0.83172125371083
K_20_23 (L_20 L_23) 0.7554851032053849
K_20_24 (L_20 L_24) 0.6903772322910265
K_21_22 (L_21 L_22) 0.9239333951409389
K_21_23 (L_21 L_23) 0.8352406198570551
K_21_24 (L_21 L_24) 0.760361383435465
K_22_23 (L_22 L_23) 0.9254805017034501
K_22_24 (L_22 L_24) 0.8384609992301927
K_23_24 (L_23 L_24) 0.9268884797568286
* Voltage source
V_AC (24out 1in) AC 1
* Connection between local ground and last node
V_localGround (00_mGND 24out) 0
* Voltage measurement
E_total_voltage (0 0total_voltage) VALUE = {V(1in)-V(24out)}
* Resistance to ground
R_GND (0 00_mGND) 1e6
.OPTION
+ RELTOL=0.01
+ VNTOL=0.000001
+ ABSTOL=0.0000000001
+ CHGTOL=0.00000000000001
+ GMIN=0.0000000001
+ ITL1=400
+ ITL2=20
+ ITL4=400
+ TNOM=27
+ NUMDGT=8

.AUTOCONVERGE
+ RELTOL=0.05
+ VNTOL=0.001
+ ABSTOL=0.00001
+ ITL1=1000
+ ITL2=1000
+ ITL4=1000
+ PIVTOL=0.0000000001

.AC DEC 50 1Hz 200kHz

* Configuration file
.INC configurationFileFrequency.cir
.END

