1.9550E-02
1.9550E-02
1.9550E-02
1.9550E-02
1.9550E-02
1.9550E-02
1.9550E-02
1.9550E-02
1.9550E-02
1.9550E-02
1.9550E-02
1.9550E-02
1.9550E-02
1.9550E-02
1.9550E-02
1.9550E-02
1.9550E-02
1.9550E-02
1.9550E-02
1.9550E-02
1.9550E-02
1.9550E-02
1.9550E-02
1.9550E-02
1.9550E-02
1.9550E-02
1.9550E-02
1.9550E-02
1.9550E-02
1.9550E-02
1.9550E-02
1.9550E-02
1.9550E-02
1.9550E-02
1.9550E-02
1.9550E-02
1.9550E-02
1.9550E-02
1.9550E-02
1.9550E-02
1.9550E-02
1.9550E-02
1.9550E-02
1.9550E-02
1.9550E-02
1.9550E-02
1.9550E-02
1.9550E-02
1.9550E-02
1.9550E-02
