

* PSPICE Netlist Simulation File
* Generated on 2020/12/17 12:53:11 at CERN
* Authors: STEAM
.STMLIB C:\GitLabRepository\steam-pspice-library\Stimuli\I_PC_RQX.stl
.LIB "C:\GitLabRepository\steam-pspice-library\power_supply\Items\RQX_PCs.lib"
.LIB "C:\GitLabRepository\steam-pspice-library\power_supply\Items\RQX_Diodes.lib"
.LIB "C:\GitLabRepository\steam-pspice-library\power_supply\Items\RQX_Busbars.lib"
.LIB "C:\GitLabRepository\steam-pspice-library\power_supply\Items\RQX_Thyristors.lib"
**** Global parameters ****
.PARAM
+ #Magnets={4} 
+ L_MQXA={0.0907} 
+ L_MQXB={0.0185} 
+ C_ground_MQXA={5.00E-08} 
+ C_ground_MQXB={5.00E-08} 
+ R_parallel={1.00E+03} 
+ R1={385u} 
+ R2={330u} 
+ R3={330u} 
+ R4={240u} 
+ k_I={1} 
+ rc_par={10m} 
+ l_par={2u} 
+ c_par={300m} 

**** Main circuit ****
* RQX power supply
x_RQX (101 104) PC_RQX
*
* RTQX1 power supply
x_RTQX1 (101 102) PC_RTQX1
*
* RTQX2 power supply
x_RTQX2 (102 103) PC_RTQX2
*
* Free-wheel Diode
x_FWD (103 104) FWD
*
* Busbars
R1 (101 201) {R1}
R2 (102 202) {R2}
R3 (103 203) {R3}
R4 (104 204) {R4}
*
* Magnets
L_Q1 (202 201) {L_MQXA}
L_Q2a (202b 202) {L_MQXB}
L_Q2b (203 202b) {L_MQXB}
L_Q3 (204 203) {L_MQXA}
*
* Earthing circuit
Vg (102 0) {0}
*
.OPTION
+ RELTOL=0.0001
+ VNTOL=0.00001
+ ABSTOL=0.0001
+ CHGTOL=0.000000000000001
+ GMIN=0.000000000001
+ ITL1=150
+ ITL2=20
+ ITL4=10
+ TNOM=27

.AUTOCONVERGE
+ RELTOL=0.05
+ VNTOL=0.0001
+ ABSTOL=0.0001
+ ITL1=1000
+ ITL2=1000
+ ITL4=1000
+ PIVTOL=0.0000000001


.TRAN 0.0 2000.0 0.1 
+ {SCHEDULE(
+ 0.0,		 0.5,
+ 999.0,		 1.0E-4,
+ 1000.7,		 0.5
+ )}

.PROBE
.END

