{
    "coSimulationDir": "C:\\cernbox\\COSIM\\Output\\",
    "coSimulationModelSolvers": [
        "PSPICE",
        "LEDET"
    ],
    "coSimulationModelDirs": [
        "C:\\cernbox\\SWAN_projects\\steam-notebooks\\steam-sing-input\\ROD_ROF\\cosim_model_ROD.A12B1\\PSpice\\",
        "C:\\cernbox\\SWAN_projects\\steam-notebooks\\steam-sing-input\\ROD_ROF\\cosim_model_ROD.A12B1\\LEDET\\"
    ],
    "coSimulationModelConfigs": [
        "PSpiceConfig.json",
        "LedetConfig.json"
    ],
    "coSimulationPortDefinitions": [
        "PSpiceInputOutputPortDefinition.json",
        "LedetInputOutputPortDefinition.json"
    ],
    "convergenceVariables": [
        "I(x_mag_1.L_1)",
        "U_inductive_dynamic_CoilSections_1"
    ],
    "t_0": [
        0,
        2e-05
    ],
    "t_end": [
        2e-05,
        0.5
    ],
    "t_step_max": [
        [
            1e-05,
            1e-05
        ],
        [
            1e-05,
            1e-05
        ]
    ],
    "relTolerance": [
        0.0001,
        null
    ],
    "absTolerance": [
        1,
        null
    ],
    "executionOrder": [
        1,
        2
    ],
    "executeCleanRun": [
        true,
        true
    ]
}