

* PSPICE Netlist Simulation File
* Generated on 2020/12/18 14:50:27 at CERN
* Authors: STEAM
.LIB "C:\GitLabRepository\steam-pspice-library\magnet_frequency\Items\MQ_1AP_groups.lib"
**** Global parameters ****
.PARAM
+ L_BUSBAR_1_MQ_1AP={1e-09} 
+ R_PARALLEL_1_MQ_1AP={20.0} 
+ C_PARALLEL_1_MQ_1AP={1e-15} 
+ R_SERIES={100.0} 
+ F_SCALE_C_GROUND={1.0} 
+ F_SCALE_C_T2T={1.0} 
+ F_SCALE_L={1.0} 
+ F_SCALE_R={1.0} 

* Magnet types:
* ['MQ_1AP']
* .STEP PARAM R_Par 10k, 100k, 10k
* Circuit:
R_Series (0series_in 0series_out) {R_SERIES}
* Cell: 1
L_BUSBAR_1_MQ_1AP_N_1 (0series_out 1mid) {L_BUSBAR_1_MQ_1AP}
x_1_MQ_1AP_N_1 (1mid 1out 0) MQ_1AP_groups
+ PARAMS: F_SCALE_C_GROUND={F_SCALE_C_GROUND} F_SCALE_C_T2T={F_SCALE_C_T2T} 
+ F_SCALE_L={F_SCALE_L} F_SCALE_R={F_SCALE_R} 
R_PAR_1_MQ_1AP_N_1 (1mid 1out) {R_PARALLEL_1_MQ_1AP}
C_PAR_1_MQ_1AP_N_1 (1mid 1out) {C_PARALLEL_1_MQ_1AP}
* Cell: 2
L_BUSBAR_1_MQ_1AP_N_2 (1out 2mid) {L_BUSBAR_1_MQ_1AP}
x_1_MQ_1AP_N_2 (2mid 2out 0) MQ_1AP_groups
+ PARAMS: F_SCALE_C_GROUND={F_SCALE_C_GROUND} F_SCALE_C_T2T={F_SCALE_C_T2T} 
+ F_SCALE_L={F_SCALE_L} F_SCALE_R={F_SCALE_R} 
R_PAR_1_MQ_1AP_N_2 (2mid 2out) {R_PARALLEL_1_MQ_1AP}
C_PAR_1_MQ_1AP_N_2 (2mid 2out) {C_PARALLEL_1_MQ_1AP}
* Cell: 3
L_BUSBAR_1_MQ_1AP_N_3 (2out 3mid) {L_BUSBAR_1_MQ_1AP}
x_1_MQ_1AP_N_3 (3mid 3out 0) MQ_1AP_groups
+ PARAMS: F_SCALE_C_GROUND={F_SCALE_C_GROUND} F_SCALE_C_T2T={F_SCALE_C_T2T} 
+ F_SCALE_L={F_SCALE_L} F_SCALE_R={F_SCALE_R} 
R_PAR_1_MQ_1AP_N_3 (3mid 3out) {R_PARALLEL_1_MQ_1AP}
C_PAR_1_MQ_1AP_N_3 (3mid 3out) {C_PARALLEL_1_MQ_1AP}
* Cell: 4
L_BUSBAR_1_MQ_1AP_N_4 (3out 4mid) {L_BUSBAR_1_MQ_1AP}
x_1_MQ_1AP_N_4 (4mid 4out 0) MQ_1AP_groups
+ PARAMS: F_SCALE_C_GROUND={F_SCALE_C_GROUND} F_SCALE_C_T2T={F_SCALE_C_T2T} 
+ F_SCALE_L={F_SCALE_L} F_SCALE_R={F_SCALE_R} 
R_PAR_1_MQ_1AP_N_4 (4mid 4out) {R_PARALLEL_1_MQ_1AP}
C_PAR_1_MQ_1AP_N_4 (4mid 4out) {C_PARALLEL_1_MQ_1AP}
* Cell: 5
L_BUSBAR_1_MQ_1AP_N_5 (4out 5mid) {L_BUSBAR_1_MQ_1AP}
x_1_MQ_1AP_N_5 (5mid 5out 0) MQ_1AP_groups
+ PARAMS: F_SCALE_C_GROUND={F_SCALE_C_GROUND} F_SCALE_C_T2T={F_SCALE_C_T2T} 
+ F_SCALE_L={F_SCALE_L} F_SCALE_R={F_SCALE_R} 
R_PAR_1_MQ_1AP_N_5 (5mid 5out) {R_PARALLEL_1_MQ_1AP}
C_PAR_1_MQ_1AP_N_5 (5mid 5out) {C_PARALLEL_1_MQ_1AP}
* Cell: 6
L_BUSBAR_1_MQ_1AP_N_6 (5out 6mid) {L_BUSBAR_1_MQ_1AP}
x_1_MQ_1AP_N_6 (6mid 6out 0) MQ_1AP_groups
+ PARAMS: F_SCALE_C_GROUND={F_SCALE_C_GROUND} F_SCALE_C_T2T={F_SCALE_C_T2T} 
+ F_SCALE_L={F_SCALE_L} F_SCALE_R={F_SCALE_R} 
R_PAR_1_MQ_1AP_N_6 (6mid 6out) {R_PARALLEL_1_MQ_1AP}
C_PAR_1_MQ_1AP_N_6 (6mid 6out) {C_PARALLEL_1_MQ_1AP}
* Cell: 7
L_BUSBAR_1_MQ_1AP_N_7 (6out 7mid) {L_BUSBAR_1_MQ_1AP}
x_1_MQ_1AP_N_7 (7mid 7out 0) MQ_1AP_groups
+ PARAMS: F_SCALE_C_GROUND={F_SCALE_C_GROUND} F_SCALE_C_T2T={F_SCALE_C_T2T} 
+ F_SCALE_L={F_SCALE_L} F_SCALE_R={F_SCALE_R} 
R_PAR_1_MQ_1AP_N_7 (7mid 7out) {R_PARALLEL_1_MQ_1AP}
C_PAR_1_MQ_1AP_N_7 (7mid 7out) {C_PARALLEL_1_MQ_1AP}
* Cell: 8
L_BUSBAR_1_MQ_1AP_N_8 (7out 8mid) {L_BUSBAR_1_MQ_1AP}
x_1_MQ_1AP_N_8 (8mid 8out 0) MQ_1AP_groups
+ PARAMS: F_SCALE_C_GROUND={F_SCALE_C_GROUND} F_SCALE_C_T2T={F_SCALE_C_T2T} 
+ F_SCALE_L={F_SCALE_L} F_SCALE_R={F_SCALE_R} 
R_PAR_1_MQ_1AP_N_8 (8mid 8out) {R_PARALLEL_1_MQ_1AP}
C_PAR_1_MQ_1AP_N_8 (8mid 8out) {C_PARALLEL_1_MQ_1AP}
* Cell: 9
L_BUSBAR_1_MQ_1AP_N_9 (8out 9mid) {L_BUSBAR_1_MQ_1AP}
x_1_MQ_1AP_N_9 (9mid 9out 0) MQ_1AP_groups
+ PARAMS: F_SCALE_C_GROUND={F_SCALE_C_GROUND} F_SCALE_C_T2T={F_SCALE_C_T2T} 
+ F_SCALE_L={F_SCALE_L} F_SCALE_R={F_SCALE_R} 
R_PAR_1_MQ_1AP_N_9 (9mid 9out) {R_PARALLEL_1_MQ_1AP}
C_PAR_1_MQ_1AP_N_9 (9mid 9out) {C_PARALLEL_1_MQ_1AP}
* Cell: 10
L_BUSBAR_1_MQ_1AP_N_10 (9out 10mid) {L_BUSBAR_1_MQ_1AP}
x_1_MQ_1AP_N_10 (10mid 10out 0) MQ_1AP_groups
+ PARAMS: F_SCALE_C_GROUND={F_SCALE_C_GROUND} F_SCALE_C_T2T={F_SCALE_C_T2T} 
+ F_SCALE_L={F_SCALE_L} F_SCALE_R={F_SCALE_R} 
R_PAR_1_MQ_1AP_N_10 (10mid 10out) {R_PARALLEL_1_MQ_1AP}
C_PAR_1_MQ_1AP_N_10 (10mid 10out) {C_PARALLEL_1_MQ_1AP}
* Cell: 11
L_BUSBAR_1_MQ_1AP_N_11 (10out 11mid) {L_BUSBAR_1_MQ_1AP}
x_1_MQ_1AP_N_11 (11mid 11out 0) MQ_1AP_groups
+ PARAMS: F_SCALE_C_GROUND={F_SCALE_C_GROUND} F_SCALE_C_T2T={F_SCALE_C_T2T} 
+ F_SCALE_L={F_SCALE_L} F_SCALE_R={F_SCALE_R} 
R_PAR_1_MQ_1AP_N_11 (11mid 11out) {R_PARALLEL_1_MQ_1AP}
C_PAR_1_MQ_1AP_N_11 (11mid 11out) {C_PARALLEL_1_MQ_1AP}
* Cell: 12
L_BUSBAR_1_MQ_1AP_N_12 (11out 12mid) {L_BUSBAR_1_MQ_1AP}
x_1_MQ_1AP_N_12 (12mid 12out 0) MQ_1AP_groups
+ PARAMS: F_SCALE_C_GROUND={F_SCALE_C_GROUND} F_SCALE_C_T2T={F_SCALE_C_T2T} 
+ F_SCALE_L={F_SCALE_L} F_SCALE_R={F_SCALE_R} 
R_PAR_1_MQ_1AP_N_12 (12mid 12out) {R_PARALLEL_1_MQ_1AP}
C_PAR_1_MQ_1AP_N_12 (12mid 12out) {C_PARALLEL_1_MQ_1AP}
* Cell: 13
L_BUSBAR_1_MQ_1AP_N_13 (12out 13mid) {L_BUSBAR_1_MQ_1AP}
x_1_MQ_1AP_N_13 (13mid 13out 0) MQ_1AP_groups
+ PARAMS: F_SCALE_C_GROUND={F_SCALE_C_GROUND} F_SCALE_C_T2T={F_SCALE_C_T2T} 
+ F_SCALE_L={F_SCALE_L} F_SCALE_R={F_SCALE_R} 
R_PAR_1_MQ_1AP_N_13 (13mid 13out) {R_PARALLEL_1_MQ_1AP}
C_PAR_1_MQ_1AP_N_13 (13mid 13out) {C_PARALLEL_1_MQ_1AP}
* Cell: 14
L_BUSBAR_1_MQ_1AP_N_14 (13out 14mid) {L_BUSBAR_1_MQ_1AP}
x_1_MQ_1AP_N_14 (14mid 14out 0) MQ_1AP_groups
+ PARAMS: F_SCALE_C_GROUND={F_SCALE_C_GROUND} F_SCALE_C_T2T={F_SCALE_C_T2T} 
+ F_SCALE_L={F_SCALE_L} F_SCALE_R={F_SCALE_R} 
R_PAR_1_MQ_1AP_N_14 (14mid 14out) {R_PARALLEL_1_MQ_1AP}
C_PAR_1_MQ_1AP_N_14 (14mid 14out) {C_PARALLEL_1_MQ_1AP}
* Cell: 15
L_BUSBAR_1_MQ_1AP_N_15 (14out 15mid) {L_BUSBAR_1_MQ_1AP}
x_1_MQ_1AP_N_15 (15mid 15out 0) MQ_1AP_groups
+ PARAMS: F_SCALE_C_GROUND={F_SCALE_C_GROUND} F_SCALE_C_T2T={F_SCALE_C_T2T} 
+ F_SCALE_L={F_SCALE_L} F_SCALE_R={F_SCALE_R} 
R_PAR_1_MQ_1AP_N_15 (15mid 15out) {R_PARALLEL_1_MQ_1AP}
C_PAR_1_MQ_1AP_N_15 (15mid 15out) {C_PARALLEL_1_MQ_1AP}
* Cell: 16
L_BUSBAR_1_MQ_1AP_N_16 (15out 16mid) {L_BUSBAR_1_MQ_1AP}
x_1_MQ_1AP_N_16 (16mid 16out 0) MQ_1AP_groups
+ PARAMS: F_SCALE_C_GROUND={F_SCALE_C_GROUND} F_SCALE_C_T2T={F_SCALE_C_T2T} 
+ F_SCALE_L={F_SCALE_L} F_SCALE_R={F_SCALE_R} 
R_PAR_1_MQ_1AP_N_16 (16mid 16out) {R_PARALLEL_1_MQ_1AP}
C_PAR_1_MQ_1AP_N_16 (16mid 16out) {C_PARALLEL_1_MQ_1AP}
* Cell: 17
L_BUSBAR_1_MQ_1AP_N_17 (16out 17mid) {L_BUSBAR_1_MQ_1AP}
x_1_MQ_1AP_N_17 (17mid 17out 0) MQ_1AP_groups
+ PARAMS: F_SCALE_C_GROUND={F_SCALE_C_GROUND} F_SCALE_C_T2T={F_SCALE_C_T2T} 
+ F_SCALE_L={F_SCALE_L} F_SCALE_R={F_SCALE_R} 
R_PAR_1_MQ_1AP_N_17 (17mid 17out) {R_PARALLEL_1_MQ_1AP}
C_PAR_1_MQ_1AP_N_17 (17mid 17out) {C_PARALLEL_1_MQ_1AP}
* Cell: 18
L_BUSBAR_1_MQ_1AP_N_18 (17out 18mid) {L_BUSBAR_1_MQ_1AP}
x_1_MQ_1AP_N_18 (18mid 18out 0) MQ_1AP_groups
+ PARAMS: F_SCALE_C_GROUND={F_SCALE_C_GROUND} F_SCALE_C_T2T={F_SCALE_C_T2T} 
+ F_SCALE_L={F_SCALE_L} F_SCALE_R={F_SCALE_R} 
R_PAR_1_MQ_1AP_N_18 (18mid 18out) {R_PARALLEL_1_MQ_1AP}
C_PAR_1_MQ_1AP_N_18 (18mid 18out) {C_PARALLEL_1_MQ_1AP}
* Cell: 19
L_BUSBAR_1_MQ_1AP_N_19 (18out 19mid) {L_BUSBAR_1_MQ_1AP}
x_1_MQ_1AP_N_19 (19mid 19out 0) MQ_1AP_groups
+ PARAMS: F_SCALE_C_GROUND={F_SCALE_C_GROUND} F_SCALE_C_T2T={F_SCALE_C_T2T} 
+ F_SCALE_L={F_SCALE_L} F_SCALE_R={F_SCALE_R} 
R_PAR_1_MQ_1AP_N_19 (19mid 19out) {R_PARALLEL_1_MQ_1AP}
C_PAR_1_MQ_1AP_N_19 (19mid 19out) {C_PARALLEL_1_MQ_1AP}
* Cell: 20
L_BUSBAR_1_MQ_1AP_N_20 (19out 20mid) {L_BUSBAR_1_MQ_1AP}
x_1_MQ_1AP_N_20 (20mid 20out 0) MQ_1AP_groups
+ PARAMS: F_SCALE_C_GROUND={F_SCALE_C_GROUND} F_SCALE_C_T2T={F_SCALE_C_T2T} 
+ F_SCALE_L={F_SCALE_L} F_SCALE_R={F_SCALE_R} 
R_PAR_1_MQ_1AP_N_20 (20mid 20out) {R_PARALLEL_1_MQ_1AP}
C_PAR_1_MQ_1AP_N_20 (20mid 20out) {C_PARALLEL_1_MQ_1AP}
* Cell: 21
L_BUSBAR_1_MQ_1AP_N_21 (20out 21mid) {L_BUSBAR_1_MQ_1AP}
x_1_MQ_1AP_N_21 (21mid 21out 0) MQ_1AP_groups
+ PARAMS: F_SCALE_C_GROUND={F_SCALE_C_GROUND} F_SCALE_C_T2T={F_SCALE_C_T2T} 
+ F_SCALE_L={F_SCALE_L} F_SCALE_R={F_SCALE_R} 
R_PAR_1_MQ_1AP_N_21 (21mid 21out) {R_PARALLEL_1_MQ_1AP}
C_PAR_1_MQ_1AP_N_21 (21mid 21out) {C_PARALLEL_1_MQ_1AP}
* Cell: 22
L_BUSBAR_1_MQ_1AP_N_22 (21out 22mid) {L_BUSBAR_1_MQ_1AP}
x_1_MQ_1AP_N_22 (22mid 22out 0) MQ_1AP_groups
+ PARAMS: F_SCALE_C_GROUND={F_SCALE_C_GROUND} F_SCALE_C_T2T={F_SCALE_C_T2T} 
+ F_SCALE_L={F_SCALE_L} F_SCALE_R={F_SCALE_R} 
R_PAR_1_MQ_1AP_N_22 (22mid 22out) {R_PARALLEL_1_MQ_1AP}
C_PAR_1_MQ_1AP_N_22 (22mid 22out) {C_PARALLEL_1_MQ_1AP}
* Cell: 23
L_BUSBAR_1_MQ_1AP_N_23 (22out 23mid) {L_BUSBAR_1_MQ_1AP}
x_1_MQ_1AP_N_23 (23mid 23out 0) MQ_1AP_groups
+ PARAMS: F_SCALE_C_GROUND={F_SCALE_C_GROUND} F_SCALE_C_T2T={F_SCALE_C_T2T} 
+ F_SCALE_L={F_SCALE_L} F_SCALE_R={F_SCALE_R} 
R_PAR_1_MQ_1AP_N_23 (23mid 23out) {R_PARALLEL_1_MQ_1AP}
C_PAR_1_MQ_1AP_N_23 (23mid 23out) {C_PARALLEL_1_MQ_1AP}
* Cell: 24
L_BUSBAR_1_MQ_1AP_N_24 (23out 24mid) {L_BUSBAR_1_MQ_1AP}
x_1_MQ_1AP_N_24 (24mid 24out 0) MQ_1AP_groups
+ PARAMS: F_SCALE_C_GROUND={F_SCALE_C_GROUND} F_SCALE_C_T2T={F_SCALE_C_T2T} 
+ F_SCALE_L={F_SCALE_L} F_SCALE_R={F_SCALE_R} 
R_PAR_1_MQ_1AP_N_24 (24mid 24out) {R_PARALLEL_1_MQ_1AP}
C_PAR_1_MQ_1AP_N_24 (24mid 24out) {C_PARALLEL_1_MQ_1AP}
* Cell: 25
L_BUSBAR_1_MQ_1AP_N_25 (24out 25mid) {L_BUSBAR_1_MQ_1AP}
x_1_MQ_1AP_N_25 (25mid 25out 0) MQ_1AP_groups
+ PARAMS: F_SCALE_C_GROUND={F_SCALE_C_GROUND} F_SCALE_C_T2T={F_SCALE_C_T2T} 
+ F_SCALE_L={F_SCALE_L} F_SCALE_R={F_SCALE_R} 
R_PAR_1_MQ_1AP_N_25 (25mid 25out) {R_PARALLEL_1_MQ_1AP}
C_PAR_1_MQ_1AP_N_25 (25mid 25out) {C_PARALLEL_1_MQ_1AP}
* Cell: 26
L_BUSBAR_1_MQ_1AP_N_26 (25out 26mid) {L_BUSBAR_1_MQ_1AP}
x_1_MQ_1AP_N_26 (26mid 26out 0) MQ_1AP_groups
+ PARAMS: F_SCALE_C_GROUND={F_SCALE_C_GROUND} F_SCALE_C_T2T={F_SCALE_C_T2T} 
+ F_SCALE_L={F_SCALE_L} F_SCALE_R={F_SCALE_R} 
R_PAR_1_MQ_1AP_N_26 (26mid 26out) {R_PARALLEL_1_MQ_1AP}
C_PAR_1_MQ_1AP_N_26 (26mid 26out) {C_PARALLEL_1_MQ_1AP}
* Cell: 27
L_BUSBAR_1_MQ_1AP_N_27 (26out 27mid) {L_BUSBAR_1_MQ_1AP}
x_1_MQ_1AP_N_27 (27mid 27out 0) MQ_1AP_groups
+ PARAMS: F_SCALE_C_GROUND={F_SCALE_C_GROUND} F_SCALE_C_T2T={F_SCALE_C_T2T} 
+ F_SCALE_L={F_SCALE_L} F_SCALE_R={F_SCALE_R} 
R_PAR_1_MQ_1AP_N_27 (27mid 27out) {R_PARALLEL_1_MQ_1AP}
C_PAR_1_MQ_1AP_N_27 (27mid 27out) {C_PARALLEL_1_MQ_1AP}
* Cell: 28
L_BUSBAR_1_MQ_1AP_N_28 (27out 28mid) {L_BUSBAR_1_MQ_1AP}
x_1_MQ_1AP_N_28 (28mid 28out 0) MQ_1AP_groups
+ PARAMS: F_SCALE_C_GROUND={F_SCALE_C_GROUND} F_SCALE_C_T2T={F_SCALE_C_T2T} 
+ F_SCALE_L={F_SCALE_L} F_SCALE_R={F_SCALE_R} 
R_PAR_1_MQ_1AP_N_28 (28mid 28out) {R_PARALLEL_1_MQ_1AP}
C_PAR_1_MQ_1AP_N_28 (28mid 28out) {C_PARALLEL_1_MQ_1AP}
* Cell: 29
L_BUSBAR_1_MQ_1AP_N_29 (28out 29mid) {L_BUSBAR_1_MQ_1AP}
x_1_MQ_1AP_N_29 (29mid 29out 0) MQ_1AP_groups
+ PARAMS: F_SCALE_C_GROUND={F_SCALE_C_GROUND} F_SCALE_C_T2T={F_SCALE_C_T2T} 
+ F_SCALE_L={F_SCALE_L} F_SCALE_R={F_SCALE_R} 
R_PAR_1_MQ_1AP_N_29 (29mid 29out) {R_PARALLEL_1_MQ_1AP}
C_PAR_1_MQ_1AP_N_29 (29mid 29out) {C_PARALLEL_1_MQ_1AP}
* Cell: 30
L_BUSBAR_1_MQ_1AP_N_30 (29out 30mid) {L_BUSBAR_1_MQ_1AP}
x_1_MQ_1AP_N_30 (30mid 30out 0) MQ_1AP_groups
+ PARAMS: F_SCALE_C_GROUND={F_SCALE_C_GROUND} F_SCALE_C_T2T={F_SCALE_C_T2T} 
+ F_SCALE_L={F_SCALE_L} F_SCALE_R={F_SCALE_R} 
R_PAR_1_MQ_1AP_N_30 (30mid 30out) {R_PARALLEL_1_MQ_1AP}
C_PAR_1_MQ_1AP_N_30 (30mid 30out) {C_PARALLEL_1_MQ_1AP}
* Cell: 31
L_BUSBAR_1_MQ_1AP_N_31 (30out 31mid) {L_BUSBAR_1_MQ_1AP}
x_1_MQ_1AP_N_31 (31mid 31out 0) MQ_1AP_groups
+ PARAMS: F_SCALE_C_GROUND={F_SCALE_C_GROUND} F_SCALE_C_T2T={F_SCALE_C_T2T} 
+ F_SCALE_L={F_SCALE_L} F_SCALE_R={F_SCALE_R} 
R_PAR_1_MQ_1AP_N_31 (31mid 31out) {R_PARALLEL_1_MQ_1AP}
C_PAR_1_MQ_1AP_N_31 (31mid 31out) {C_PARALLEL_1_MQ_1AP}
* Cell: 32
L_BUSBAR_1_MQ_1AP_N_32 (31out 32mid) {L_BUSBAR_1_MQ_1AP}
x_1_MQ_1AP_N_32 (32mid 32out 0) MQ_1AP_groups
+ PARAMS: F_SCALE_C_GROUND={F_SCALE_C_GROUND} F_SCALE_C_T2T={F_SCALE_C_T2T} 
+ F_SCALE_L={F_SCALE_L} F_SCALE_R={F_SCALE_R} 
R_PAR_1_MQ_1AP_N_32 (32mid 32out) {R_PARALLEL_1_MQ_1AP}
C_PAR_1_MQ_1AP_N_32 (32mid 32out) {C_PARALLEL_1_MQ_1AP}
* Cell: 33
L_BUSBAR_1_MQ_1AP_N_33 (32out 33mid) {L_BUSBAR_1_MQ_1AP}
x_1_MQ_1AP_N_33 (33mid 33out 0) MQ_1AP_groups
+ PARAMS: F_SCALE_C_GROUND={F_SCALE_C_GROUND} F_SCALE_C_T2T={F_SCALE_C_T2T} 
+ F_SCALE_L={F_SCALE_L} F_SCALE_R={F_SCALE_R} 
R_PAR_1_MQ_1AP_N_33 (33mid 33out) {R_PARALLEL_1_MQ_1AP}
C_PAR_1_MQ_1AP_N_33 (33mid 33out) {C_PARALLEL_1_MQ_1AP}
* Cell: 34
L_BUSBAR_1_MQ_1AP_N_34 (33out 34mid) {L_BUSBAR_1_MQ_1AP}
x_1_MQ_1AP_N_34 (34mid 34out 0) MQ_1AP_groups
+ PARAMS: F_SCALE_C_GROUND={F_SCALE_C_GROUND} F_SCALE_C_T2T={F_SCALE_C_T2T} 
+ F_SCALE_L={F_SCALE_L} F_SCALE_R={F_SCALE_R} 
R_PAR_1_MQ_1AP_N_34 (34mid 34out) {R_PARALLEL_1_MQ_1AP}
C_PAR_1_MQ_1AP_N_34 (34mid 34out) {C_PARALLEL_1_MQ_1AP}
* Cell: 35
L_BUSBAR_1_MQ_1AP_N_35 (34out 35mid) {L_BUSBAR_1_MQ_1AP}
x_1_MQ_1AP_N_35 (35mid 35out 0) MQ_1AP_groups
+ PARAMS: F_SCALE_C_GROUND={F_SCALE_C_GROUND} F_SCALE_C_T2T={F_SCALE_C_T2T} 
+ F_SCALE_L={F_SCALE_L} F_SCALE_R={F_SCALE_R} 
R_PAR_1_MQ_1AP_N_35 (35mid 35out) {R_PARALLEL_1_MQ_1AP}
C_PAR_1_MQ_1AP_N_35 (35mid 35out) {C_PARALLEL_1_MQ_1AP}
* Cell: 36
L_BUSBAR_1_MQ_1AP_N_36 (35out 36mid) {L_BUSBAR_1_MQ_1AP}
x_1_MQ_1AP_N_36 (36mid 36out 0) MQ_1AP_groups
+ PARAMS: F_SCALE_C_GROUND={F_SCALE_C_GROUND} F_SCALE_C_T2T={F_SCALE_C_T2T} 
+ F_SCALE_L={F_SCALE_L} F_SCALE_R={F_SCALE_R} 
R_PAR_1_MQ_1AP_N_36 (36mid 36out) {R_PARALLEL_1_MQ_1AP}
C_PAR_1_MQ_1AP_N_36 (36mid 36out) {C_PARALLEL_1_MQ_1AP}
* Cell: 37
L_BUSBAR_1_MQ_1AP_N_37 (36out 37mid) {L_BUSBAR_1_MQ_1AP}
x_1_MQ_1AP_N_37 (37mid 37out 0) MQ_1AP_groups
+ PARAMS: F_SCALE_C_GROUND={F_SCALE_C_GROUND} F_SCALE_C_T2T={F_SCALE_C_T2T} 
+ F_SCALE_L={F_SCALE_L} F_SCALE_R={F_SCALE_R} 
R_PAR_1_MQ_1AP_N_37 (37mid 37out) {R_PARALLEL_1_MQ_1AP}
C_PAR_1_MQ_1AP_N_37 (37mid 37out) {C_PARALLEL_1_MQ_1AP}
* Cell: 38
L_BUSBAR_1_MQ_1AP_N_38 (37out 38mid) {L_BUSBAR_1_MQ_1AP}
x_1_MQ_1AP_N_38 (38mid 38out 0) MQ_1AP_groups
+ PARAMS: F_SCALE_C_GROUND={F_SCALE_C_GROUND} F_SCALE_C_T2T={F_SCALE_C_T2T} 
+ F_SCALE_L={F_SCALE_L} F_SCALE_R={F_SCALE_R} 
R_PAR_1_MQ_1AP_N_38 (38mid 38out) {R_PARALLEL_1_MQ_1AP}
C_PAR_1_MQ_1AP_N_38 (38mid 38out) {C_PARALLEL_1_MQ_1AP}
* Cell: 39
L_BUSBAR_1_MQ_1AP_N_39 (38out 39mid) {L_BUSBAR_1_MQ_1AP}
x_1_MQ_1AP_N_39 (39mid 39out 0) MQ_1AP_groups
+ PARAMS: F_SCALE_C_GROUND={F_SCALE_C_GROUND} F_SCALE_C_T2T={F_SCALE_C_T2T} 
+ F_SCALE_L={F_SCALE_L} F_SCALE_R={F_SCALE_R} 
R_PAR_1_MQ_1AP_N_39 (39mid 39out) {R_PARALLEL_1_MQ_1AP}
C_PAR_1_MQ_1AP_N_39 (39mid 39out) {C_PARALLEL_1_MQ_1AP}
* Cell: 40
L_BUSBAR_1_MQ_1AP_N_40 (39out 40mid) {L_BUSBAR_1_MQ_1AP}
x_1_MQ_1AP_N_40 (40mid 40out 0) MQ_1AP_groups
+ PARAMS: F_SCALE_C_GROUND={F_SCALE_C_GROUND} F_SCALE_C_T2T={F_SCALE_C_T2T} 
+ F_SCALE_L={F_SCALE_L} F_SCALE_R={F_SCALE_R} 
R_PAR_1_MQ_1AP_N_40 (40mid 40out) {R_PARALLEL_1_MQ_1AP}
C_PAR_1_MQ_1AP_N_40 (40mid 40out) {C_PARALLEL_1_MQ_1AP}
* Cell: 41
L_BUSBAR_1_MQ_1AP_N_41 (40out 41mid) {L_BUSBAR_1_MQ_1AP}
x_1_MQ_1AP_N_41 (41mid 41out 0) MQ_1AP_groups
+ PARAMS: F_SCALE_C_GROUND={F_SCALE_C_GROUND} F_SCALE_C_T2T={F_SCALE_C_T2T} 
+ F_SCALE_L={F_SCALE_L} F_SCALE_R={F_SCALE_R} 
R_PAR_1_MQ_1AP_N_41 (41mid 41out) {R_PARALLEL_1_MQ_1AP}
C_PAR_1_MQ_1AP_N_41 (41mid 41out) {C_PARALLEL_1_MQ_1AP}
* Cell: 42
L_BUSBAR_1_MQ_1AP_N_42 (41out 42mid) {L_BUSBAR_1_MQ_1AP}
x_1_MQ_1AP_N_42 (42mid 42out 0) MQ_1AP_groups
+ PARAMS: F_SCALE_C_GROUND={F_SCALE_C_GROUND} F_SCALE_C_T2T={F_SCALE_C_T2T} 
+ F_SCALE_L={F_SCALE_L} F_SCALE_R={F_SCALE_R} 
R_PAR_1_MQ_1AP_N_42 (42mid 42out) {R_PARALLEL_1_MQ_1AP}
C_PAR_1_MQ_1AP_N_42 (42mid 42out) {C_PARALLEL_1_MQ_1AP}
* Cell: 43
L_BUSBAR_1_MQ_1AP_N_43 (42out 43mid) {L_BUSBAR_1_MQ_1AP}
x_1_MQ_1AP_N_43 (43mid 43out 0) MQ_1AP_groups
+ PARAMS: F_SCALE_C_GROUND={F_SCALE_C_GROUND} F_SCALE_C_T2T={F_SCALE_C_T2T} 
+ F_SCALE_L={F_SCALE_L} F_SCALE_R={F_SCALE_R} 
R_PAR_1_MQ_1AP_N_43 (43mid 43out) {R_PARALLEL_1_MQ_1AP}
C_PAR_1_MQ_1AP_N_43 (43mid 43out) {C_PARALLEL_1_MQ_1AP}
* Cell: 44
L_BUSBAR_1_MQ_1AP_N_44 (43out 44mid) {L_BUSBAR_1_MQ_1AP}
x_1_MQ_1AP_N_44 (44mid 44out 0) MQ_1AP_groups
+ PARAMS: F_SCALE_C_GROUND={F_SCALE_C_GROUND} F_SCALE_C_T2T={F_SCALE_C_T2T} 
+ F_SCALE_L={F_SCALE_L} F_SCALE_R={F_SCALE_R} 
R_PAR_1_MQ_1AP_N_44 (44mid 44out) {R_PARALLEL_1_MQ_1AP}
C_PAR_1_MQ_1AP_N_44 (44mid 44out) {C_PARALLEL_1_MQ_1AP}
* Cell: 45
L_BUSBAR_1_MQ_1AP_N_45 (44out 45mid) {L_BUSBAR_1_MQ_1AP}
x_1_MQ_1AP_N_45 (45mid 45out 0) MQ_1AP_groups
+ PARAMS: F_SCALE_C_GROUND={F_SCALE_C_GROUND} F_SCALE_C_T2T={F_SCALE_C_T2T} 
+ F_SCALE_L={F_SCALE_L} F_SCALE_R={F_SCALE_R} 
R_PAR_1_MQ_1AP_N_45 (45mid 45out) {R_PARALLEL_1_MQ_1AP}
C_PAR_1_MQ_1AP_N_45 (45mid 45out) {C_PARALLEL_1_MQ_1AP}
* Cell: 46
L_BUSBAR_1_MQ_1AP_N_46 (45out 46mid) {L_BUSBAR_1_MQ_1AP}
x_1_MQ_1AP_N_46 (46mid 46out 0) MQ_1AP_groups
+ PARAMS: F_SCALE_C_GROUND={F_SCALE_C_GROUND} F_SCALE_C_T2T={F_SCALE_C_T2T} 
+ F_SCALE_L={F_SCALE_L} F_SCALE_R={F_SCALE_R} 
R_PAR_1_MQ_1AP_N_46 (46mid 46out) {R_PARALLEL_1_MQ_1AP}
C_PAR_1_MQ_1AP_N_46 (46mid 46out) {C_PARALLEL_1_MQ_1AP}
* Cell: 47
L_BUSBAR_1_MQ_1AP_N_47 (46out 47mid) {L_BUSBAR_1_MQ_1AP}
x_1_MQ_1AP_N_47 (47mid 47out 0) MQ_1AP_groups
+ PARAMS: F_SCALE_C_GROUND={F_SCALE_C_GROUND} F_SCALE_C_T2T={F_SCALE_C_T2T} 
+ F_SCALE_L={F_SCALE_L} F_SCALE_R={F_SCALE_R} 
R_PAR_1_MQ_1AP_N_47 (47mid 47out) {R_PARALLEL_1_MQ_1AP}
C_PAR_1_MQ_1AP_N_47 (47mid 47out) {C_PARALLEL_1_MQ_1AP}
* Cell: 48
L_BUSBAR_1_MQ_1AP_N_48 (47out 48mid) {L_BUSBAR_1_MQ_1AP}
x_1_MQ_1AP_N_48 (48mid 48out 0) MQ_1AP_groups
+ PARAMS: F_SCALE_C_GROUND={F_SCALE_C_GROUND} F_SCALE_C_T2T={F_SCALE_C_T2T} 
+ F_SCALE_L={F_SCALE_L} F_SCALE_R={F_SCALE_R} 
R_PAR_1_MQ_1AP_N_48 (48mid 48out) {R_PARALLEL_1_MQ_1AP}
C_PAR_1_MQ_1AP_N_48 (48mid 48out) {C_PARALLEL_1_MQ_1AP}
* Cell: 49
L_BUSBAR_1_MQ_1AP_N_49 (48out 49mid) {L_BUSBAR_1_MQ_1AP}
x_1_MQ_1AP_N_49 (49mid 49out 0) MQ_1AP_groups
+ PARAMS: F_SCALE_C_GROUND={F_SCALE_C_GROUND} F_SCALE_C_T2T={F_SCALE_C_T2T} 
+ F_SCALE_L={F_SCALE_L} F_SCALE_R={F_SCALE_R} 
R_PAR_1_MQ_1AP_N_49 (49mid 49out) {R_PARALLEL_1_MQ_1AP}
C_PAR_1_MQ_1AP_N_49 (49mid 49out) {C_PARALLEL_1_MQ_1AP}
* Cell: 50
L_BUSBAR_1_MQ_1AP_N_50 (49out 50mid) {L_BUSBAR_1_MQ_1AP}
x_1_MQ_1AP_N_50 (50mid 50out 0) MQ_1AP_groups
+ PARAMS: F_SCALE_C_GROUND={F_SCALE_C_GROUND} F_SCALE_C_T2T={F_SCALE_C_T2T} 
+ F_SCALE_L={F_SCALE_L} F_SCALE_R={F_SCALE_R} 
R_PAR_1_MQ_1AP_N_50 (50mid 50out) {R_PARALLEL_1_MQ_1AP}
C_PAR_1_MQ_1AP_N_50 (50mid 50out) {C_PARALLEL_1_MQ_1AP}
* Cell: 51
L_BUSBAR_1_MQ_1AP_N_51 (50out 51mid) {L_BUSBAR_1_MQ_1AP}
x_1_MQ_1AP_N_51 (51mid 51out 0) MQ_1AP_groups
+ PARAMS: F_SCALE_C_GROUND={F_SCALE_C_GROUND} F_SCALE_C_T2T={F_SCALE_C_T2T} 
+ F_SCALE_L={F_SCALE_L} F_SCALE_R={F_SCALE_R} 
R_PAR_1_MQ_1AP_N_51 (51mid 51out) {R_PARALLEL_1_MQ_1AP}
C_PAR_1_MQ_1AP_N_51 (51mid 51out) {C_PARALLEL_1_MQ_1AP}
*Last busbar
L_BUSBAR_END (51out 0) {L_BUSBAR_1_MQ_1AP}
* Voltage source
V_AC (0 0series_in) AC 1
* Voltage measurement
E_total_voltage (0 0total_voltage) VALUE = {V(0series_out)-V(51out)}
.OPTION
+ RELTOL=0.01
+ VNTOL=0.000001
+ ABSTOL=0.0000000001
+ CHGTOL=0.00000000000001
+ GMIN=0.0000000001
+ ITL1=400
+ ITL2=20
+ ITL4=400
+ TNOM=27
+ NUMDGT=8

.AUTOCONVERGE
+ RELTOL=0.05
+ VNTOL=0.001
+ ABSTOL=0.00001
+ ITL1=1000
+ ITL2=1000
+ ITL4=1000
+ PIVTOL=0.0000000001

.AC DEC 50 1Hz 200kHz

* Configuration file
.INC configurationFileFrequency.cir
.END

