* PSPICE Netlist Simulation File
* Generated on 2021/03/22 12:20:42 at CERN
* Authors: STEAM
.STMLIB C:\GitLabRepository\steam-pspice-library\SIS100\Stimulus\I_PC_SIS100_QD_dev.stl
.LIB "C:\GitLabRepository\steam-pspice-library\SIS100\Items_QD\SIS100_EE.lib"
.LIB "C:\GitLabRepository\steam-pspice-library\SIS100\Items_QD\SIS100_Magnet_with_eddy_currents.lib"
.LIB "C:\GitLabRepository\steam-pspice-library\SIS100\Items_QD\SIS100_Earth.lib"
.LIB "C:\GitLabRepository\steam-pspice-library\SIS100\Items_QD\SIS100_Switch.lib"
.LIB "C:\GitLabRepository\steam-pspice-library\SIS100\Items_QD\SIS100_VCPC.lib"
.LIB "C:\GitLabRepository\steam-pspice-library\SIS100\Items_QD\SIS100_Crowbar.lib"
.LIB "C:\GitLabRepository\steam-pspice-library\SIS100\Table\SIS100_Inductance_Table_QD_eddy_currents.lib"
**** Global parameters ****
.PARAM
+ C_ground_magnet={6.5E-09} 
+ R_parallel={1.00E+07} 
+ R_Warm={1.00E-03} 
+ R_crowbar={1.00E-03} 
+ R_EE={8.50E-02} 
+ t_EE={3.5} 
+ Opening_Time={1.00E-04} 
+ Delay_Branch1={0} 
+ Delay_Branch2={0} 
+ Delay_Branch3={0} 
+ C_snubber={8.00E-04} 
+ R_snubber={1.00E+00} 
+ R_Branch={4.40E-04} 
+ L_Branch={1.00E-06} 
+ t_switch={1.00E+04} 
+ t_switch_to_open={1.00E-07} 
+ R_WCC={4.25E-04} 
+ C_WCC={4.25E-08} 
+ R_GROUND={10k} 
+ C_GROUND={1u} 
+ K_I_1={95} 
+ K_P_1={8.00E+03} 
+ R_PARALLEL_POLE=290
+ L_EDDY_POLE_1={800E-5}
+ TAU_EDDY_POLE_1={800E-5}
+ R_EDDY_POLE_1={L_EDDY_POLE_1/TAU_EDDY_POLE_1}
+ K_EDDY_POLE_1={0.2}
+ L_EDDY_POLE_2={10E-5}
+ TAU_EDDY_POLE_2={10E-5}
+ R_EDDY_POLE_2={L_EDDY_POLE_2/TAU_EDDY_POLE_2}
+ K_EDDY_POLE_2={.31}
+ L_EDDY_POLE_3={2.2E-5}
+ TAU_EDDY_POLE_3={2.2E-5}
+ R_EDDY_POLE_3={L_EDDY_POLE_3/TAU_EDDY_POLE_3}
+ K_EDDY_POLE_3={.54}
+ L_EDDY_POLE_4={0.5E-5}
+ TAU_EDDY_POLE_4={0.5E-5}
+ R_EDDY_POLE_4={L_EDDY_POLE_3/TAU_EDDY_POLE_3}
+ K_EDDY_POLE_4={.025}

* Controller 1
X_1 (0 1a) fake_pc
RSET (1a 0) 1MEG
*
EERROR (2a 0 1a 47c) 1
RERROR (2a 0) 1MEG
*
EP (3a 0 2a 0) 1
RP (3a 0) 1MEG
*
GI (0 4a 2a 0) 1
C1 (4a 0) 1
R1 (4a 0) 1MEG
*
EPID (6a 0 POLY(2) (3a 0) (4a 0) 0 {K_P_1}) {K_I_1}
RPID (6a 0) 1MEG
*
EAMP (7a 0 6a 0) 1
RAMP (7a 0) 1MEG
*
GOUT (8a 8b 0 7a) 1
V_INPUT (8b 9a) 0
RP2 (9a 8a) 1000
R_GROUND (8a 0) 1MEG
*
E_SOURCE (93 1) VALUE = {I(V_INPUT)}
*
ESENSOR (12a 0) VALUE = {I(E_SOURCE)}
R5 (12a 0) 10MEG
* Switch 1
x_sw_1 (93 93a) generic_switch_opening
+ PARAMS: t_switch={t_switch} t_switch_to_open={t_switch_to_open} 
*
* Crowbar 1
x_cb_1 (93a 1) crowbar_SIS100
+ PARAMS: R_crowbar={R_crowbar} 
*
* First Energy-extraction system
x_R_EE_1 (1 2) EE_600A
+ PARAMS: R_EE={R_EE} t_EE={t_EE} Opening_Time={Opening_Time} Delay_Branch1={Delay_Branch1} Delay_Branch2={Delay_Branch2} 
+ Delay_Branch3={Delay_Branch3} C_snubber={C_snubber} R_snubber={R_snubber} R_Branch={R_Branch} L_Branch={L_Branch} 
*
* Grounding Resistor 1
R_g_1 (93 93a) {R_GROUND}
*
* Groundind Resistor 2
R_g_2 (93a 1) {R_GROUND}
*
* Grounding Capacitor 1
C_g_1 (93 93a) {C_GROUND}
*
* Groundind Capacitor 2
C_g_2 (93a 1) {C_GROUND}
*
* Earthing circuit
x_EC (93a 0) earthingCircuit
+ PARAMS: R_fuse={1.000} 
*
C_WCC_1 (3 0) {C_WCC}
R_WCC_1 (2 3) {R_WCC}
*
* Magnets connected in series
x_mag_1 (3 4 0 0) magnet_SIS100
+ PARAMS: C_ground_magnet={C_ground_magnet} R_parallel={R_parallel} 
x_mag_2 (4 5 0 0) magnet_SIS100
+ PARAMS: C_ground_magnet={C_ground_magnet} R_parallel={R_parallel} 
x_mag_3 (5 6 0 0) magnet_SIS100
+ PARAMS: C_ground_magnet={C_ground_magnet} R_parallel={R_parallel} 
x_mag_4 (6 7 0 0) magnet_SIS100
+ PARAMS: C_ground_magnet={C_ground_magnet} R_parallel={R_parallel} 
x_mag_5 (7 8 0 0) magnet_SIS100
+ PARAMS: C_ground_magnet={C_ground_magnet} R_parallel={R_parallel} 
x_mag_6 (8 9 0 0) magnet_SIS100
+ PARAMS: C_ground_magnet={C_ground_magnet} R_parallel={R_parallel} 
x_mag_7 (9 10 0 0) magnet_SIS100
+ PARAMS: C_ground_magnet={C_ground_magnet} R_parallel={R_parallel} 
x_mag_8 (10 11 0 0) magnet_SIS100
+ PARAMS: C_ground_magnet={C_ground_magnet} R_parallel={R_parallel} 
x_mag_9 (11 12 0 0) magnet_SIS100
+ PARAMS: C_ground_magnet={C_ground_magnet} R_parallel={R_parallel} 
x_mag_10 (12 13 0 0) magnet_SIS100
+ PARAMS: C_ground_magnet={C_ground_magnet} R_parallel={R_parallel} 
x_mag_11 (13 14 0 0) magnet_SIS100
+ PARAMS: C_ground_magnet={C_ground_magnet} R_parallel={R_parallel} 
x_mag_12 (14 15 0 0) magnet_SIS100
+ PARAMS: C_ground_magnet={C_ground_magnet} R_parallel={R_parallel} 
x_mag_13 (15 16 0 0) magnet_SIS100
+ PARAMS: C_ground_magnet={C_ground_magnet} R_parallel={R_parallel} 
x_mag_14 (16 17 0 0) magnet_SIS100
+ PARAMS: C_ground_magnet={C_ground_magnet} R_parallel={R_parallel} 
*
* Magnets connected in series
x_mag_15 (17 18 0 0) magnet_SIS100
+ PARAMS: C_ground_magnet={C_ground_magnet} R_parallel={R_parallel} 
x_mag_16 (18 19 0 0) magnet_SIS100
+ PARAMS: C_ground_magnet={C_ground_magnet} R_parallel={R_parallel} 
x_mag_17 (19 20 0 0) magnet_SIS100
+ PARAMS: C_ground_magnet={C_ground_magnet} R_parallel={R_parallel} 
x_mag_18 (20 21 0 0) magnet_SIS100
+ PARAMS: C_ground_magnet={C_ground_magnet} R_parallel={R_parallel} 
x_mag_19 (21 22 0 0) magnet_SIS100
+ PARAMS: C_ground_magnet={C_ground_magnet} R_parallel={R_parallel} 
x_mag_20 (22 23 0 0) magnet_SIS100
+ PARAMS: C_ground_magnet={C_ground_magnet} R_parallel={R_parallel} 
x_mag_21 (23 24 0 0) magnet_SIS100
+ PARAMS: C_ground_magnet={C_ground_magnet} R_parallel={R_parallel} 
x_mag_22 (24 25 0 0) magnet_SIS100
+ PARAMS: C_ground_magnet={C_ground_magnet} R_parallel={R_parallel} 
x_mag_23 (25 26 0 0) magnet_SIS100
+ PARAMS: C_ground_magnet={C_ground_magnet} R_parallel={R_parallel} 
x_mag_24 (26 27 0 0) magnet_SIS100
+ PARAMS: C_ground_magnet={C_ground_magnet} R_parallel={R_parallel} 
x_mag_25 (27 28 0 0) magnet_SIS100
+ PARAMS: C_ground_magnet={C_ground_magnet} R_parallel={R_parallel} 
x_mag_26 (28 29 0 0) magnet_SIS100
+ PARAMS: C_ground_magnet={C_ground_magnet} R_parallel={R_parallel} 
x_mag_27 (29 30 0 0) magnet_SIS100
+ PARAMS: C_ground_magnet={C_ground_magnet} R_parallel={R_parallel} 
x_mag_28 (30 31 0 0) magnet_SIS100
+ PARAMS: C_ground_magnet={C_ground_magnet} R_parallel={R_parallel} 
*
* Magnets connected in series
x_mag_29 (31 32 0 0) magnet_SIS100
+ PARAMS: C_ground_magnet={C_ground_magnet} R_parallel={R_parallel} 
x_mag_30 (32 33 0 0) magnet_SIS100
+ PARAMS: C_ground_magnet={C_ground_magnet} R_parallel={R_parallel} 
x_mag_31 (33 34 0 0) magnet_SIS100
+ PARAMS: C_ground_magnet={C_ground_magnet} R_parallel={R_parallel} 
x_mag_32 (34 35 0 0) magnet_SIS100
+ PARAMS: C_ground_magnet={C_ground_magnet} R_parallel={R_parallel} 
x_mag_33 (35 36 0 0) magnet_SIS100
+ PARAMS: C_ground_magnet={C_ground_magnet} R_parallel={R_parallel} 
x_mag_34 (36 37 0 0) magnet_SIS100
+ PARAMS: C_ground_magnet={C_ground_magnet} R_parallel={R_parallel} 
x_mag_35 (37 38 0 0) magnet_SIS100
+ PARAMS: C_ground_magnet={C_ground_magnet} R_parallel={R_parallel} 
x_mag_36 (38 39 0 0) magnet_SIS100
+ PARAMS: C_ground_magnet={C_ground_magnet} R_parallel={R_parallel} 
x_mag_37 (39 40 0 0) magnet_SIS100
+ PARAMS: C_ground_magnet={C_ground_magnet} R_parallel={R_parallel} 
x_mag_38 (40 41 0 0) magnet_SIS100
+ PARAMS: C_ground_magnet={C_ground_magnet} R_parallel={R_parallel} 
x_mag_39 (41 42 0 0) magnet_SIS100
+ PARAMS: C_ground_magnet={C_ground_magnet} R_parallel={R_parallel} 
x_mag_40 (42 43 0 0) magnet_SIS100
+ PARAMS: C_ground_magnet={C_ground_magnet} R_parallel={R_parallel} 
x_mag_41 (43 44 0 0) magnet_SIS100
+ PARAMS: C_ground_magnet={C_ground_magnet} R_parallel={R_parallel} 
x_mag_42 (44 45 0 0) magnet_SIS100
+ PARAMS: C_ground_magnet={C_ground_magnet} R_parallel={R_parallel} 
*
C_WCC_2 (46 0) {C_WCC}
R_WCC_2 (45 46) {R_WCC}
*
* Second Energy-extraction system
x_R_EE_2 (46 47) EE_600A
+ PARAMS: R_EE={R_EE} t_EE={t_EE} Opening_Time={Opening_Time} Delay_Branch1={Delay_Branch1} Delay_Branch2={Delay_Branch2} 
+ Delay_Branch3={Delay_Branch3} C_snubber={C_snubber} R_snubber={R_snubber} R_Branch={R_Branch} L_Branch={L_Branch} 
*
V_S (47 48) 0
R_S (48 0) 1MEG
E_SC (47c 0) VALUE = {I(V_S)}
R_SC (47c 0) 1MEG
* Third Energy-extraction system
x_R_EE_3 (48 49) EE_600A
+ PARAMS: R_EE={R_EE} t_EE={t_EE} Opening_Time={Opening_Time} Delay_Branch1={Delay_Branch1} Delay_Branch2={Delay_Branch2} 
+ Delay_Branch3={Delay_Branch3} C_snubber={C_snubber} R_snubber={R_snubber} R_Branch={R_Branch} L_Branch={L_Branch} 
*
C_WCC_3 (49 0) {C_WCC}
R_WCC_3 (49 50) {R_WCC}
*
* Magnets connected in series
x_mag_43 (50 51 0 0) magnet_SIS100
+ PARAMS: C_ground_magnet={C_ground_magnet} R_parallel={R_parallel} 
x_mag_44 (51 52 0 0) magnet_SIS100
+ PARAMS: C_ground_magnet={C_ground_magnet} R_parallel={R_parallel} 
x_mag_45 (52 53 0 0) magnet_SIS100
+ PARAMS: C_ground_magnet={C_ground_magnet} R_parallel={R_parallel} 
x_mag_46 (53 54 0 0) magnet_SIS100
+ PARAMS: C_ground_magnet={C_ground_magnet} R_parallel={R_parallel} 
x_mag_47 (54 55 0 0) magnet_SIS100
+ PARAMS: C_ground_magnet={C_ground_magnet} R_parallel={R_parallel} 
x_mag_48 (55 56 0 0) magnet_SIS100
+ PARAMS: C_ground_magnet={C_ground_magnet} R_parallel={R_parallel} 
x_mag_49 (56 57 0 0) magnet_SIS100
+ PARAMS: C_ground_magnet={C_ground_magnet} R_parallel={R_parallel} 
x_mag_50 (57 58 0 0) magnet_SIS100
+ PARAMS: C_ground_magnet={C_ground_magnet} R_parallel={R_parallel} 
x_mag_51 (58 59 0 0) magnet_SIS100
+ PARAMS: C_ground_magnet={C_ground_magnet} R_parallel={R_parallel} 
x_mag_52 (59 60 0 0) magnet_SIS100
+ PARAMS: C_ground_magnet={C_ground_magnet} R_parallel={R_parallel} 
x_mag_53 (60 61 0 0) magnet_SIS100
+ PARAMS: C_ground_magnet={C_ground_magnet} R_parallel={R_parallel} 
x_mag_54 (61 62 0 0) magnet_SIS100
+ PARAMS: C_ground_magnet={C_ground_magnet} R_parallel={R_parallel} 
x_mag_55 (62 63 0 0) magnet_SIS100
+ PARAMS: C_ground_magnet={C_ground_magnet} R_parallel={R_parallel} 
x_mag_56 (63 64 0 0) magnet_SIS100
+ PARAMS: C_ground_magnet={C_ground_magnet} R_parallel={R_parallel} 
*
* Magnets connected in series
x_mag_57 (64 65 0 0) magnet_SIS100
+ PARAMS: C_ground_magnet={C_ground_magnet} R_parallel={R_parallel} 
x_mag_58 (65 66 0 0) magnet_SIS100
+ PARAMS: C_ground_magnet={C_ground_magnet} R_parallel={R_parallel} 
x_mag_59 (66 67 0 0) magnet_SIS100
+ PARAMS: C_ground_magnet={C_ground_magnet} R_parallel={R_parallel} 
x_mag_60 (67 68 0 0) magnet_SIS100
+ PARAMS: C_ground_magnet={C_ground_magnet} R_parallel={R_parallel} 
x_mag_61 (68 69 0 0) magnet_SIS100
+ PARAMS: C_ground_magnet={C_ground_magnet} R_parallel={R_parallel} 
x_mag_62 (69 70 0 0) magnet_SIS100
+ PARAMS: C_ground_magnet={C_ground_magnet} R_parallel={R_parallel} 
x_mag_63 (70 71 0 0) magnet_SIS100
+ PARAMS: C_ground_magnet={C_ground_magnet} R_parallel={R_parallel} 
x_mag_64 (71 72 0 0) magnet_SIS100
+ PARAMS: C_ground_magnet={C_ground_magnet} R_parallel={R_parallel} 
x_mag_65 (72 73 0 0) magnet_SIS100
+ PARAMS: C_ground_magnet={C_ground_magnet} R_parallel={R_parallel} 
x_mag_66 (73 74 0 0) magnet_SIS100
+ PARAMS: C_ground_magnet={C_ground_magnet} R_parallel={R_parallel} 
x_mag_67 (74 75 0 0) magnet_SIS100
+ PARAMS: C_ground_magnet={C_ground_magnet} R_parallel={R_parallel} 
x_mag_68 (75 76 0 0) magnet_SIS100
+ PARAMS: C_ground_magnet={C_ground_magnet} R_parallel={R_parallel} 
x_mag_69 (76 77 0 0) magnet_SIS100
+ PARAMS: C_ground_magnet={C_ground_magnet} R_parallel={R_parallel} 
x_mag_70 (77 78 0 0) magnet_SIS100
+ PARAMS: C_ground_magnet={C_ground_magnet} R_parallel={R_parallel} 
*
* Magnets connected in series
x_mag_71 (78 79 0 0) magnet_SIS100
+ PARAMS: C_ground_magnet={C_ground_magnet} R_parallel={R_parallel} 
x_mag_72 (79 80 0 0) magnet_SIS100
+ PARAMS: C_ground_magnet={C_ground_magnet} R_parallel={R_parallel} 
x_mag_73 (80 81 0 0) magnet_SIS100
+ PARAMS: C_ground_magnet={C_ground_magnet} R_parallel={R_parallel} 
x_mag_74 (81 82 0 0) magnet_SIS100
+ PARAMS: C_ground_magnet={C_ground_magnet} R_parallel={R_parallel} 
x_mag_75 (82 83 0 0) magnet_SIS100
+ PARAMS: C_ground_magnet={C_ground_magnet} R_parallel={R_parallel} 
x_mag_76 (83 84 0 0) magnet_SIS100
+ PARAMS: C_ground_magnet={C_ground_magnet} R_parallel={R_parallel} 
x_mag_77 (84 85 0 0) magnet_SIS100
+ PARAMS: C_ground_magnet={C_ground_magnet} R_parallel={R_parallel} 
x_mag_78 (85 86 0 0) magnet_SIS100
+ PARAMS: C_ground_magnet={C_ground_magnet} R_parallel={R_parallel} 
x_mag_79 (86 87 0 0) magnet_SIS100
+ PARAMS: C_ground_magnet={C_ground_magnet} R_parallel={R_parallel} 
x_mag_80 (87 88 0 0) magnet_SIS100
+ PARAMS: C_ground_magnet={C_ground_magnet} R_parallel={R_parallel} 
x_mag_81 (88 89 0 0) magnet_SIS100
+ PARAMS: C_ground_magnet={C_ground_magnet} R_parallel={R_parallel} 
x_mag_82 (89 90 0 0) magnet_SIS100
+ PARAMS: C_ground_magnet={C_ground_magnet} R_parallel={R_parallel} 
x_mag_83 (90 91 0 0) magnet_SIS100
+ PARAMS: C_ground_magnet={C_ground_magnet} R_parallel={R_parallel} 
*
C_WCC_4 (91 0) {C_WCC}
R_WCC_4 (91 92) {R_WCC}
*
* Fourth Energy-extraction system
x_R_EE_4 (92 93) EE_600A
+ PARAMS: R_EE={R_EE} t_EE={t_EE} Opening_Time={Opening_Time} Delay_Branch1={Delay_Branch1} Delay_Branch2={Delay_Branch2} 
+ Delay_Branch3={Delay_Branch3} C_snubber={C_snubber} R_snubber={R_snubber} R_Branch={R_Branch} L_Branch={L_Branch} 
*
.OPTION
+ RELTOL=0.0001
+ VNTOL=0.00001
+ ABSTOL=0.0001
+ CHGTOL=0.000000000000001
+ GMIN=0.000000000001
+ ITL1=150
+ ITL2=20
+ ITL4=10
+ TNOM=27
+ NUMDGT=99

.AUTOCONVERGE
+ RELTOL=0.05
+ VNTOL=0.0001
+ ABSTOL=0.0001
+ ITL1=1000
+ ITL2=1000
+ ITL4=1000
+ PIVTOL=0.0000000001


.TRAN 0.0 3.5 0.4 
+ {SCHEDULE(
+ 0.0,		 0.001,
+ 0.4,		 1.0E-4,
+ 2.3,		 0.001,
+ 3.5,		 1.0E-4
+ )}


.PROBE
.END