{
    "name": "Port_1_0",
    "components": [
        "L_1"
    ],
    "inputs": [
        {
            "couplingParameter": "R",
            "labels": [
                "R_field_1_stim_Quench"
            ],
            "types": [
                "TH"
            ]
        },
        {
            "couplingParameter": "U",
            "labels": [
                "V_field_1_stim_Quench"
            ],
            "types": [
                "EM"
            ]
        }
    ],
    "outputs": [
        {
            "couplingParameter": "I",
            "labels": [
                "I(x_mag_1.L_1)"
            ],
            "types": [
                "TH",
                "EM"
            ]
        }
    ]
}
{
    "name": "Port_1_1",
    "components": [
        "L_1"
    ],
    "inputs": [
        {
            "couplingParameter": "U",
            "labels": [
                "V_circuit_1_stim_Quench"
            ],
            "types": [
                "EM"
            ]
        }
    ],
    "outputs": [
        {
            "couplingParameter": "U",
            "labels": [
                "V(x_mag_1.1_v_l_diff)"
            ],
            "types": [
                "EM"
            ]
        }
    ]
}
{
    "name": "Port_2_0",
    "components": [
        "L_1"
    ],
    "inputs": [
        {
            "couplingParameter": "R",
            "labels": [
                "R_field_1_stim"
            ],
            "types": [
                "TH"
            ]
        },
        {
            "couplingParameter": "U",
            "labels": [
                "V_field_1_stim"
            ],
            "types": [
                "EM"
            ]
        }
    ],
    "outputs": [
        {
            "couplingParameter": "I",
            "labels": [
                "I(x_mag_2.L_1)"
            ],
            "types": [
                "TH",
                "EM"
            ]
        }
    ]
}
{
    "name": "Port_2_1",
    "components": [
        "L_1"
    ],
    "inputs": [
        {
            "couplingParameter": "U",
            "labels": [
                "V_circuit_1_stim"
            ],
            "types": [
                "EM"
            ]
        }
    ],
    "outputs": [
        {
            "couplingParameter": "U",
            "labels": [
                "V(x_mag_2.1_v_l_diff)"
            ],
            "types": [
                "EM"
            ]
        }
    ]
}
