* Cell 1
L_1 (1dmid 1din) 3.0
R_1 (1dout 1dmid) 0.1
C_1 (0 1dout) 0.01
* Cell 2
L_2 (2dmid 1dout) 5.0
R_2 (2dout 2dmid) 0.2
C_2 (0 2dout) 0.02
* Cell 3
L_3 (3dmid 2dout) 9.0
R_3 (3dout 3dmid) 0.3
C_3 (0 3dout) 0.03
*Mutual coupling between cells
K_1_2 (L_1 L_2) 0.12909944487358055
K_1_3 (L_1 L_3) 0.09622504486493763
K_2_3 (L_2 L_3) 0.07453559924999299
* Voltage source
V_AC (1din 3dout) AC 1
* Resistance to ground
R_GND (3dout 0) 1e6
.AC DEC 50 10Hz 10kHz
.PROBE
.END

