

* PSPICE Netlist Simulation File
* Generated on 2020/12/18 13:51:23 at CERN
* Authors: STEAM
**** Global parameters ****
.PARAM
+ F_SCALE_C_GROUND={1.0} 
+ F_SCALE_L={1.0} 
+ F_SCALE_R={1.0} 

* .STEP PARAM R_Par 10k, 100k, 10k
L_total (1in 1mid) {0.1484090853235692*F_SCALE_L}
R_total (1mid 1out) {17.458415697695497*F_SCALE_R}
C_total (1in 1out) {1.3226062714786415e-07*F_SCALE_C_GROUND*0.40528473456}
* Voltage source
V_AC (1out 1in) AC 1
* Voltage measurement
E_total_voltage (0 0total_voltage) VALUE = {V(1in)-V(1out)}
* Resistance to ground
R_GND (1out 0) 1e6
.OPTION
+ RELTOL=0.01
+ VNTOL=0.000001
+ ABSTOL=0.0000000001
+ CHGTOL=0.00000000000001
+ GMIN=0.0000000001
+ ITL1=400
+ ITL2=20
+ ITL4=400
+ TNOM=27
+ NUMDGT=8

.AUTOCONVERGE
+ RELTOL=0.05
+ VNTOL=0.001
+ ABSTOL=0.00001
+ ITL1=1000
+ ITL2=1000
+ ITL4=1000
+ PIVTOL=0.0000000001

.AC DEC 50 1Hz 200kHz

* Configuration file
.INC configurationFileFrequency.cir
.END

