

* PSPICE Netlist Simulation File
* Generated on 2020/12/18 14:10:18 at CERN
* Authors: STEAM
**** Global parameters ****
.PARAM
+ F_SCALE_C_GROUND={1.0} 
+ F_SCALE_C_T2T={1.0} 
+ F_SCALE_L={1.0} 
+ F_SCALE_R={1.0} 

* .STEP PARAM R_Par 10k, 100k, 10k
* Cell 1
L_2 (1mid 1in) {0.00012073989673489605*F_SCALE_L}
R_2 (1out 1mid) {0.5614117304104477*F_SCALE_R}
* Cell 2
L_3 (2mid 1out) {0.00012073989673489605*F_SCALE_L}
R_3 (2out 2mid) {0.5614117304104477*F_SCALE_R}
* Cell 3
L_4 (3mid 2out) {0.00012073989673489605*F_SCALE_L}
R_4 (3out 3mid) {0.5614117304104477*F_SCALE_R}
* Cell 4
L_1 (4mid 3out) {0.00012073989673489605*F_SCALE_L}
R_1 (4out 4mid) {0.5614117304104477*F_SCALE_R}
* Capacitance to ground
C_1 (00_mGND 3out) {2.4617692711061143e-10*F_SCALE_C_GROUND}
C_2 (00_mGND 1in) {2.4617692711061143e-10*F_SCALE_C_GROUND}
C_3 (00_mGND 1out) {2.4617692711061143e-10*F_SCALE_C_GROUND}
C_4 (00_mGND 2out) {2.4617692711061143e-10*F_SCALE_C_GROUND}
* Group to Group Capacitance
* Mutual coupling between cells
K_1_2 (L_1 L_2) -0.10607208329948062
K_1_3 (L_1 L_3) -0.045374891830217784
K_1_4 (L_1 L_4) -0.10607208329948059
K_2_3 (L_2 L_3) -0.10607208329948062
K_2_4 (L_2 L_4) -0.045374891830217784
K_3_4 (L_3 L_4) -0.10607208329948062
* Voltage source
V_AC (4out 1in) AC 1
* Connection between local ground and last node
V_localGround (00_mGND 4out) 0
* Voltage measurement
E_total_voltage (0 0total_voltage) VALUE = {V(1in)-V(4out)}
* Resistance to ground
R_GND (0 00_mGND) 1e6
.OPTION
+ RELTOL=0.01
+ VNTOL=0.000001
+ ABSTOL=0.0000000001
+ CHGTOL=0.00000000000001
+ GMIN=0.0000000001
+ ITL1=400
+ ITL2=20
+ ITL4=400
+ TNOM=27
+ NUMDGT=8

.AUTOCONVERGE
+ RELTOL=0.05
+ VNTOL=0.001
+ ABSTOL=0.00001
+ ITL1=1000
+ ITL2=1000
+ ITL4=1000
+ PIVTOL=0.0000000001

.AC DEC 50 1Hz 200kHz

* Configuration file
.INC configurationFileFrequency.cir
.END

