

* PSPICE Netlist Simulation File
* Generated on 2020/12/18 14:51:57 at CERN
* Authors: STEAM
.LIB "C:\GitLabRepository\steam-pspice-library\magnet_frequency\Items\MQT_1AP_groups.lib"
**** Global parameters ****
.PARAM
+ L_BUSBAR_1_MQT_1AP={1e-09} 
+ R_PARALLEL_1_MQT_1AP={0.25} 
+ C_PARALLEL_1_MQT_1AP={1e-15} 
+ R_SERIES={100.0} 
+ F_SCALE_C_GROUND={1.0} 
+ F_SCALE_C_T2T={1.0} 
+ F_SCALE_L={1.0} 
+ F_SCALE_R={1.0} 

* Magnet types:
* ['MQT_1AP']
* .STEP PARAM R_Par 10k, 100k, 10k
* Circuit:
R_Series (0series_in 0series_out) {R_SERIES}
* Cell: 1
L_BUSBAR_1_MQT_1AP_N_1 (0series_out 1mid) {L_BUSBAR_1_MQT_1AP}
x_1_MQT_1AP_N_1 (1mid 1out 0) MQT_1AP_groups
+ PARAMS: F_SCALE_C_GROUND={F_SCALE_C_GROUND} F_SCALE_C_T2T={F_SCALE_C_T2T} 
+ F_SCALE_L={F_SCALE_L} F_SCALE_R={F_SCALE_R} 
R_PAR_1_MQT_1AP_N_1 (1mid 1out) {R_PARALLEL_1_MQT_1AP}
C_PAR_1_MQT_1AP_N_1 (1mid 1out) {C_PARALLEL_1_MQT_1AP}
* Cell: 2
L_BUSBAR_1_MQT_1AP_N_2 (1out 2mid) {L_BUSBAR_1_MQT_1AP}
x_1_MQT_1AP_N_2 (2mid 2out 0) MQT_1AP_groups
+ PARAMS: F_SCALE_C_GROUND={F_SCALE_C_GROUND} F_SCALE_C_T2T={F_SCALE_C_T2T} 
+ F_SCALE_L={F_SCALE_L} F_SCALE_R={F_SCALE_R} 
R_PAR_1_MQT_1AP_N_2 (2mid 2out) {R_PARALLEL_1_MQT_1AP}
C_PAR_1_MQT_1AP_N_2 (2mid 2out) {C_PARALLEL_1_MQT_1AP}
* Cell: 3
L_BUSBAR_1_MQT_1AP_N_3 (2out 3mid) {L_BUSBAR_1_MQT_1AP}
x_1_MQT_1AP_N_3 (3mid 3out 0) MQT_1AP_groups
+ PARAMS: F_SCALE_C_GROUND={F_SCALE_C_GROUND} F_SCALE_C_T2T={F_SCALE_C_T2T} 
+ F_SCALE_L={F_SCALE_L} F_SCALE_R={F_SCALE_R} 
R_PAR_1_MQT_1AP_N_3 (3mid 3out) {R_PARALLEL_1_MQT_1AP}
C_PAR_1_MQT_1AP_N_3 (3mid 3out) {C_PARALLEL_1_MQT_1AP}
* Cell: 4
L_BUSBAR_1_MQT_1AP_N_4 (3out 4mid) {L_BUSBAR_1_MQT_1AP}
x_1_MQT_1AP_N_4 (4mid 4out 0) MQT_1AP_groups
+ PARAMS: F_SCALE_C_GROUND={F_SCALE_C_GROUND} F_SCALE_C_T2T={F_SCALE_C_T2T} 
+ F_SCALE_L={F_SCALE_L} F_SCALE_R={F_SCALE_R} 
R_PAR_1_MQT_1AP_N_4 (4mid 4out) {R_PARALLEL_1_MQT_1AP}
C_PAR_1_MQT_1AP_N_4 (4mid 4out) {C_PARALLEL_1_MQT_1AP}
* Cell: 5
L_BUSBAR_1_MQT_1AP_N_5 (4out 5mid) {L_BUSBAR_1_MQT_1AP}
x_1_MQT_1AP_N_5 (5mid 5out 0) MQT_1AP_groups
+ PARAMS: F_SCALE_C_GROUND={F_SCALE_C_GROUND} F_SCALE_C_T2T={F_SCALE_C_T2T} 
+ F_SCALE_L={F_SCALE_L} F_SCALE_R={F_SCALE_R} 
R_PAR_1_MQT_1AP_N_5 (5mid 5out) {R_PARALLEL_1_MQT_1AP}
C_PAR_1_MQT_1AP_N_5 (5mid 5out) {C_PARALLEL_1_MQT_1AP}
* Cell: 6
L_BUSBAR_1_MQT_1AP_N_6 (5out 6mid) {L_BUSBAR_1_MQT_1AP}
x_1_MQT_1AP_N_6 (6mid 6out 0) MQT_1AP_groups
+ PARAMS: F_SCALE_C_GROUND={F_SCALE_C_GROUND} F_SCALE_C_T2T={F_SCALE_C_T2T} 
+ F_SCALE_L={F_SCALE_L} F_SCALE_R={F_SCALE_R} 
R_PAR_1_MQT_1AP_N_6 (6mid 6out) {R_PARALLEL_1_MQT_1AP}
C_PAR_1_MQT_1AP_N_6 (6mid 6out) {C_PARALLEL_1_MQT_1AP}
* Cell: 7
L_BUSBAR_1_MQT_1AP_N_7 (6out 7mid) {L_BUSBAR_1_MQT_1AP}
x_1_MQT_1AP_N_7 (7mid 7out 0) MQT_1AP_groups
+ PARAMS: F_SCALE_C_GROUND={F_SCALE_C_GROUND} F_SCALE_C_T2T={F_SCALE_C_T2T} 
+ F_SCALE_L={F_SCALE_L} F_SCALE_R={F_SCALE_R} 
R_PAR_1_MQT_1AP_N_7 (7mid 7out) {R_PARALLEL_1_MQT_1AP}
C_PAR_1_MQT_1AP_N_7 (7mid 7out) {C_PARALLEL_1_MQT_1AP}
* Cell: 8
L_BUSBAR_1_MQT_1AP_N_8 (7out 8mid) {L_BUSBAR_1_MQT_1AP}
x_1_MQT_1AP_N_8 (8mid 8out 0) MQT_1AP_groups
+ PARAMS: F_SCALE_C_GROUND={F_SCALE_C_GROUND} F_SCALE_C_T2T={F_SCALE_C_T2T} 
+ F_SCALE_L={F_SCALE_L} F_SCALE_R={F_SCALE_R} 
R_PAR_1_MQT_1AP_N_8 (8mid 8out) {R_PARALLEL_1_MQT_1AP}
C_PAR_1_MQT_1AP_N_8 (8mid 8out) {C_PARALLEL_1_MQT_1AP}
*Last busbar
L_BUSBAR_END (8out 0) {L_BUSBAR_1_MQT_1AP}
* Voltage source
V_AC (0 0series_in) AC 1
* Voltage measurement
E_total_voltage (0 0total_voltage) VALUE = {V(0series_out)-V(8out)}
.OPTION
+ RELTOL=0.01
+ VNTOL=0.000001
+ ABSTOL=0.0000000001
+ CHGTOL=0.00000000000001
+ GMIN=0.0000000001
+ ITL1=400
+ ITL2=20
+ ITL4=400
+ TNOM=27
+ NUMDGT=8

.AUTOCONVERGE
+ RELTOL=0.05
+ VNTOL=0.001
+ ABSTOL=0.00001
+ ITL1=1000
+ ITL2=1000
+ ITL4=1000
+ PIVTOL=0.0000000001

.AC DEC 50 1Hz 200kHz

* Configuration file
.INC configurationFileFrequency.cir
.END

