

* PSPICE Netlist Simulation File
* Generated on 2019/11/15 09:30:19 at CERN
* Authors: STEAM
.STMLIB C:\GitLabRepository\steam-pspice-library\RCS\Stimulus\I_PC_RCS.stl
.LIB "C:\GitLabRepository\steam-pspice-library\RCS\Items\RCS_Diodes.lib"
.LIB "C:\GitLabRepository\steam-pspice-library\RCS\Items\RCS_EE.lib"
.LIB "C:\GitLabRepository\steam-pspice-library\RCS\Items\RCS_Magnets.lib"
**** Global parameters ****
.PARAM
+ L_magnet={0.000798701} 
+ C_ground_magnet={6.24E-09} 
+ R_parallel={8.00E-02} 
+ R_Warm={1.00E-03} 
+ R_crowbar={1.00E-03} 
+ R_EE={7.00E-01} 
+ t_EE={70.008} 
+ Opening_Time={1.00E-04} 
+ Delay_Branch1={0} 
+ Delay_Branch2={0} 
+ Delay_Branch3={0} 
+ C_snubber={8.00E-04} 
+ R_snubber={1.00E+00} 
+ R_Branch={4.40E-04} 
+ L_Branch={1.00E-06} 

**** Main circuit ****
* Power supply
I_PC (0A 1) STIMULUS = I_FPA_Test_1
*
* Power-supply crowbar
x_Crowbar (0A 1) crobar_RCS
+ PARAMS: R_crowbar={R_crowbar} 
*
* Warm lead between power-supply positive side and first magnet
R_WARM_1 (1 2) {R_warm/2}
*
* Magnets connected in series
x_mag_1 (2 3 0 0) magnet_MCS
+ PARAMS: L_magnet={L_magnet} C_ground_magnet={C_ground_magnet} R_parallel={R_parallel} 
x_mag_2 (3 4 0 0) magnet_MCS
+ PARAMS: L_magnet={L_magnet} C_ground_magnet={C_ground_magnet} R_parallel={R_parallel} 
x_mag_3 (4 5 0 0) magnet_MCS
+ PARAMS: L_magnet={L_magnet} C_ground_magnet={C_ground_magnet} R_parallel={R_parallel} 
x_mag_4 (5 6 0 0) magnet_MCS
+ PARAMS: L_magnet={L_magnet} C_ground_magnet={C_ground_magnet} R_parallel={R_parallel} 
x_mag_5 (6 7 0 0) magnet_MCS
+ PARAMS: L_magnet={L_magnet} C_ground_magnet={C_ground_magnet} R_parallel={R_parallel} 
x_mag_6 (7 8 0 0) magnet_MCS
+ PARAMS: L_magnet={L_magnet} C_ground_magnet={C_ground_magnet} R_parallel={R_parallel} 
x_mag_7 (8 9 0 0) magnet_MCS
+ PARAMS: L_magnet={L_magnet} C_ground_magnet={C_ground_magnet} R_parallel={R_parallel} 
x_mag_8 (9 10 0 0) magnet_MCS
+ PARAMS: L_magnet={L_magnet} C_ground_magnet={C_ground_magnet} R_parallel={R_parallel} 
x_mag_9 (10 11 0 0) magnet_MCS
+ PARAMS: L_magnet={L_magnet} C_ground_magnet={C_ground_magnet} R_parallel={R_parallel} 
x_mag_10 (11 12 0 0) magnet_MCS
+ PARAMS: L_magnet={L_magnet} C_ground_magnet={C_ground_magnet} R_parallel={R_parallel} 
x_mag_11 (12 13 0 0) magnet_MCS
+ PARAMS: L_magnet={L_magnet} C_ground_magnet={C_ground_magnet} R_parallel={R_parallel} 
x_mag_12 (13 14 0 0) magnet_MCS
+ PARAMS: L_magnet={L_magnet} C_ground_magnet={C_ground_magnet} R_parallel={R_parallel} 
x_mag_13 (14 15 0 0) magnet_MCS
+ PARAMS: L_magnet={L_magnet} C_ground_magnet={C_ground_magnet} R_parallel={R_parallel} 
x_mag_14 (15 16 0 0) magnet_MCS
+ PARAMS: L_magnet={L_magnet} C_ground_magnet={C_ground_magnet} R_parallel={R_parallel} 
x_mag_15 (16 17 0 0) magnet_MCS
+ PARAMS: L_magnet={L_magnet} C_ground_magnet={C_ground_magnet} R_parallel={R_parallel} 
x_mag_16 (17 18 0 0) magnet_MCS
+ PARAMS: L_magnet={L_magnet} C_ground_magnet={C_ground_magnet} R_parallel={R_parallel} 
x_mag_17 (18 19 0 0) magnet_MCS
+ PARAMS: L_magnet={L_magnet} C_ground_magnet={C_ground_magnet} R_parallel={R_parallel} 
x_mag_18 (19 20 0 0) magnet_MCS
+ PARAMS: L_magnet={L_magnet} C_ground_magnet={C_ground_magnet} R_parallel={R_parallel} 
x_mag_19 (20 21 0 0) magnet_MCS
+ PARAMS: L_magnet={L_magnet} C_ground_magnet={C_ground_magnet} R_parallel={R_parallel} 
x_mag_20 (21 22 0 0) magnet_MCS
+ PARAMS: L_magnet={L_magnet} C_ground_magnet={C_ground_magnet} R_parallel={R_parallel} 
x_mag_21 (22 23 0 0) magnet_MCS
+ PARAMS: L_magnet={L_magnet} C_ground_magnet={C_ground_magnet} R_parallel={R_parallel} 
x_mag_22 (23 24 0 0) magnet_MCS
+ PARAMS: L_magnet={L_magnet} C_ground_magnet={C_ground_magnet} R_parallel={R_parallel} 
x_mag_23 (24 25 0 0) magnet_MCS
+ PARAMS: L_magnet={L_magnet} C_ground_magnet={C_ground_magnet} R_parallel={R_parallel} 
x_mag_24 (25 26 0 0) magnet_MCS
+ PARAMS: L_magnet={L_magnet} C_ground_magnet={C_ground_magnet} R_parallel={R_parallel} 
x_mag_25 (26 27 0 0) magnet_MCS
+ PARAMS: L_magnet={L_magnet} C_ground_magnet={C_ground_magnet} R_parallel={R_parallel} 
x_mag_26 (27 28 0 0) magnet_MCS
+ PARAMS: L_magnet={L_magnet} C_ground_magnet={C_ground_magnet} R_parallel={R_parallel} 
x_mag_27 (28 29 0 0) magnet_MCS
+ PARAMS: L_magnet={L_magnet} C_ground_magnet={C_ground_magnet} R_parallel={R_parallel} 
x_mag_28 (29 30 0 0) magnet_MCS
+ PARAMS: L_magnet={L_magnet} C_ground_magnet={C_ground_magnet} R_parallel={R_parallel} 
x_mag_29 (30 31 0 0) magnet_MCS
+ PARAMS: L_magnet={L_magnet} C_ground_magnet={C_ground_magnet} R_parallel={R_parallel} 
x_mag_30 (31 32 0 0) magnet_MCS
+ PARAMS: L_magnet={L_magnet} C_ground_magnet={C_ground_magnet} R_parallel={R_parallel} 
x_mag_31 (32 33 0 0) magnet_MCS
+ PARAMS: L_magnet={L_magnet} C_ground_magnet={C_ground_magnet} R_parallel={R_parallel} 
x_mag_32 (33 34 0 0) magnet_MCS
+ PARAMS: L_magnet={L_magnet} C_ground_magnet={C_ground_magnet} R_parallel={R_parallel} 
x_mag_33 (34 35 0 0) magnet_MCS
+ PARAMS: L_magnet={L_magnet} C_ground_magnet={C_ground_magnet} R_parallel={R_parallel} 
x_mag_34 (35 36 0 0) magnet_MCS
+ PARAMS: L_magnet={L_magnet} C_ground_magnet={C_ground_magnet} R_parallel={R_parallel} 
x_mag_35 (36 37 0 0) magnet_MCS
+ PARAMS: L_magnet={L_magnet} C_ground_magnet={C_ground_magnet} R_parallel={R_parallel} 
x_mag_36 (37 38 0 0) magnet_MCS
+ PARAMS: L_magnet={L_magnet} C_ground_magnet={C_ground_magnet} R_parallel={R_parallel} 
x_mag_37 (38 39 0 0) magnet_MCS
+ PARAMS: L_magnet={L_magnet} C_ground_magnet={C_ground_magnet} R_parallel={R_parallel} 
x_mag_38 (39 40 0 0) magnet_MCS
+ PARAMS: L_magnet={L_magnet} C_ground_magnet={C_ground_magnet} R_parallel={R_parallel} 
x_mag_39 (40 41 0 0) magnet_MCS
+ PARAMS: L_magnet={L_magnet} C_ground_magnet={C_ground_magnet} R_parallel={R_parallel} 
x_mag_40 (41 42 0 0) magnet_MCS
+ PARAMS: L_magnet={L_magnet} C_ground_magnet={C_ground_magnet} R_parallel={R_parallel} 
x_mag_41 (42 43 0 0) magnet_MCS
+ PARAMS: L_magnet={L_magnet} C_ground_magnet={C_ground_magnet} R_parallel={R_parallel} 
x_mag_42 (43 44 0 0) magnet_MCS
+ PARAMS: L_magnet={L_magnet} C_ground_magnet={C_ground_magnet} R_parallel={R_parallel} 
x_mag_43 (44 45 0 0) magnet_MCS
+ PARAMS: L_magnet={L_magnet} C_ground_magnet={C_ground_magnet} R_parallel={R_parallel} 
x_mag_44 (45 46 0 0) magnet_MCS
+ PARAMS: L_magnet={L_magnet} C_ground_magnet={C_ground_magnet} R_parallel={R_parallel} 
x_mag_45 (46 47 0 0) magnet_MCS
+ PARAMS: L_magnet={L_magnet} C_ground_magnet={C_ground_magnet} R_parallel={R_parallel} 
x_mag_46 (47 48 0 0) magnet_MCS
+ PARAMS: L_magnet={L_magnet} C_ground_magnet={C_ground_magnet} R_parallel={R_parallel} 
x_mag_47 (48 49 0 0) magnet_MCS
+ PARAMS: L_magnet={L_magnet} C_ground_magnet={C_ground_magnet} R_parallel={R_parallel} 
x_mag_48 (49 50 0 0) magnet_MCS
+ PARAMS: L_magnet={L_magnet} C_ground_magnet={C_ground_magnet} R_parallel={R_parallel} 
x_mag_49 (50 51 0 0) magnet_MCS
+ PARAMS: L_magnet={L_magnet} C_ground_magnet={C_ground_magnet} R_parallel={R_parallel} 
x_mag_50 (51 52 0 0) magnet_MCS
+ PARAMS: L_magnet={L_magnet} C_ground_magnet={C_ground_magnet} R_parallel={R_parallel} 
x_mag_51 (52 53 0 0) magnet_MCS
+ PARAMS: L_magnet={L_magnet} C_ground_magnet={C_ground_magnet} R_parallel={R_parallel} 
x_mag_52 (53 54 0 0) magnet_MCS
+ PARAMS: L_magnet={L_magnet} C_ground_magnet={C_ground_magnet} R_parallel={R_parallel} 
x_mag_53 (54 55 0 0) magnet_MCS
+ PARAMS: L_magnet={L_magnet} C_ground_magnet={C_ground_magnet} R_parallel={R_parallel} 
x_mag_54 (55 56 0 0) magnet_MCS
+ PARAMS: L_magnet={L_magnet} C_ground_magnet={C_ground_magnet} R_parallel={R_parallel} 
x_mag_55 (56 57 0 0) magnet_MCS
+ PARAMS: L_magnet={L_magnet} C_ground_magnet={C_ground_magnet} R_parallel={R_parallel} 
x_mag_56 (57 58 0 0) magnet_MCS
+ PARAMS: L_magnet={L_magnet} C_ground_magnet={C_ground_magnet} R_parallel={R_parallel} 
x_mag_57 (58 59 0 0) magnet_MCS
+ PARAMS: L_magnet={L_magnet} C_ground_magnet={C_ground_magnet} R_parallel={R_parallel} 
x_mag_58 (59 60 0 0) magnet_MCS
+ PARAMS: L_magnet={L_magnet} C_ground_magnet={C_ground_magnet} R_parallel={R_parallel} 
x_mag_59 (60 61 0 0) magnet_MCS
+ PARAMS: L_magnet={L_magnet} C_ground_magnet={C_ground_magnet} R_parallel={R_parallel} 
x_mag_60 (61 62 0 0) magnet_MCS
+ PARAMS: L_magnet={L_magnet} C_ground_magnet={C_ground_magnet} R_parallel={R_parallel} 
x_mag_61 (62 63 0 0) magnet_MCS
+ PARAMS: L_magnet={L_magnet} C_ground_magnet={C_ground_magnet} R_parallel={R_parallel} 
x_mag_62 (63 64 0 0) magnet_MCS
+ PARAMS: L_magnet={L_magnet} C_ground_magnet={C_ground_magnet} R_parallel={R_parallel} 
x_mag_63 (64 65 0 0) magnet_MCS
+ PARAMS: L_magnet={L_magnet} C_ground_magnet={C_ground_magnet} R_parallel={R_parallel} 
x_mag_64 (65 66 0 0) magnet_MCS
+ PARAMS: L_magnet={L_magnet} C_ground_magnet={C_ground_magnet} R_parallel={R_parallel} 
x_mag_65 (66 67 0 0) magnet_MCS
+ PARAMS: L_magnet={L_magnet} C_ground_magnet={C_ground_magnet} R_parallel={R_parallel} 
x_mag_66 (67 68 0 0) magnet_MCS
+ PARAMS: L_magnet={L_magnet} C_ground_magnet={C_ground_magnet} R_parallel={R_parallel} 
x_mag_67 (68 69 0 0) magnet_MCS
+ PARAMS: L_magnet={L_magnet} C_ground_magnet={C_ground_magnet} R_parallel={R_parallel} 
x_mag_68 (69 70 0 0) magnet_MCS
+ PARAMS: L_magnet={L_magnet} C_ground_magnet={C_ground_magnet} R_parallel={R_parallel} 
x_mag_69 (70 71 0 0) magnet_MCS
+ PARAMS: L_magnet={L_magnet} C_ground_magnet={C_ground_magnet} R_parallel={R_parallel} 
x_mag_70 (71 72 0 0) magnet_MCS
+ PARAMS: L_magnet={L_magnet} C_ground_magnet={C_ground_magnet} R_parallel={R_parallel} 
x_mag_71 (72 73 0 0) magnet_MCS
+ PARAMS: L_magnet={L_magnet} C_ground_magnet={C_ground_magnet} R_parallel={R_parallel} 
x_mag_72 (73 74 0 0) magnet_MCS
+ PARAMS: L_magnet={L_magnet} C_ground_magnet={C_ground_magnet} R_parallel={R_parallel} 
x_mag_73 (74 75 0 0) magnet_MCS
+ PARAMS: L_magnet={L_magnet} C_ground_magnet={C_ground_magnet} R_parallel={R_parallel} 
x_mag_74 (75 76 0 0) magnet_MCS
+ PARAMS: L_magnet={L_magnet} C_ground_magnet={C_ground_magnet} R_parallel={R_parallel} 
x_mag_75 (76 77 0 0) magnet_MCS
+ PARAMS: L_magnet={L_magnet} C_ground_magnet={C_ground_magnet} R_parallel={R_parallel} 
x_mag_76 (77 78 0 0) magnet_MCS
+ PARAMS: L_magnet={L_magnet} C_ground_magnet={C_ground_magnet} R_parallel={R_parallel} 
x_mag_77 (78 79 0 0) magnet_MCS
+ PARAMS: L_magnet={L_magnet} C_ground_magnet={C_ground_magnet} R_parallel={R_parallel} 
x_mag_78 (79 80 0 0) magnet_MCS
+ PARAMS: L_magnet={L_magnet} C_ground_magnet={C_ground_magnet} R_parallel={R_parallel} 
x_mag_79 (80 81 0 0) magnet_MCS
+ PARAMS: L_magnet={L_magnet} C_ground_magnet={C_ground_magnet} R_parallel={R_parallel} 
x_mag_80 (81 82 0 0) magnet_MCS
+ PARAMS: L_magnet={L_magnet} C_ground_magnet={C_ground_magnet} R_parallel={R_parallel} 
x_mag_81 (82 83 0 0) magnet_MCS
+ PARAMS: L_magnet={L_magnet} C_ground_magnet={C_ground_magnet} R_parallel={R_parallel} 
x_mag_82 (83 84 0 0) magnet_MCS
+ PARAMS: L_magnet={L_magnet} C_ground_magnet={C_ground_magnet} R_parallel={R_parallel} 
x_mag_83 (84 85 0 0) magnet_MCS
+ PARAMS: L_magnet={L_magnet} C_ground_magnet={C_ground_magnet} R_parallel={R_parallel} 
x_mag_84 (85 86 0 0) magnet_MCS
+ PARAMS: L_magnet={L_magnet} C_ground_magnet={C_ground_magnet} R_parallel={R_parallel} 
x_mag_85 (86 87 0 0) magnet_MCS
+ PARAMS: L_magnet={L_magnet} C_ground_magnet={C_ground_magnet} R_parallel={R_parallel} 
x_mag_86 (87 88 0 0) magnet_MCS
+ PARAMS: L_magnet={L_magnet} C_ground_magnet={C_ground_magnet} R_parallel={R_parallel} 
x_mag_87 (88 89 0 0) magnet_MCS
+ PARAMS: L_magnet={L_magnet} C_ground_magnet={C_ground_magnet} R_parallel={R_parallel} 
x_mag_88 (89 90 0 0) magnet_MCS
+ PARAMS: L_magnet={L_magnet} C_ground_magnet={C_ground_magnet} R_parallel={R_parallel} 
x_mag_89 (90 91 0 0) magnet_MCS
+ PARAMS: L_magnet={L_magnet} C_ground_magnet={C_ground_magnet} R_parallel={R_parallel} 
x_mag_90 (91 92 0 0) magnet_MCS
+ PARAMS: L_magnet={L_magnet} C_ground_magnet={C_ground_magnet} R_parallel={R_parallel} 
x_mag_91 (92 93 0 0) magnet_MCS
+ PARAMS: L_magnet={L_magnet} C_ground_magnet={C_ground_magnet} R_parallel={R_parallel} 
x_mag_92 (93 94 0 0) magnet_MCS
+ PARAMS: L_magnet={L_magnet} C_ground_magnet={C_ground_magnet} R_parallel={R_parallel} 
x_mag_93 (94 95 0 0) magnet_MCS
+ PARAMS: L_magnet={L_magnet} C_ground_magnet={C_ground_magnet} R_parallel={R_parallel} 
x_mag_94 (95 96 0 0) magnet_MCS
+ PARAMS: L_magnet={L_magnet} C_ground_magnet={C_ground_magnet} R_parallel={R_parallel} 
x_mag_95 (96 97 0 0) magnet_MCS
+ PARAMS: L_magnet={L_magnet} C_ground_magnet={C_ground_magnet} R_parallel={R_parallel} 
x_mag_96 (97 98 0 0) magnet_MCS
+ PARAMS: L_magnet={L_magnet} C_ground_magnet={C_ground_magnet} R_parallel={R_parallel} 
x_mag_97 (98 99 0 0) magnet_MCS
+ PARAMS: L_magnet={L_magnet} C_ground_magnet={C_ground_magnet} R_parallel={R_parallel} 
x_mag_98 (99 100 0 0) magnet_MCS
+ PARAMS: L_magnet={L_magnet} C_ground_magnet={C_ground_magnet} R_parallel={R_parallel} 
x_mag_99 (100 101 0 0) magnet_MCS
+ PARAMS: L_magnet={L_magnet} C_ground_magnet={C_ground_magnet} R_parallel={R_parallel} 
x_mag_100 (101 102 0 0) magnet_MCS
+ PARAMS: L_magnet={L_magnet} C_ground_magnet={C_ground_magnet} R_parallel={R_parallel} 
x_mag_101 (102 103 0 0) magnet_MCS
+ PARAMS: L_magnet={L_magnet} C_ground_magnet={C_ground_magnet} R_parallel={R_parallel} 
x_mag_102 (103 104 0 0) magnet_MCS
+ PARAMS: L_magnet={L_magnet} C_ground_magnet={C_ground_magnet} R_parallel={R_parallel} 
x_mag_103 (104 105 0 0) magnet_MCS
+ PARAMS: L_magnet={L_magnet} C_ground_magnet={C_ground_magnet} R_parallel={R_parallel} 
x_mag_104 (105 106 0 0) magnet_MCS
+ PARAMS: L_magnet={L_magnet} C_ground_magnet={C_ground_magnet} R_parallel={R_parallel} 
x_mag_105 (106 107 0 0) magnet_MCS
+ PARAMS: L_magnet={L_magnet} C_ground_magnet={C_ground_magnet} R_parallel={R_parallel} 
x_mag_106 (107 108 0 0) magnet_MCS
+ PARAMS: L_magnet={L_magnet} C_ground_magnet={C_ground_magnet} R_parallel={R_parallel} 
x_mag_107 (108 109 0 0) magnet_MCS
+ PARAMS: L_magnet={L_magnet} C_ground_magnet={C_ground_magnet} R_parallel={R_parallel} 
x_mag_108 (109 110 0 0) magnet_MCS
+ PARAMS: L_magnet={L_magnet} C_ground_magnet={C_ground_magnet} R_parallel={R_parallel} 
x_mag_109 (110 111 0 0) magnet_MCS
+ PARAMS: L_magnet={L_magnet} C_ground_magnet={C_ground_magnet} R_parallel={R_parallel} 
x_mag_110 (111 112 0 0) magnet_MCS
+ PARAMS: L_magnet={L_magnet} C_ground_magnet={C_ground_magnet} R_parallel={R_parallel} 
x_mag_111 (112 113 0 0) magnet_MCS
+ PARAMS: L_magnet={L_magnet} C_ground_magnet={C_ground_magnet} R_parallel={R_parallel} 
x_mag_112 (113 114 0 0) magnet_MCS
+ PARAMS: L_magnet={L_magnet} C_ground_magnet={C_ground_magnet} R_parallel={R_parallel} 
x_mag_113 (114 115 0 0) magnet_MCS
+ PARAMS: L_magnet={L_magnet} C_ground_magnet={C_ground_magnet} R_parallel={R_parallel} 
x_mag_114 (115 116 0 0) magnet_MCS
+ PARAMS: L_magnet={L_magnet} C_ground_magnet={C_ground_magnet} R_parallel={R_parallel} 
x_mag_115 (116 117 0 0) magnet_MCS
+ PARAMS: L_magnet={L_magnet} C_ground_magnet={C_ground_magnet} R_parallel={R_parallel} 
x_mag_116 (117 118 0 0) magnet_MCS
+ PARAMS: L_magnet={L_magnet} C_ground_magnet={C_ground_magnet} R_parallel={R_parallel} 
x_mag_117 (118 119 0 0) magnet_MCS
+ PARAMS: L_magnet={L_magnet} C_ground_magnet={C_ground_magnet} R_parallel={R_parallel} 
x_mag_118 (119 120 0 0) magnet_MCS
+ PARAMS: L_magnet={L_magnet} C_ground_magnet={C_ground_magnet} R_parallel={R_parallel} 
x_mag_119 (120 121 0 0) magnet_MCS
+ PARAMS: L_magnet={L_magnet} C_ground_magnet={C_ground_magnet} R_parallel={R_parallel} 
x_mag_120 (121 122 0 0) magnet_MCS
+ PARAMS: L_magnet={L_magnet} C_ground_magnet={C_ground_magnet} R_parallel={R_parallel} 
x_mag_121 (122 123 0 0) magnet_MCS
+ PARAMS: L_magnet={L_magnet} C_ground_magnet={C_ground_magnet} R_parallel={R_parallel} 
x_mag_122 (123 124 0 0) magnet_MCS
+ PARAMS: L_magnet={L_magnet} C_ground_magnet={C_ground_magnet} R_parallel={R_parallel} 
x_mag_123 (124 125 0 0) magnet_MCS
+ PARAMS: L_magnet={L_magnet} C_ground_magnet={C_ground_magnet} R_parallel={R_parallel} 
x_mag_124 (125 126 0 0) magnet_MCS
+ PARAMS: L_magnet={L_magnet} C_ground_magnet={C_ground_magnet} R_parallel={R_parallel} 
x_mag_125 (126 127 0 0) magnet_MCS
+ PARAMS: L_magnet={L_magnet} C_ground_magnet={C_ground_magnet} R_parallel={R_parallel} 
x_mag_126 (127 128 0 0) magnet_MCS
+ PARAMS: L_magnet={L_magnet} C_ground_magnet={C_ground_magnet} R_parallel={R_parallel} 
x_mag_127 (128 129 0 0) magnet_MCS
+ PARAMS: L_magnet={L_magnet} C_ground_magnet={C_ground_magnet} R_parallel={R_parallel} 
x_mag_128 (129 130 0 0) magnet_MCS
+ PARAMS: L_magnet={L_magnet} C_ground_magnet={C_ground_magnet} R_parallel={R_parallel} 
x_mag_129 (130 131 0 0) magnet_MCS
+ PARAMS: L_magnet={L_magnet} C_ground_magnet={C_ground_magnet} R_parallel={R_parallel} 
x_mag_130 (131 132 0 0) magnet_MCS
+ PARAMS: L_magnet={L_magnet} C_ground_magnet={C_ground_magnet} R_parallel={R_parallel} 
x_mag_131 (132 133 0 0) magnet_MCS
+ PARAMS: L_magnet={L_magnet} C_ground_magnet={C_ground_magnet} R_parallel={R_parallel} 
x_mag_132 (133 134 0 0) magnet_MCS
+ PARAMS: L_magnet={L_magnet} C_ground_magnet={C_ground_magnet} R_parallel={R_parallel} 
x_mag_133 (134 135 0 0) magnet_MCS
+ PARAMS: L_magnet={L_magnet} C_ground_magnet={C_ground_magnet} R_parallel={R_parallel} 
x_mag_134 (135 136 0 0) magnet_MCS
+ PARAMS: L_magnet={L_magnet} C_ground_magnet={C_ground_magnet} R_parallel={R_parallel} 
x_mag_135 (136 137 0 0) magnet_MCS
+ PARAMS: L_magnet={L_magnet} C_ground_magnet={C_ground_magnet} R_parallel={R_parallel} 
x_mag_136 (137 138 0 0) magnet_MCS
+ PARAMS: L_magnet={L_magnet} C_ground_magnet={C_ground_magnet} R_parallel={R_parallel} 
x_mag_137 (138 139 0 0) magnet_MCS
+ PARAMS: L_magnet={L_magnet} C_ground_magnet={C_ground_magnet} R_parallel={R_parallel} 
x_mag_138 (139 140 0 0) magnet_MCS
+ PARAMS: L_magnet={L_magnet} C_ground_magnet={C_ground_magnet} R_parallel={R_parallel} 
x_mag_139 (140 141 0 0) magnet_MCS
+ PARAMS: L_magnet={L_magnet} C_ground_magnet={C_ground_magnet} R_parallel={R_parallel} 
x_mag_140 (141 142 0 0) magnet_MCS
+ PARAMS: L_magnet={L_magnet} C_ground_magnet={C_ground_magnet} R_parallel={R_parallel} 
x_mag_141 (142 143 0 0) magnet_MCS
+ PARAMS: L_magnet={L_magnet} C_ground_magnet={C_ground_magnet} R_parallel={R_parallel} 
x_mag_142 (143 144 0 0) magnet_MCS
+ PARAMS: L_magnet={L_magnet} C_ground_magnet={C_ground_magnet} R_parallel={R_parallel} 
x_mag_143 (144 145 0 0) magnet_MCS
+ PARAMS: L_magnet={L_magnet} C_ground_magnet={C_ground_magnet} R_parallel={R_parallel} 
x_mag_144 (145 146 0 0) magnet_MCS
+ PARAMS: L_magnet={L_magnet} C_ground_magnet={C_ground_magnet} R_parallel={R_parallel} 
x_mag_145 (146 147 0 0) magnet_MCS
+ PARAMS: L_magnet={L_magnet} C_ground_magnet={C_ground_magnet} R_parallel={R_parallel} 
x_mag_146 (147 148 0 0) magnet_MCS
+ PARAMS: L_magnet={L_magnet} C_ground_magnet={C_ground_magnet} R_parallel={R_parallel} 
x_mag_147 (148 149 0 0) magnet_MCS
+ PARAMS: L_magnet={L_magnet} C_ground_magnet={C_ground_magnet} R_parallel={R_parallel} 
x_mag_148 (149 150 0 0) magnet_MCS
+ PARAMS: L_magnet={L_magnet} C_ground_magnet={C_ground_magnet} R_parallel={R_parallel} 
x_mag_149 (150 151 0 0) magnet_MCS
+ PARAMS: L_magnet={L_magnet} C_ground_magnet={C_ground_magnet} R_parallel={R_parallel} 
x_mag_150 (151 152 0 0) magnet_MCS
+ PARAMS: L_magnet={L_magnet} C_ground_magnet={C_ground_magnet} R_parallel={R_parallel} 
x_mag_151 (152 153 0 0) magnet_MCS
+ PARAMS: L_magnet={L_magnet} C_ground_magnet={C_ground_magnet} R_parallel={R_parallel} 
x_mag_152 (153 154 0 0) magnet_MCS
+ PARAMS: L_magnet={L_magnet} C_ground_magnet={C_ground_magnet} R_parallel={R_parallel} 
x_mag_153 (154 155 0 0) magnet_MCS
+ PARAMS: L_magnet={L_magnet} C_ground_magnet={C_ground_magnet} R_parallel={R_parallel} 
x_mag_154 (155 156 0 0) magnet_MCS
+ PARAMS: L_magnet={L_magnet} C_ground_magnet={C_ground_magnet} R_parallel={R_parallel} 
*
* Energy-extraction system
x_R_EE (156 157 156_mid) EE_600A
+ PARAMS: R_EE={R_EE} t_EE={t_EE} Opening_Time={Opening_Time} Delay_Branch1={Delay_Branch1} Delay_Branch2={Delay_Branch2} 
+ Delay_Branch3={Delay_Branch3} C_snubber={C_snubber} R_snubber={R_snubber} R_Branch={R_Branch} L_Branch={L_Branch} 
*
* Warm lead between energy-extraction and power-supply negative side (ground)
R_WARM_2 (157 0A) {R_warm/2}
*
* Grounding circuit
R_GROUND (0A 0) {1E6}
*
.OPTION
+ RELTOL=0.0001
+ VNTOL=0.00001
+ ABSTOL=0.0001
+ CHGTOL=0.000000000000001
+ GMIN=0.000000000001
+ ITL1=150
+ ITL2=20
+ ITL4=10
+ TNOM=27

.AUTOCONVERGE
+ RELTOL=0.05
+ VNTOL=0.0001
+ ABSTOL=0.0001
+ ITL1=1000
+ ITL2=1000
+ ITL4=1000
+ PIVTOL=0.0000000001


.TRAN 0.0 75.0 0.1 
+ {SCHEDULE(
+ 0.0,		 0.5,
+ 70.0,		 1.0E-4,
+ 71.0,		 0.01
+ )}

.PROBE
.END

