

* PSPICE Netlist Simulation File
* Generated on 2019/11/12 12:35:58 at CERN
* Authors: STEAM
.STMLIB C:\GitLabRepository\steam-pspice-library\RQD_RQF\Stimulus\I_PC_test_HWC.stl
.LIB "C:\GitLabRepository\steam-pspice-library\RQD_RQF\Items\RQ_Diodes.lib"
.LIB "C:\GitLabRepository\steam-pspice-library\RQD_RQF\Items\RB_EE.lib"
.LIB "C:\GitLabRepository\steam-pspice-library\RQD_RQF\Items\RQ_PC_Signal.lib"
.LIB "C:\GitLabRepository\steam-pspice-library\RQD_RQF\Items\RQ_PC_Main.lib"
.LIB "C:\GitLabRepository\steam-pspice-library\RQD_RQF\Items\RQ_MQ_Magnet.lib"
.LIB "C:\GitLabRepository\steam-pspice-library\RQD_RQF\Items\RQ_PC_WARM.lib"
.LIB "C:\GitLabRepository\steam-pspice-library\RQD_RQF\Items\RQ_PC_EC.lib"
.LIB "C:\GitLabRepository\steam-pspice-library\RQD_RQF\Items\PC_SUB_SUB_SUB.lib"
.LIB "C:\GitLabRepository\steam-pspice-library\RQD_RQF\Items\PC_SUB_SUB.lib"
.LIB "C:\GitLabRepository\steam-pspice-library\RQD_RQF\Items\PC_SUB.lib"
.LIB "C:\GitLabRepository\steam-pspice-library\RQD_RQF\Items\RQ_PC_FILTER_SUB_SUB.lib"
.LIB "C:\GitLabRepository\steam-pspice-library\RQD_RQF\Items\RQ_PC_FILTER_Main.lib"
**** Global parameters ****
.PARAM
+ I_0={10351.275} 
+ R_Warm={6.64E-04} 
+ R_EE={6.85E-03} 
+ t_EE={757.236} 
+ t_PS_off={757.14} 
+ Delay_Branch1={0} 
+ Delay_Branch2={0} 
+ Delay_Branch3={0} 
+ Delay_Branch4={0} 

**** Main circuit ****
* Power supply
x_PC (1F 1A) PC_Main
+ PARAMS: t_PS_off={t_PS_off} I_value={I_value} 
*
* Warm lead between power supply and magnets - Positive side
x_RQ_PC_WARM_1 (1F 1) RQ_PC_WARM
+ PARAMS: R_Warm={R_Warm} 
*
* Magnets connected in series
x_RQ_MQ_Magnet_1 (1 2) RQ_MQ_Magnet_simple_updated
x_RQ_MQ_Magnet_2 (2 3) RQ_MQ_Magnet_simple_updated
x_RQ_MQ_Magnet_3 (3 4) RQ_MQ_Magnet_simple_updated
x_RQ_MQ_Magnet_4 (4 5) RQ_MQ_Magnet_simple_updated
x_RQ_MQ_Magnet_5 (5 6) RQ_MQ_Magnet_simple_updated
x_RQ_MQ_Magnet_6 (6 7) RQ_MQ_Magnet_simple_updated
x_RQ_MQ_Magnet_7 (7 8) RQ_MQ_Magnet_simple_updated
x_RQ_MQ_Magnet_8 (8 9) RQ_MQ_Magnet_simple_updated
x_RQ_MQ_Magnet_9 (9 10) RQ_MQ_Magnet_simple_updated
x_RQ_MQ_Magnet_10 (10 11) RQ_MQ_Magnet_simple_updated
x_RQ_MQ_Magnet_11 (11 12) RQ_MQ_Magnet_simple_updated
x_RQ_MQ_Magnet_12 (12 13) RQ_MQ_Magnet_simple_updated
x_RQ_MQ_Magnet_13 (13 14) RQ_MQ_Magnet_simple_updated
x_RQ_MQ_Magnet_14 (14 15) RQ_MQ_Magnet_simple_updated
x_RQ_MQ_Magnet_15 (15 16) RQ_MQ_Magnet_simple_updated
x_RQ_MQ_Magnet_16 (16 17) RQ_MQ_Magnet_simple_updated
x_RQ_MQ_Magnet_17 (17 18) RQ_MQ_Magnet_simple_updated
x_RQ_MQ_Magnet_18 (18 19) RQ_MQ_Magnet_simple_updated
x_RQ_MQ_Magnet_19 (19 20) RQ_MQ_Magnet_simple_updated
x_RQ_MQ_Magnet_20 (20 21) RQ_MQ_Magnet_simple_updated
x_RQ_MQ_Magnet_21 (21 22) RQ_MQ_Magnet_simple_updated
x_RQ_MQ_Magnet_22 (22 23) RQ_MQ_Magnet_simple_updated
x_RQ_MQ_Magnet_23 (23 24) RQ_MQ_Magnet_simple_updated
x_RQ_MQ_Magnet_24 (24 25) RQ_MQ_Magnet_simple_updated
x_RQ_MQ_Magnet_25 (25 26) RQ_MQ_Magnet_simple_updated
x_RQ_MQ_Magnet_26 (26 27) RQ_MQ_Magnet_simple_updated
x_RQ_MQ_Magnet_27 (27 28) RQ_MQ_Magnet_simple_updated
x_RQ_MQ_Magnet_28 (28 29) RQ_MQ_Magnet_simple_updated
x_RQ_MQ_Magnet_29 (29 30) RQ_MQ_Magnet_simple_updated
x_RQ_MQ_Magnet_30 (30 31) RQ_MQ_Magnet_simple_updated
x_RQ_MQ_Magnet_31 (31 32) RQ_MQ_Magnet_simple_updated
x_RQ_MQ_Magnet_32 (32 33) RQ_MQ_Magnet_simple_updated
x_RQ_MQ_Magnet_33 (33 34) RQ_MQ_Magnet_simple_updated
x_RQ_MQ_Magnet_34 (34 35) RQ_MQ_Magnet_simple_updated
x_RQ_MQ_Magnet_35 (35 36) RQ_MQ_Magnet_simple_updated
x_RQ_MQ_Magnet_36 (36 37) RQ_MQ_Magnet_simple_updated
x_RQ_MQ_Magnet_37 (37 38) RQ_MQ_Magnet_simple_updated
x_RQ_MQ_Magnet_38 (38 39) RQ_MQ_Magnet_simple_updated
x_RQ_MQ_Magnet_39 (39 40) RQ_MQ_Magnet_simple_updated
x_RQ_MQ_Magnet_40 (40 41) RQ_MQ_Magnet_simple_updated
x_RQ_MQ_Magnet_41 (41 42) RQ_MQ_Magnet_simple_updated
x_RQ_MQ_Magnet_42 (42 43) RQ_MQ_Magnet_simple_updated
x_RQ_MQ_Magnet_43 (43 44) RQ_MQ_Magnet_simple_updated
x_RQ_MQ_Magnet_44 (44 45) RQ_MQ_Magnet_simple_updated
x_RQ_MQ_Magnet_45 (45 46) RQ_MQ_Magnet_simple_updated
x_RQ_MQ_Magnet_46 (46 47) RQ_MQ_Magnet_simple_updated
x_RQ_MQ_Magnet_47 (47 48) RQ_MQ_Magnet_simple_updated
*
* Warm lead between power supply and magnets - Negative side
x_RQ_PC_WARM_2 (48 49) RQ_PC_WARM
+ PARAMS: R_Warm={R_Warm} 
*
* Energy-extraction system
x_R_EE (49 1A 1C) RQ_EE
+ PARAMS: R_EE={R_EE} t_EE={t_EE} Delay_Branch1={Delay_Branch1} Delay_Branch2={Delay_Branch2} Delay_Branch3={Delay_Branch3} Delay_Branch4={Delay_Branch4} 
*
* Grounding circuit
x_EC (1A 0) RQ_PC_EC
*
.OPTION
+ RELTOL=0.0001
+ VNTOL=0.00001
+ ABSTOL=0.0001
+ CHGTOL=0.000000000000001
+ GMIN=0.000000000001
+ ITL1=150
+ ITL2=20
+ ITL4=10
+ TNOM=27
+ NUMDGT_SOLVER=8

.AUTOCONVERGE
+ RELTOL=0.05
+ VNTOL=0.0001
+ ABSTOL=0.0001
+ ITL1=1000
+ ITL2=1000
+ ITL4=1000
+ PIVTOL=0.0000000001


.TRAN 0.0 950.0 0.1 
+ {SCHEDULE(
+ 0.0,		 0.5,
+ 475.0,		 0.1,
+ 498.0,		 0.1,
+ 750.0,		 0.01,
+ 757.13,		 1.0E-5,
+ 757.155,		 0.001,
+ 757.235,		 1.0E-4,
+ 757.275,		 0.01,
+ 775.0,		 0.1
+ )}

.PROBE
.END

